sci.electronics,C:\Users\sabau.DOM_MEDIASAT\Projects\Licenta\NewsGroupDataSet\20news-bydate-train\sci.electronics\,53539
sci.med,C:\Users\sabau.DOM_MEDIASAT\Projects\Licenta\NewsGroupDataSet\20news-bydate-train\sci.med\,58837
rec.sport.baseball,C:\Users\sabau.DOM_MEDIASAT\Projects\Licenta\NewsGroupDataSet\20news-bydate-train\rec.sport.baseball\,104345
sci.med,C:\Users\sabau.DOM_MEDIASAT\Projects\Licenta\NewsGroupDataSet\20news-bydate-train\sci.med\,59063
sci.med,C:\Users\sabau.DOM_MEDIASAT\Projects\Licenta\NewsGroupDataSet\20news-bydate-train\sci.med\,58140
rec.sport.baseball,C:\Users\sabau.DOM_MEDIASAT\Projects\Licenta\NewsGroupDataSet\20news-bydate-train\rec.sport.baseball\,102732
rec.sport.baseball,C:\Users\sabau.DOM_MEDIASAT\Projects\Licenta\NewsGroupDataSet\20news-bydate-train\rec.sport.baseball\,104389
comp.os.ms-windows.misc,C:\Users\sabau.DOM_MEDIASAT\Projects\Licenta\NewsGroupDataSet\20news-bydate-train\comp.os.ms-windows.misc\,9542
rec.autos,C:\Users\sabau.DOM_MEDIASAT\Projects\Licenta\NewsGroupDataSet\20news-bydate-train\rec.autos\,102800
rec.sport.baseball,C:\Users\sabau.DOM_MEDIASAT\Projects\Licenta\NewsGroupDataSet\20news-bydate-train\rec.sport.baseball\,104697
sci.med,C:\Users\sabau.DOM_MEDIASAT\Projects\Licenta\NewsGroupDataSet\20news-bydate-train\sci.med\,58956
rec.sport.baseball,C:\Users\sabau.DOM_MEDIASAT\Projects\Licenta\NewsGroupDataSet\20news-bydate-train\rec.sport.baseball\,104595
comp.os.ms-windows.misc,C:\Users\sabau.DOM_MEDIASAT\Projects\Licenta\NewsGroupDataSet\20news-bydate-train\comp.os.ms-windows.misc\,9613
comp.os.ms-windows.misc,C:\Users\sabau.DOM_MEDIASAT\Projects\Licenta\NewsGroupDataSet\20news-bydate-train\comp.os.ms-windows.misc\,9656
sci.electronics,C:\Users\sabau.DOM_MEDIASAT\Projects\Licenta\NewsGroupDataSet\20news-bydate-train\sci.electronics\,53901
rec.sport.baseball,C:\Users\sabau.DOM_MEDIASAT\Projects\Licenta\NewsGroupDataSet\20news-bydate-train\rec.sport.baseball\,104515
sci.med,C:\Users\sabau.DOM_MEDIASAT\Projects\Licenta\NewsGroupDataSet\20news-bydate-train\sci.med\,58766
rec.autos,C:\Users\sabau.DOM_MEDIASAT\Projects\Licenta\NewsGroupDataSet\20news-bydate-train\rec.autos\,101598
comp.os.ms-windows.misc,C:\Users\sabau.DOM_MEDIASAT\Projects\Licenta\NewsGroupDataSet\20news-bydate-train\comp.os.ms-windows.misc\,9593
rec.autos,C:\Users\sabau.DOM_MEDIASAT\Projects\Licenta\NewsGroupDataSet\20news-bydate-train\rec.autos\,103410
rec.sport.baseball,C:\Users\sabau.DOM_MEDIASAT\Projects\Licenta\NewsGroupDataSet\20news-bydate-train\rec.sport.baseball\,102643
sci.electronics,C:\Users\sabau.DOM_MEDIASAT\Projects\Licenta\NewsGroupDataSet\20news-bydate-train\sci.electronics\,53760
sci.med,C:\Users\sabau.DOM_MEDIASAT\Projects\Licenta\NewsGroupDataSet\20news-bydate-train\sci.med\,59013
rec.autos,C:\Users\sabau.DOM_MEDIASAT\Projects\Licenta\NewsGroupDataSet\20news-bydate-train\rec.autos\,102833
rec.autos,C:\Users\sabau.DOM_MEDIASAT\Projects\Licenta\NewsGroupDataSet\20news-bydate-train\rec.autos\,102889
sci.med,C:\Users\sabau.DOM_MEDIASAT\Projects\Licenta\NewsGroupDataSet\20news-bydate-train\sci.med\,58908
rec.sport.baseball,C:\Users\sabau.DOM_MEDIASAT\Projects\Licenta\NewsGroupDataSet\20news-bydate-train\rec.sport.baseball\,104354
rec.sport.baseball,C:\Users\sabau.DOM_MEDIASAT\Projects\Licenta\NewsGroupDataSet\20news-bydate-train\rec.sport.baseball\,102724
comp.os.ms-windows.misc,C:\Users\sabau.DOM_MEDIASAT\Projects\Licenta\NewsGroupDataSet\20news-bydate-train\comp.os.ms-windows.misc\,9634
rec.autos,C:\Users\sabau.DOM_MEDIASAT\Projects\Licenta\NewsGroupDataSet\20news-bydate-train\rec.autos\,103437
rec.autos,C:\Users\sabau.DOM_MEDIASAT\Projects\Licenta\NewsGroupDataSet\20news-bydate-train\rec.autos\,103111
sci.electronics,C:\Users\sabau.DOM_MEDIASAT\Projects\Licenta\NewsGroupDataSet\20news-bydate-train\sci.electronics\,53717
comp.os.ms-windows.misc,C:\Users\sabau.DOM_MEDIASAT\Projects\Licenta\NewsGroupDataSet\20news-bydate-train\comp.os.ms-windows.misc\,9627
comp.os.ms-windows.misc,C:\Users\sabau.DOM_MEDIASAT\Projects\Licenta\NewsGroupDataSet\20news-bydate-train\comp.os.ms-windows.misc\,9726
rec.sport.baseball,C:\Users\sabau.DOM_MEDIASAT\Projects\Licenta\NewsGroupDataSet\20news-bydate-train\rec.sport.baseball\,104585
sci.med,C:\Users\sabau.DOM_MEDIASAT\Projects\Licenta\NewsGroupDataSet\20news-bydate-train\sci.med\,58121
comp.os.ms-windows.misc,C:\Users\sabau.DOM_MEDIASAT\Projects\Licenta\NewsGroupDataSet\20news-bydate-train\comp.os.ms-windows.misc\,9608
rec.sport.baseball,C:\Users\sabau.DOM_MEDIASAT\Projects\Licenta\NewsGroupDataSet\20news-bydate-train\rec.sport.baseball\,104373
sci.med,C:\Users\sabau.DOM_MEDIASAT\Projects\Licenta\NewsGroupDataSet\20news-bydate-train\sci.med\,58131
rec.sport.baseball,C:\Users\sabau.DOM_MEDIASAT\Projects\Licenta\NewsGroupDataSet\20news-bydate-train\rec.sport.baseball\,102654
sci.electronics,C:\Users\sabau.DOM_MEDIASAT\Projects\Licenta\NewsGroupDataSet\20news-bydate-train\sci.electronics\,53507
comp.os.ms-windows.misc,C:\Users\sabau.DOM_MEDIASAT\Projects\Licenta\NewsGroupDataSet\20news-bydate-train\comp.os.ms-windows.misc\,9709
rec.sport.baseball,C:\Users\sabau.DOM_MEDIASAT\Projects\Licenta\NewsGroupDataSet\20news-bydate-train\rec.sport.baseball\,102687
rec.sport.baseball,C:\Users\sabau.DOM_MEDIASAT\Projects\Licenta\NewsGroupDataSet\20news-bydate-train\rec.sport.baseball\,104910
sci.med,C:\Users\sabau.DOM_MEDIASAT\Projects\Licenta\NewsGroupDataSet\20news-bydate-train\sci.med\,58116
rec.autos,C:\Users\sabau.DOM_MEDIASAT\Projects\Licenta\NewsGroupDataSet\20news-bydate-train\rec.autos\,101634
comp.os.ms-windows.misc,C:\Users\sabau.DOM_MEDIASAT\Projects\Licenta\NewsGroupDataSet\20news-bydate-train\comp.os.ms-windows.misc\,9561
comp.os.ms-windows.misc,C:\Users\sabau.DOM_MEDIASAT\Projects\Licenta\NewsGroupDataSet\20news-bydate-train\comp.os.ms-windows.misc\,9591
sci.med,C:\Users\sabau.DOM_MEDIASAT\Projects\Licenta\NewsGroupDataSet\20news-bydate-train\sci.med\,59073
sci.med,C:\Users\sabau.DOM_MEDIASAT\Projects\Licenta\NewsGroupDataSet\20news-bydate-train\sci.med\,58096
comp.os.ms-windows.misc,C:\Users\sabau.DOM_MEDIASAT\Projects\Licenta\NewsGroupDataSet\20news-bydate-train\comp.os.ms-windows.misc\,9538
rec.sport.baseball,C:\Users\sabau.DOM_MEDIASAT\Projects\Licenta\NewsGroupDataSet\20news-bydate-train\rec.sport.baseball\,104649
rec.autos,C:\Users\sabau.DOM_MEDIASAT\Projects\Licenta\NewsGroupDataSet\20news-bydate-train\rec.autos\,102944
sci.electronics,C:\Users\sabau.DOM_MEDIASAT\Projects\Licenta\NewsGroupDataSet\20news-bydate-train\sci.electronics\,53565
rec.autos,C:\Users\sabau.DOM_MEDIASAT\Projects\Licenta\NewsGroupDataSet\20news-bydate-train\rec.autos\,102980
rec.autos,C:\Users\sabau.DOM_MEDIASAT\Projects\Licenta\NewsGroupDataSet\20news-bydate-train\rec.autos\,102989
comp.os.ms-windows.misc,C:\Users\sabau.DOM_MEDIASAT\Projects\Licenta\NewsGroupDataSet\20news-bydate-train\comp.os.ms-windows.misc\,9595
sci.med,C:\Users\sabau.DOM_MEDIASAT\Projects\Licenta\NewsGroupDataSet\20news-bydate-train\sci.med\,58997
rec.sport.baseball,C:\Users\sabau.DOM_MEDIASAT\Projects\Licenta\NewsGroupDataSet\20news-bydate-train\rec.sport.baseball\,104562
sci.electronics,C:\Users\sabau.DOM_MEDIASAT\Projects\Licenta\NewsGroupDataSet\20news-bydate-train\sci.electronics\,52733
rec.autos,C:\Users\sabau.DOM_MEDIASAT\Projects\Licenta\NewsGroupDataSet\20news-bydate-train\rec.autos\,103426
sci.med,C:\Users\sabau.DOM_MEDIASAT\Projects\Licenta\NewsGroupDataSet\20news-bydate-train\sci.med\,58097
rec.autos,C:\Users\sabau.DOM_MEDIASAT\Projects\Licenta\NewsGroupDataSet\20news-bydate-train\rec.autos\,101564
rec.autos,C:\Users\sabau.DOM_MEDIASAT\Projects\Licenta\NewsGroupDataSet\20news-bydate-train\rec.autos\,102905
comp.os.ms-windows.misc,C:\Users\sabau.DOM_MEDIASAT\Projects\Licenta\NewsGroupDataSet\20news-bydate-train\comp.os.ms-windows.misc\,9492
rec.autos,C:\Users\sabau.DOM_MEDIASAT\Projects\Licenta\NewsGroupDataSet\20news-bydate-train\rec.autos\,103000
comp.os.ms-windows.misc,C:\Users\sabau.DOM_MEDIASAT\Projects\Licenta\NewsGroupDataSet\20news-bydate-train\comp.os.ms-windows.misc\,9974
sci.electronics,C:\Users\sabau.DOM_MEDIASAT\Projects\Licenta\NewsGroupDataSet\20news-bydate-train\sci.electronics\,53696
comp.os.ms-windows.misc,C:\Users\sabau.DOM_MEDIASAT\Projects\Licenta\NewsGroupDataSet\20news-bydate-train\comp.os.ms-windows.misc\,9883
rec.sport.baseball,C:\Users\sabau.DOM_MEDIASAT\Projects\Licenta\NewsGroupDataSet\20news-bydate-train\rec.sport.baseball\,104548
sci.electronics,C:\Users\sabau.DOM_MEDIASAT\Projects\Licenta\NewsGroupDataSet\20news-bydate-train\sci.electronics\,53922
rec.sport.baseball,C:\Users\sabau.DOM_MEDIASAT\Projects\Licenta\NewsGroupDataSet\20news-bydate-train\rec.sport.baseball\,102590
sci.med,C:\Users\sabau.DOM_MEDIASAT\Projects\Licenta\NewsGroupDataSet\20news-bydate-train\sci.med\,58875
comp.os.ms-windows.misc,C:\Users\sabau.DOM_MEDIASAT\Projects\Licenta\NewsGroupDataSet\20news-bydate-train\comp.os.ms-windows.misc\,9694
sci.med,C:\Users\sabau.DOM_MEDIASAT\Projects\Licenta\NewsGroupDataSet\20news-bydate-train\sci.med\,58816
comp.os.ms-windows.misc,C:\Users\sabau.DOM_MEDIASAT\Projects\Licenta\NewsGroupDataSet\20news-bydate-train\comp.os.ms-windows.misc\,9501
rec.autos,C:\Users\sabau.DOM_MEDIASAT\Projects\Licenta\NewsGroupDataSet\20news-bydate-train\rec.autos\,103001
comp.os.ms-windows.misc,C:\Users\sabau.DOM_MEDIASAT\Projects\Licenta\NewsGroupDataSet\20news-bydate-train\comp.os.ms-windows.misc\,9792
comp.os.ms-windows.misc,C:\Users\sabau.DOM_MEDIASAT\Projects\Licenta\NewsGroupDataSet\20news-bydate-train\comp.os.ms-windows.misc\,9749
rec.autos,C:\Users\sabau.DOM_MEDIASAT\Projects\Licenta\NewsGroupDataSet\20news-bydate-train\rec.autos\,103092
sci.med,C:\Users\sabau.DOM_MEDIASAT\Projects\Licenta\NewsGroupDataSet\20news-bydate-train\sci.med\,58912
rec.sport.baseball,C:\Users\sabau.DOM_MEDIASAT\Projects\Licenta\NewsGroupDataSet\20news-bydate-train\rec.sport.baseball\,104443
comp.os.ms-windows.misc,C:\Users\sabau.DOM_MEDIASAT\Projects\Licenta\NewsGroupDataSet\20news-bydate-train\comp.os.ms-windows.misc\,9707
rec.autos,C:\Users\sabau.DOM_MEDIASAT\Projects\Licenta\NewsGroupDataSet\20news-bydate-train\rec.autos\,102782
sci.electronics,C:\Users\sabau.DOM_MEDIASAT\Projects\Licenta\NewsGroupDataSet\20news-bydate-train\sci.electronics\,53921
sci.med,C:\Users\sabau.DOM_MEDIASAT\Projects\Licenta\NewsGroupDataSet\20news-bydate-train\sci.med\,58861
rec.sport.baseball,C:\Users\sabau.DOM_MEDIASAT\Projects\Licenta\NewsGroupDataSet\20news-bydate-train\rec.sport.baseball\,104360
sci.electronics,C:\Users\sabau.DOM_MEDIASAT\Projects\Licenta\NewsGroupDataSet\20news-bydate-train\sci.electronics\,53977
rec.autos,C:\Users\sabau.DOM_MEDIASAT\Projects\Licenta\NewsGroupDataSet\20news-bydate-train\rec.autos\,102891
rec.autos,C:\Users\sabau.DOM_MEDIASAT\Projects\Licenta\NewsGroupDataSet\20news-bydate-train\rec.autos\,101584
rec.sport.baseball,C:\Users\sabau.DOM_MEDIASAT\Projects\Licenta\NewsGroupDataSet\20news-bydate-train\rec.sport.baseball\,104529
rec.autos,C:\Users\sabau.DOM_MEDIASAT\Projects\Licenta\NewsGroupDataSet\20news-bydate-train\rec.autos\,103237
rec.sport.baseball,C:\Users\sabau.DOM_MEDIASAT\Projects\Licenta\NewsGroupDataSet\20news-bydate-train\rec.sport.baseball\,104929
rec.autos,C:\Users\sabau.DOM_MEDIASAT\Projects\Licenta\NewsGroupDataSet\20news-bydate-train\rec.autos\,103085
sci.electronics,C:\Users\sabau.DOM_MEDIASAT\Projects\Licenta\NewsGroupDataSet\20news-bydate-train\sci.electronics\,53614
rec.sport.baseball,C:\Users\sabau.DOM_MEDIASAT\Projects\Licenta\NewsGroupDataSet\20news-bydate-train\rec.sport.baseball\,104577
sci.electronics,C:\Users\sabau.DOM_MEDIASAT\Projects\Licenta\NewsGroupDataSet\20news-bydate-train\sci.electronics\,52764
sci.med,C:\Users\sabau.DOM_MEDIASAT\Projects\Licenta\NewsGroupDataSet\20news-bydate-train\sci.med\,58840
comp.os.ms-windows.misc,C:\Users\sabau.DOM_MEDIASAT\Projects\Licenta\NewsGroupDataSet\20news-bydate-train\comp.os.ms-windows.misc\,9512
rec.sport.baseball,C:\Users\sabau.DOM_MEDIASAT\Projects\Licenta\NewsGroupDataSet\20news-bydate-train\rec.sport.baseball\,102685
rec.sport.baseball,C:\Users\sabau.DOM_MEDIASAT\Projects\Licenta\NewsGroupDataSet\20news-bydate-train\rec.sport.baseball\,104593
rec.sport.baseball,C:\Users\sabau.DOM_MEDIASAT\Projects\Licenta\NewsGroupDataSet\20news-bydate-train\rec.sport.baseball\,104322
comp.os.ms-windows.misc,C:\Users\sabau.DOM_MEDIASAT\Projects\Licenta\NewsGroupDataSet\20news-bydate-train\comp.os.ms-windows.misc\,9884
sci.electronics,C:\Users\sabau.DOM_MEDIASAT\Projects\Licenta\NewsGroupDataSet\20news-bydate-train\sci.electronics\,53635
sci.med,C:\Users\sabau.DOM_MEDIASAT\Projects\Licenta\NewsGroupDataSet\20news-bydate-train\sci.med\,58890
sci.med,C:\Users\sabau.DOM_MEDIASAT\Projects\Licenta\NewsGroupDataSet\20news-bydate-train\sci.med\,58962
sci.med,C:\Users\sabau.DOM_MEDIASAT\Projects\Licenta\NewsGroupDataSet\20news-bydate-train\sci.med\,58822
rec.autos,C:\Users\sabau.DOM_MEDIASAT\Projects\Licenta\NewsGroupDataSet\20news-bydate-train\rec.autos\,102966
sci.med,C:\Users\sabau.DOM_MEDIASAT\Projects\Licenta\NewsGroupDataSet\20news-bydate-train\sci.med\,58124
rec.sport.baseball,C:\Users\sabau.DOM_MEDIASAT\Projects\Licenta\NewsGroupDataSet\20news-bydate-train\rec.sport.baseball\,104554
comp.os.ms-windows.misc,C:\Users\sabau.DOM_MEDIASAT\Projects\Licenta\NewsGroupDataSet\20news-bydate-train\comp.os.ms-windows.misc\,9698
sci.med,C:\Users\sabau.DOM_MEDIASAT\Projects\Licenta\NewsGroupDataSet\20news-bydate-train\sci.med\,59011
sci.electronics,C:\Users\sabau.DOM_MEDIASAT\Projects\Licenta\NewsGroupDataSet\20news-bydate-train\sci.electronics\,52772
rec.autos,C:\Users\sabau.DOM_MEDIASAT\Projects\Licenta\NewsGroupDataSet\20news-bydate-train\rec.autos\,103325
sci.electronics,C:\Users\sabau.DOM_MEDIASAT\Projects\Licenta\NewsGroupDataSet\20news-bydate-train\sci.electronics\,53576
sci.med,C:\Users\sabau.DOM_MEDIASAT\Projects\Licenta\NewsGroupDataSet\20news-bydate-train\sci.med\,59265
rec.sport.baseball,C:\Users\sabau.DOM_MEDIASAT\Projects\Licenta\NewsGroupDataSet\20news-bydate-train\rec.sport.baseball\,104347
rec.autos,C:\Users\sabau.DOM_MEDIASAT\Projects\Licenta\NewsGroupDataSet\20news-bydate-train\rec.autos\,103059
sci.electronics,C:\Users\sabau.DOM_MEDIASAT\Projects\Licenta\NewsGroupDataSet\20news-bydate-train\sci.electronics\,52737
rec.sport.baseball,C:\Users\sabau.DOM_MEDIASAT\Projects\Licenta\NewsGroupDataSet\20news-bydate-train\rec.sport.baseball\,104419
sci.med,C:\Users\sabau.DOM_MEDIASAT\Projects\Licenta\NewsGroupDataSet\20news-bydate-train\sci.med\,58114
rec.sport.baseball,C:\Users\sabau.DOM_MEDIASAT\Projects\Licenta\NewsGroupDataSet\20news-bydate-train\rec.sport.baseball\,102736
comp.os.ms-windows.misc,C:\Users\sabau.DOM_MEDIASAT\Projects\Licenta\NewsGroupDataSet\20news-bydate-train\comp.os.ms-windows.misc\,9668
rec.sport.baseball,C:\Users\sabau.DOM_MEDIASAT\Projects\Licenta\NewsGroupDataSet\20news-bydate-train\rec.sport.baseball\,104472
sci.med,C:\Users\sabau.DOM_MEDIASAT\Projects\Licenta\NewsGroupDataSet\20news-bydate-train\sci.med\,58984
sci.electronics,C:\Users\sabau.DOM_MEDIASAT\Projects\Licenta\NewsGroupDataSet\20news-bydate-train\sci.electronics\,52718
sci.med,C:\Users\sabau.DOM_MEDIASAT\Projects\Licenta\NewsGroupDataSet\20news-bydate-train\sci.med\,58937
sci.electronics,C:\Users\sabau.DOM_MEDIASAT\Projects\Licenta\NewsGroupDataSet\20news-bydate-train\sci.electronics\,53781
sci.med,C:\Users\sabau.DOM_MEDIASAT\Projects\Licenta\NewsGroupDataSet\20news-bydate-train\sci.med\,59161
sci.med,C:\Users\sabau.DOM_MEDIASAT\Projects\Licenta\NewsGroupDataSet\20news-bydate-train\sci.med\,58141
sci.electronics,C:\Users\sabau.DOM_MEDIASAT\Projects\Licenta\NewsGroupDataSet\20news-bydate-train\sci.electronics\,53663
sci.med,C:\Users\sabau.DOM_MEDIASAT\Projects\Licenta\NewsGroupDataSet\20news-bydate-train\sci.med\,59160
rec.autos,C:\Users\sabau.DOM_MEDIASAT\Projects\Licenta\NewsGroupDataSet\20news-bydate-train\rec.autos\,102760
rec.sport.baseball,C:\Users\sabau.DOM_MEDIASAT\Projects\Licenta\NewsGroupDataSet\20news-bydate-train\rec.sport.baseball\,102716
sci.med,C:\Users\sabau.DOM_MEDIASAT\Projects\Licenta\NewsGroupDataSet\20news-bydate-train\sci.med\,58839
rec.autos,C:\Users\sabau.DOM_MEDIASAT\Projects\Licenta\NewsGroupDataSet\20news-bydate-train\rec.autos\,102999
sci.electronics,C:\Users\sabau.DOM_MEDIASAT\Projects\Licenta\NewsGroupDataSet\20news-bydate-train\sci.electronics\,52762
rec.sport.baseball,C:\Users\sabau.DOM_MEDIASAT\Projects\Licenta\NewsGroupDataSet\20news-bydate-train\rec.sport.baseball\,100521
sci.med,C:\Users\sabau.DOM_MEDIASAT\Projects\Licenta\NewsGroupDataSet\20news-bydate-train\sci.med\,58065
rec.sport.baseball,C:\Users\sabau.DOM_MEDIASAT\Projects\Licenta\NewsGroupDataSet\20news-bydate-train\rec.sport.baseball\,104779
sci.electronics,C:\Users\sabau.DOM_MEDIASAT\Projects\Licenta\NewsGroupDataSet\20news-bydate-train\sci.electronics\,52754
sci.med,C:\Users\sabau.DOM_MEDIASAT\Projects\Licenta\NewsGroupDataSet\20news-bydate-train\sci.med\,59141
rec.autos,C:\Users\sabau.DOM_MEDIASAT\Projects\Licenta\NewsGroupDataSet\20news-bydate-train\rec.autos\,102991
sci.electronics,C:\Users\sabau.DOM_MEDIASAT\Projects\Licenta\NewsGroupDataSet\20news-bydate-train\sci.electronics\,53720
sci.electronics,C:\Users\sabau.DOM_MEDIASAT\Projects\Licenta\NewsGroupDataSet\20news-bydate-train\sci.electronics\,53770
rec.sport.baseball,C:\Users\sabau.DOM_MEDIASAT\Projects\Licenta\NewsGroupDataSet\20news-bydate-train\rec.sport.baseball\,102719
sci.electronics,C:\Users\sabau.DOM_MEDIASAT\Projects\Licenta\NewsGroupDataSet\20news-bydate-train\sci.electronics\,53929
rec.autos,C:\Users\sabau.DOM_MEDIASAT\Projects\Licenta\NewsGroupDataSet\20news-bydate-train\rec.autos\,103054
comp.os.ms-windows.misc,C:\Users\sabau.DOM_MEDIASAT\Projects\Licenta\NewsGroupDataSet\20news-bydate-train\comp.os.ms-windows.misc\,9839
comp.os.ms-windows.misc,C:\Users\sabau.DOM_MEDIASAT\Projects\Licenta\NewsGroupDataSet\20news-bydate-train\comp.os.ms-windows.misc\,9521
rec.sport.baseball,C:\Users\sabau.DOM_MEDIASAT\Projects\Licenta\NewsGroupDataSet\20news-bydate-train\rec.sport.baseball\,104809
rec.autos,C:\Users\sabau.DOM_MEDIASAT\Projects\Licenta\NewsGroupDataSet\20news-bydate-train\rec.autos\,102842
sci.med,C:\Users\sabau.DOM_MEDIASAT\Projects\Licenta\NewsGroupDataSet\20news-bydate-train\sci.med\,58854
comp.os.ms-windows.misc,C:\Users\sabau.DOM_MEDIASAT\Projects\Licenta\NewsGroupDataSet\20news-bydate-train\comp.os.ms-windows.misc\,9896
sci.electronics,C:\Users\sabau.DOM_MEDIASAT\Projects\Licenta\NewsGroupDataSet\20news-bydate-train\sci.electronics\,53672
sci.med,C:\Users\sabau.DOM_MEDIASAT\Projects\Licenta\NewsGroupDataSet\20news-bydate-train\sci.med\,59002
rec.autos,C:\Users\sabau.DOM_MEDIASAT\Projects\Licenta\NewsGroupDataSet\20news-bydate-train\rec.autos\,102982
sci.electronics,C:\Users\sabau.DOM_MEDIASAT\Projects\Licenta\NewsGroupDataSet\20news-bydate-train\sci.electronics\,53766
sci.med,C:\Users\sabau.DOM_MEDIASAT\Projects\Licenta\NewsGroupDataSet\20news-bydate-train\sci.med\,58895
sci.med,C:\Users\sabau.DOM_MEDIASAT\Projects\Licenta\NewsGroupDataSet\20news-bydate-train\sci.med\,59210
rec.autos,C:\Users\sabau.DOM_MEDIASAT\Projects\Licenta\NewsGroupDataSet\20news-bydate-train\rec.autos\,102971
sci.med,C:\Users\sabau.DOM_MEDIASAT\Projects\Licenta\NewsGroupDataSet\20news-bydate-train\sci.med\,58948
comp.os.ms-windows.misc,C:\Users\sabau.DOM_MEDIASAT\Projects\Licenta\NewsGroupDataSet\20news-bydate-train\comp.os.ms-windows.misc\,9174
sci.med,C:\Users\sabau.DOM_MEDIASAT\Projects\Licenta\NewsGroupDataSet\20news-bydate-train\sci.med\,58974
sci.med,C:\Users\sabau.DOM_MEDIASAT\Projects\Licenta\NewsGroupDataSet\20news-bydate-train\sci.med\,59038
sci.electronics,C:\Users\sabau.DOM_MEDIASAT\Projects\Licenta\NewsGroupDataSet\20news-bydate-train\sci.electronics\,53877
comp.os.ms-windows.misc,C:\Users\sabau.DOM_MEDIASAT\Projects\Licenta\NewsGroupDataSet\20news-bydate-train\comp.os.ms-windows.misc\,9925
rec.autos,C:\Users\sabau.DOM_MEDIASAT\Projects\Licenta\NewsGroupDataSet\20news-bydate-train\rec.autos\,101551
rec.sport.baseball,C:\Users\sabau.DOM_MEDIASAT\Projects\Licenta\NewsGroupDataSet\20news-bydate-train\rec.sport.baseball\,104573
rec.sport.baseball,C:\Users\sabau.DOM_MEDIASAT\Projects\Licenta\NewsGroupDataSet\20news-bydate-train\rec.sport.baseball\,102733
rec.sport.baseball,C:\Users\sabau.DOM_MEDIASAT\Projects\Licenta\NewsGroupDataSet\20news-bydate-train\rec.sport.baseball\,104610
comp.os.ms-windows.misc,C:\Users\sabau.DOM_MEDIASAT\Projects\Licenta\NewsGroupDataSet\20news-bydate-train\comp.os.ms-windows.misc\,9701
rec.sport.baseball,C:\Users\sabau.DOM_MEDIASAT\Projects\Licenta\NewsGroupDataSet\20news-bydate-train\rec.sport.baseball\,102860
sci.electronics,C:\Users\sabau.DOM_MEDIASAT\Projects\Licenta\NewsGroupDataSet\20news-bydate-train\sci.electronics\,53762
comp.os.ms-windows.misc,C:\Users\sabau.DOM_MEDIASAT\Projects\Licenta\NewsGroupDataSet\20news-bydate-train\comp.os.ms-windows.misc\,9932
rec.sport.baseball,C:\Users\sabau.DOM_MEDIASAT\Projects\Licenta\NewsGroupDataSet\20news-bydate-train\rec.sport.baseball\,104364
comp.os.ms-windows.misc,C:\Users\sabau.DOM_MEDIASAT\Projects\Licenta\NewsGroupDataSet\20news-bydate-train\comp.os.ms-windows.misc\,9588
rec.sport.baseball,C:\Users\sabau.DOM_MEDIASAT\Projects\Licenta\NewsGroupDataSet\20news-bydate-train\rec.sport.baseball\,104793
sci.med,C:\Users\sabau.DOM_MEDIASAT\Projects\Licenta\NewsGroupDataSet\20news-bydate-train\sci.med\,58774
sci.electronics,C:\Users\sabau.DOM_MEDIASAT\Projects\Licenta\NewsGroupDataSet\20news-bydate-train\sci.electronics\,53883
sci.electronics,C:\Users\sabau.DOM_MEDIASAT\Projects\Licenta\NewsGroupDataSet\20news-bydate-train\sci.electronics\,53550
comp.os.ms-windows.misc,C:\Users\sabau.DOM_MEDIASAT\Projects\Licenta\NewsGroupDataSet\20news-bydate-train\comp.os.ms-windows.misc\,9684
sci.electronics,C:\Users\sabau.DOM_MEDIASAT\Projects\Licenta\NewsGroupDataSet\20news-bydate-train\sci.electronics\,53675
sci.electronics,C:\Users\sabau.DOM_MEDIASAT\Projects\Licenta\NewsGroupDataSet\20news-bydate-train\sci.electronics\,53920
rec.autos,C:\Users\sabau.DOM_MEDIASAT\Projects\Licenta\NewsGroupDataSet\20news-bydate-train\rec.autos\,101578
comp.os.ms-windows.misc,C:\Users\sabau.DOM_MEDIASAT\Projects\Licenta\NewsGroupDataSet\20news-bydate-train\comp.os.ms-windows.misc\,9911
sci.electronics,C:\Users\sabau.DOM_MEDIASAT\Projects\Licenta\NewsGroupDataSet\20news-bydate-train\sci.electronics\,53713
rec.autos,C:\Users\sabau.DOM_MEDIASAT\Projects\Licenta\NewsGroupDataSet\20news-bydate-train\rec.autos\,103009
sci.med,C:\Users\sabau.DOM_MEDIASAT\Projects\Licenta\NewsGroupDataSet\20news-bydate-train\sci.med\,58578
sci.med,C:\Users\sabau.DOM_MEDIASAT\Projects\Licenta\NewsGroupDataSet\20news-bydate-train\sci.med\,59168
sci.electronics,C:\Users\sabau.DOM_MEDIASAT\Projects\Licenta\NewsGroupDataSet\20news-bydate-train\sci.electronics\,53636
rec.autos,C:\Users\sabau.DOM_MEDIASAT\Projects\Licenta\NewsGroupDataSet\20news-bydate-train\rec.autos\,103036
comp.os.ms-windows.misc,C:\Users\sabau.DOM_MEDIASAT\Projects\Licenta\NewsGroupDataSet\20news-bydate-train\comp.os.ms-windows.misc\,9809
sci.med,C:\Users\sabau.DOM_MEDIASAT\Projects\Licenta\NewsGroupDataSet\20news-bydate-train\sci.med\,58144
comp.os.ms-windows.misc,C:\Users\sabau.DOM_MEDIASAT\Projects\Licenta\NewsGroupDataSet\20news-bydate-train\comp.os.ms-windows.misc\,9605
rec.autos,C:\Users\sabau.DOM_MEDIASAT\Projects\Licenta\NewsGroupDataSet\20news-bydate-train\rec.autos\,102866
rec.autos,C:\Users\sabau.DOM_MEDIASAT\Projects\Licenta\NewsGroupDataSet\20news-bydate-train\rec.autos\,102874
sci.med,C:\Users\sabau.DOM_MEDIASAT\Projects\Licenta\NewsGroupDataSet\20news-bydate-train\sci.med\,59065
sci.med,C:\Users\sabau.DOM_MEDIASAT\Projects\Licenta\NewsGroupDataSet\20news-bydate-train\sci.med\,59181
rec.sport.baseball,C:\Users\sabau.DOM_MEDIASAT\Projects\Licenta\NewsGroupDataSet\20news-bydate-train\rec.sport.baseball\,102618
rec.sport.baseball,C:\Users\sabau.DOM_MEDIASAT\Projects\Licenta\NewsGroupDataSet\20news-bydate-train\rec.sport.baseball\,104597
rec.sport.baseball,C:\Users\sabau.DOM_MEDIASAT\Projects\Licenta\NewsGroupDataSet\20news-bydate-train\rec.sport.baseball\,102645
rec.autos,C:\Users\sabau.DOM_MEDIASAT\Projects\Licenta\NewsGroupDataSet\20news-bydate-train\rec.autos\,102734
sci.electronics,C:\Users\sabau.DOM_MEDIASAT\Projects\Licenta\NewsGroupDataSet\20news-bydate-train\sci.electronics\,53979
sci.med,C:\Users\sabau.DOM_MEDIASAT\Projects\Licenta\NewsGroupDataSet\20news-bydate-train\sci.med\,59199
rec.autos,C:\Users\sabau.DOM_MEDIASAT\Projects\Licenta\NewsGroupDataSet\20news-bydate-train\rec.autos\,102848
sci.electronics,C:\Users\sabau.DOM_MEDIASAT\Projects\Licenta\NewsGroupDataSet\20news-bydate-train\sci.electronics\,53564
sci.electronics,C:\Users\sabau.DOM_MEDIASAT\Projects\Licenta\NewsGroupDataSet\20news-bydate-train\sci.electronics\,52734
sci.med,C:\Users\sabau.DOM_MEDIASAT\Projects\Licenta\NewsGroupDataSet\20news-bydate-train\sci.med\,59137
rec.autos,C:\Users\sabau.DOM_MEDIASAT\Projects\Licenta\NewsGroupDataSet\20news-bydate-train\rec.autos\,101590
sci.electronics,C:\Users\sabau.DOM_MEDIASAT\Projects\Licenta\NewsGroupDataSet\20news-bydate-train\sci.electronics\,53665
comp.os.ms-windows.misc,C:\Users\sabau.DOM_MEDIASAT\Projects\Licenta\NewsGroupDataSet\20news-bydate-train\comp.os.ms-windows.misc\,9587
rec.autos,C:\Users\sabau.DOM_MEDIASAT\Projects\Licenta\NewsGroupDataSet\20news-bydate-train\rec.autos\,101659
sci.med,C:\Users\sabau.DOM_MEDIASAT\Projects\Licenta\NewsGroupDataSet\20news-bydate-train\sci.med\,58112
comp.os.ms-windows.misc,C:\Users\sabau.DOM_MEDIASAT\Projects\Licenta\NewsGroupDataSet\20news-bydate-train\comp.os.ms-windows.misc\,9926
rec.autos,C:\Users\sabau.DOM_MEDIASAT\Projects\Licenta\NewsGroupDataSet\20news-bydate-train\rec.autos\,101563
sci.med,C:\Users\sabau.DOM_MEDIASAT\Projects\Licenta\NewsGroupDataSet\20news-bydate-train\sci.med\,59158
comp.os.ms-windows.misc,C:\Users\sabau.DOM_MEDIASAT\Projects\Licenta\NewsGroupDataSet\20news-bydate-train\comp.os.ms-windows.misc\,9947
sci.med,C:\Users\sabau.DOM_MEDIASAT\Projects\Licenta\NewsGroupDataSet\20news-bydate-train\sci.med\,59153
sci.med,C:\Users\sabau.DOM_MEDIASAT\Projects\Licenta\NewsGroupDataSet\20news-bydate-train\sci.med\,59037
comp.os.ms-windows.misc,C:\Users\sabau.DOM_MEDIASAT\Projects\Licenta\NewsGroupDataSet\20news-bydate-train\comp.os.ms-windows.misc\,10082
sci.med,C:\Users\sabau.DOM_MEDIASAT\Projects\Licenta\NewsGroupDataSet\20news-bydate-train\sci.med\,58958
sci.med,C:\Users\sabau.DOM_MEDIASAT\Projects\Licenta\NewsGroupDataSet\20news-bydate-train\sci.med\,59134
sci.med,C:\Users\sabau.DOM_MEDIASAT\Projects\Licenta\NewsGroupDataSet\20news-bydate-train\sci.med\,59192
sci.med,C:\Users\sabau.DOM_MEDIASAT\Projects\Licenta\NewsGroupDataSet\20news-bydate-train\sci.med\,58900
sci.electronics,C:\Users\sabau.DOM_MEDIASAT\Projects\Licenta\NewsGroupDataSet\20news-bydate-train\sci.electronics\,53579
rec.sport.baseball,C:\Users\sabau.DOM_MEDIASAT\Projects\Licenta\NewsGroupDataSet\20news-bydate-train\rec.sport.baseball\,104933
comp.os.ms-windows.misc,C:\Users\sabau.DOM_MEDIASAT\Projects\Licenta\NewsGroupDataSet\20news-bydate-train\comp.os.ms-windows.misc\,9729
comp.os.ms-windows.misc,C:\Users\sabau.DOM_MEDIASAT\Projects\Licenta\NewsGroupDataSet\20news-bydate-train\comp.os.ms-windows.misc\,9842
sci.med,C:\Users\sabau.DOM_MEDIASAT\Projects\Licenta\NewsGroupDataSet\20news-bydate-train\sci.med\,58808
sci.med,C:\Users\sabau.DOM_MEDIASAT\Projects\Licenta\NewsGroupDataSet\20news-bydate-train\sci.med\,58846
rec.autos,C:\Users\sabau.DOM_MEDIASAT\Projects\Licenta\NewsGroupDataSet\20news-bydate-train\rec.autos\,101623
sci.med,C:\Users\sabau.DOM_MEDIASAT\Projects\Licenta\NewsGroupDataSet\20news-bydate-train\sci.med\,58856
comp.os.ms-windows.misc,C:\Users\sabau.DOM_MEDIASAT\Projects\Licenta\NewsGroupDataSet\20news-bydate-train\comp.os.ms-windows.misc\,9714
comp.os.ms-windows.misc,C:\Users\sabau.DOM_MEDIASAT\Projects\Licenta\NewsGroupDataSet\20news-bydate-train\comp.os.ms-windows.misc\,9994
rec.autos,C:\Users\sabau.DOM_MEDIASAT\Projects\Licenta\NewsGroupDataSet\20news-bydate-train\rec.autos\,102969
rec.sport.baseball,C:\Users\sabau.DOM_MEDIASAT\Projects\Licenta\NewsGroupDataSet\20news-bydate-train\rec.sport.baseball\,102689
comp.os.ms-windows.misc,C:\Users\sabau.DOM_MEDIASAT\Projects\Licenta\NewsGroupDataSet\20news-bydate-train\comp.os.ms-windows.misc\,9545
comp.os.ms-windows.misc,C:\Users\sabau.DOM_MEDIASAT\Projects\Licenta\NewsGroupDataSet\20news-bydate-train\comp.os.ms-windows.misc\,9669
rec.sport.baseball,C:\Users\sabau.DOM_MEDIASAT\Projects\Licenta\NewsGroupDataSet\20news-bydate-train\rec.sport.baseball\,102698
comp.os.ms-windows.misc,C:\Users\sabau.DOM_MEDIASAT\Projects\Licenta\NewsGroupDataSet\20news-bydate-train\comp.os.ms-windows.misc\,9909
sci.electronics,C:\Users\sabau.DOM_MEDIASAT\Projects\Licenta\NewsGroupDataSet\20news-bydate-train\sci.electronics\,52756
comp.os.ms-windows.misc,C:\Users\sabau.DOM_MEDIASAT\Projects\Licenta\NewsGroupDataSet\20news-bydate-train\comp.os.ms-windows.misc\,9832
comp.os.ms-windows.misc,C:\Users\sabau.DOM_MEDIASAT\Projects\Licenta\NewsGroupDataSet\20news-bydate-train\comp.os.ms-windows.misc\,9798
rec.sport.baseball,C:\Users\sabau.DOM_MEDIASAT\Projects\Licenta\NewsGroupDataSet\20news-bydate-train\rec.sport.baseball\,104567
sci.electronics,C:\Users\sabau.DOM_MEDIASAT\Projects\Licenta\NewsGroupDataSet\20news-bydate-train\sci.electronics\,53596
rec.autos,C:\Users\sabau.DOM_MEDIASAT\Projects\Licenta\NewsGroupDataSet\20news-bydate-train\rec.autos\,103010
sci.med,C:\Users\sabau.DOM_MEDIASAT\Projects\Licenta\NewsGroupDataSet\20news-bydate-train\sci.med\,58978
rec.autos,C:\Users\sabau.DOM_MEDIASAT\Projects\Licenta\NewsGroupDataSet\20news-bydate-train\rec.autos\,102744
sci.med,C:\Users\sabau.DOM_MEDIASAT\Projects\Licenta\NewsGroupDataSet\20news-bydate-train\sci.med\,59157
sci.med,C:\Users\sabau.DOM_MEDIASAT\Projects\Licenta\NewsGroupDataSet\20news-bydate-train\sci.med\,59014
rec.sport.baseball,C:\Users\sabau.DOM_MEDIASAT\Projects\Licenta\NewsGroupDataSet\20news-bydate-train\rec.sport.baseball\,104493
rec.autos,C:\Users\sabau.DOM_MEDIASAT\Projects\Licenta\NewsGroupDataSet\20news-bydate-train\rec.autos\,102764
rec.autos,C:\Users\sabau.DOM_MEDIASAT\Projects\Licenta\NewsGroupDataSet\20news-bydate-train\rec.autos\,102884
rec.sport.baseball,C:\Users\sabau.DOM_MEDIASAT\Projects\Licenta\NewsGroupDataSet\20news-bydate-train\rec.sport.baseball\,104470
rec.sport.baseball,C:\Users\sabau.DOM_MEDIASAT\Projects\Licenta\NewsGroupDataSet\20news-bydate-train\rec.sport.baseball\,104408
comp.os.ms-windows.misc,C:\Users\sabau.DOM_MEDIASAT\Projects\Licenta\NewsGroupDataSet\20news-bydate-train\comp.os.ms-windows.misc\,9796
sci.electronics,C:\Users\sabau.DOM_MEDIASAT\Projects\Licenta\NewsGroupDataSet\20news-bydate-train\sci.electronics\,53750
comp.os.ms-windows.misc,C:\Users\sabau.DOM_MEDIASAT\Projects\Licenta\NewsGroupDataSet\20news-bydate-train\comp.os.ms-windows.misc\,9897
comp.os.ms-windows.misc,C:\Users\sabau.DOM_MEDIASAT\Projects\Licenta\NewsGroupDataSet\20news-bydate-train\comp.os.ms-windows.misc\,9989
comp.os.ms-windows.misc,C:\Users\sabau.DOM_MEDIASAT\Projects\Licenta\NewsGroupDataSet\20news-bydate-train\comp.os.ms-windows.misc\,9834
rec.autos,C:\Users\sabau.DOM_MEDIASAT\Projects\Licenta\NewsGroupDataSet\20news-bydate-train\rec.autos\,102941
rec.sport.baseball,C:\Users\sabau.DOM_MEDIASAT\Projects\Licenta\NewsGroupDataSet\20news-bydate-train\rec.sport.baseball\,104807
rec.autos,C:\Users\sabau.DOM_MEDIASAT\Projects\Licenta\NewsGroupDataSet\20news-bydate-train\rec.autos\,101575
comp.os.ms-windows.misc,C:\Users\sabau.DOM_MEDIASAT\Projects\Licenta\NewsGroupDataSet\20news-bydate-train\comp.os.ms-windows.misc\,9666
rec.autos,C:\Users\sabau.DOM_MEDIASAT\Projects\Licenta\NewsGroupDataSet\20news-bydate-train\rec.autos\,103112
sci.med,C:\Users\sabau.DOM_MEDIASAT\Projects\Licenta\NewsGroupDataSet\20news-bydate-train\sci.med\,58115
rec.autos,C:\Users\sabau.DOM_MEDIASAT\Projects\Licenta\NewsGroupDataSet\20news-bydate-train\rec.autos\,101616
sci.med,C:\Users\sabau.DOM_MEDIASAT\Projects\Licenta\NewsGroupDataSet\20news-bydate-train\sci.med\,59233
rec.autos,C:\Users\sabau.DOM_MEDIASAT\Projects\Licenta\NewsGroupDataSet\20news-bydate-train\rec.autos\,103765
rec.sport.baseball,C:\Users\sabau.DOM_MEDIASAT\Projects\Licenta\NewsGroupDataSet\20news-bydate-train\rec.sport.baseball\,104537
sci.med,C:\Users\sabau.DOM_MEDIASAT\Projects\Licenta\NewsGroupDataSet\20news-bydate-train\sci.med\,59022
rec.sport.baseball,C:\Users\sabau.DOM_MEDIASAT\Projects\Licenta\NewsGroupDataSet\20news-bydate-train\rec.sport.baseball\,102669
rec.autos,C:\Users\sabau.DOM_MEDIASAT\Projects\Licenta\NewsGroupDataSet\20news-bydate-train\rec.autos\,102868
rec.autos,C:\Users\sabau.DOM_MEDIASAT\Projects\Licenta\NewsGroupDataSet\20news-bydate-train\rec.autos\,102808
rec.sport.baseball,C:\Users\sabau.DOM_MEDIASAT\Projects\Licenta\NewsGroupDataSet\20news-bydate-train\rec.sport.baseball\,102659
sci.electronics,C:\Users\sabau.DOM_MEDIASAT\Projects\Licenta\NewsGroupDataSet\20news-bydate-train\sci.electronics\,53591
comp.os.ms-windows.misc,C:\Users\sabau.DOM_MEDIASAT\Projects\Licenta\NewsGroupDataSet\20news-bydate-train\comp.os.ms-windows.misc\,9805
rec.sport.baseball,C:\Users\sabau.DOM_MEDIASAT\Projects\Licenta\NewsGroupDataSet\20news-bydate-train\rec.sport.baseball\,104510
rec.autos,C:\Users\sabau.DOM_MEDIASAT\Projects\Licenta\NewsGroupDataSet\20news-bydate-train\rec.autos\,103169
sci.med,C:\Users\sabau.DOM_MEDIASAT\Projects\Licenta\NewsGroupDataSet\20news-bydate-train\sci.med\,59132
sci.med,C:\Users\sabau.DOM_MEDIASAT\Projects\Licenta\NewsGroupDataSet\20news-bydate-train\sci.med\,58098
rec.sport.baseball,C:\Users\sabau.DOM_MEDIASAT\Projects\Licenta\NewsGroupDataSet\20news-bydate-train\rec.sport.baseball\,104621
comp.os.ms-windows.misc,C:\Users\sabau.DOM_MEDIASAT\Projects\Licenta\NewsGroupDataSet\20news-bydate-train\comp.os.ms-windows.misc\,9795
rec.sport.baseball,C:\Users\sabau.DOM_MEDIASAT\Projects\Licenta\NewsGroupDataSet\20news-bydate-train\rec.sport.baseball\,102655
rec.sport.baseball,C:\Users\sabau.DOM_MEDIASAT\Projects\Licenta\NewsGroupDataSet\20news-bydate-train\rec.sport.baseball\,104534
comp.os.ms-windows.misc,C:\Users\sabau.DOM_MEDIASAT\Projects\Licenta\NewsGroupDataSet\20news-bydate-train\comp.os.ms-windows.misc\,9458
rec.autos,C:\Users\sabau.DOM_MEDIASAT\Projects\Licenta\NewsGroupDataSet\20news-bydate-train\rec.autos\,103102
sci.med,C:\Users\sabau.DOM_MEDIASAT\Projects\Licenta\NewsGroupDataSet\20news-bydate-train\sci.med\,58938
sci.med,C:\Users\sabau.DOM_MEDIASAT\Projects\Licenta\NewsGroupDataSet\20news-bydate-train\sci.med\,58924
sci.electronics,C:\Users\sabau.DOM_MEDIASAT\Projects\Licenta\NewsGroupDataSet\20news-bydate-train\sci.electronics\,53860
sci.electronics,C:\Users\sabau.DOM_MEDIASAT\Projects\Licenta\NewsGroupDataSet\20news-bydate-train\sci.electronics\,53686
comp.os.ms-windows.misc,C:\Users\sabau.DOM_MEDIASAT\Projects\Licenta\NewsGroupDataSet\20news-bydate-train\comp.os.ms-windows.misc\,9468
sci.med,C:\Users\sabau.DOM_MEDIASAT\Projects\Licenta\NewsGroupDataSet\20news-bydate-train\sci.med\,58941
comp.os.ms-windows.misc,C:\Users\sabau.DOM_MEDIASAT\Projects\Licenta\NewsGroupDataSet\20news-bydate-train\comp.os.ms-windows.misc\,9584
sci.med,C:\Users\sabau.DOM_MEDIASAT\Projects\Licenta\NewsGroupDataSet\20news-bydate-train\sci.med\,58059
rec.autos,C:\Users\sabau.DOM_MEDIASAT\Projects\Licenta\NewsGroupDataSet\20news-bydate-train\rec.autos\,102758
