ham,C:\Users\sabau.DOM_MEDIASAT\Projects\Licenta\EmailDataSet\TRAINING\,TRAIN_00868.eml
ham,C:\Users\sabau.DOM_MEDIASAT\Projects\Licenta\EmailDataSet\TRAINING\,TRAIN_00869.eml
ham,C:\Users\sabau.DOM_MEDIASAT\Projects\Licenta\EmailDataSet\TRAINING\,TRAIN_00870.eml
ham,C:\Users\sabau.DOM_MEDIASAT\Projects\Licenta\EmailDataSet\TRAINING\,TRAIN_00871.eml
ham,C:\Users\sabau.DOM_MEDIASAT\Projects\Licenta\EmailDataSet\TRAINING\,TRAIN_00872.eml
ham,C:\Users\sabau.DOM_MEDIASAT\Projects\Licenta\EmailDataSet\TRAINING\,TRAIN_00873.eml
ham,C:\Users\sabau.DOM_MEDIASAT\Projects\Licenta\EmailDataSet\TRAINING\,TRAIN_00874.eml
spam,C:\Users\sabau.DOM_MEDIASAT\Projects\Licenta\EmailDataSet\TRAINING\,TRAIN_00875.eml
ham,C:\Users\sabau.DOM_MEDIASAT\Projects\Licenta\EmailDataSet\TRAINING\,TRAIN_00876.eml
ham,C:\Users\sabau.DOM_MEDIASAT\Projects\Licenta\EmailDataSet\TRAINING\,TRAIN_00877.eml
ham,C:\Users\sabau.DOM_MEDIASAT\Projects\Licenta\EmailDataSet\TRAINING\,TRAIN_00878.eml
ham,C:\Users\sabau.DOM_MEDIASAT\Projects\Licenta\EmailDataSet\TRAINING\,TRAIN_00879.eml
spam,C:\Users\sabau.DOM_MEDIASAT\Projects\Licenta\EmailDataSet\TRAINING\,TRAIN_00880.eml
spam,C:\Users\sabau.DOM_MEDIASAT\Projects\Licenta\EmailDataSet\TRAINING\,TRAIN_00881.eml
ham,C:\Users\sabau.DOM_MEDIASAT\Projects\Licenta\EmailDataSet\TRAINING\,TRAIN_00882.eml
ham,C:\Users\sabau.DOM_MEDIASAT\Projects\Licenta\EmailDataSet\TRAINING\,TRAIN_00883.eml
spam,C:\Users\sabau.DOM_MEDIASAT\Projects\Licenta\EmailDataSet\TRAINING\,TRAIN_00884.eml
spam,C:\Users\sabau.DOM_MEDIASAT\Projects\Licenta\EmailDataSet\TRAINING\,TRAIN_00885.eml
ham,C:\Users\sabau.DOM_MEDIASAT\Projects\Licenta\EmailDataSet\TRAINING\,TRAIN_00886.eml
ham,C:\Users\sabau.DOM_MEDIASAT\Projects\Licenta\EmailDataSet\TRAINING\,TRAIN_00887.eml
ham,C:\Users\sabau.DOM_MEDIASAT\Projects\Licenta\EmailDataSet\TRAINING\,TRAIN_00888.eml
ham,C:\Users\sabau.DOM_MEDIASAT\Projects\Licenta\EmailDataSet\TRAINING\,TRAIN_00889.eml
ham,C:\Users\sabau.DOM_MEDIASAT\Projects\Licenta\EmailDataSet\TRAINING\,TRAIN_00890.eml
ham,C:\Users\sabau.DOM_MEDIASAT\Projects\Licenta\EmailDataSet\TRAINING\,TRAIN_00891.eml
ham,C:\Users\sabau.DOM_MEDIASAT\Projects\Licenta\EmailDataSet\TRAINING\,TRAIN_00892.eml
spam,C:\Users\sabau.DOM_MEDIASAT\Projects\Licenta\EmailDataSet\TRAINING\,TRAIN_00893.eml
ham,C:\Users\sabau.DOM_MEDIASAT\Projects\Licenta\EmailDataSet\TRAINING\,TRAIN_00894.eml
spam,C:\Users\sabau.DOM_MEDIASAT\Projects\Licenta\EmailDataSet\TRAINING\,TRAIN_00895.eml
ham,C:\Users\sabau.DOM_MEDIASAT\Projects\Licenta\EmailDataSet\TRAINING\,TRAIN_00896.eml
spam,C:\Users\sabau.DOM_MEDIASAT\Projects\Licenta\EmailDataSet\TRAINING\,TRAIN_00897.eml
spam,C:\Users\sabau.DOM_MEDIASAT\Projects\Licenta\EmailDataSet\TRAINING\,TRAIN_00898.eml
ham,C:\Users\sabau.DOM_MEDIASAT\Projects\Licenta\EmailDataSet\TRAINING\,TRAIN_00899.eml
ham,C:\Users\sabau.DOM_MEDIASAT\Projects\Licenta\EmailDataSet\TRAINING\,TRAIN_00900.eml
spam,C:\Users\sabau.DOM_MEDIASAT\Projects\Licenta\EmailDataSet\TRAINING\,TRAIN_00901.eml
ham,C:\Users\sabau.DOM_MEDIASAT\Projects\Licenta\EmailDataSet\TRAINING\,TRAIN_00902.eml
spam,C:\Users\sabau.DOM_MEDIASAT\Projects\Licenta\EmailDataSet\TRAINING\,TRAIN_00903.eml
spam,C:\Users\sabau.DOM_MEDIASAT\Projects\Licenta\EmailDataSet\TRAINING\,TRAIN_00904.eml
spam,C:\Users\sabau.DOM_MEDIASAT\Projects\Licenta\EmailDataSet\TRAINING\,TRAIN_00905.eml
spam,C:\Users\sabau.DOM_MEDIASAT\Projects\Licenta\EmailDataSet\TRAINING\,TRAIN_00906.eml
spam,C:\Users\sabau.DOM_MEDIASAT\Projects\Licenta\EmailDataSet\TRAINING\,TRAIN_00907.eml
ham,C:\Users\sabau.DOM_MEDIASAT\Projects\Licenta\EmailDataSet\TRAINING\,TRAIN_00908.eml
ham,C:\Users\sabau.DOM_MEDIASAT\Projects\Licenta\EmailDataSet\TRAINING\,TRAIN_00909.eml
ham,C:\Users\sabau.DOM_MEDIASAT\Projects\Licenta\EmailDataSet\TRAINING\,TRAIN_00910.eml
ham,C:\Users\sabau.DOM_MEDIASAT\Projects\Licenta\EmailDataSet\TRAINING\,TRAIN_00911.eml
spam,C:\Users\sabau.DOM_MEDIASAT\Projects\Licenta\EmailDataSet\TRAINING\,TRAIN_00912.eml
ham,C:\Users\sabau.DOM_MEDIASAT\Projects\Licenta\EmailDataSet\TRAINING\,TRAIN_00913.eml
spam,C:\Users\sabau.DOM_MEDIASAT\Projects\Licenta\EmailDataSet\TRAINING\,TRAIN_00914.eml
spam,C:\Users\sabau.DOM_MEDIASAT\Projects\Licenta\EmailDataSet\TRAINING\,TRAIN_00915.eml
ham,C:\Users\sabau.DOM_MEDIASAT\Projects\Licenta\EmailDataSet\TRAINING\,TRAIN_00916.eml
spam,C:\Users\sabau.DOM_MEDIASAT\Projects\Licenta\EmailDataSet\TRAINING\,TRAIN_00917.eml
spam,C:\Users\sabau.DOM_MEDIASAT\Projects\Licenta\EmailDataSet\TRAINING\,TRAIN_00918.eml
ham,C:\Users\sabau.DOM_MEDIASAT\Projects\Licenta\EmailDataSet\TRAINING\,TRAIN_00919.eml
ham,C:\Users\sabau.DOM_MEDIASAT\Projects\Licenta\EmailDataSet\TRAINING\,TRAIN_00920.eml
spam,C:\Users\sabau.DOM_MEDIASAT\Projects\Licenta\EmailDataSet\TRAINING\,TRAIN_00921.eml
ham,C:\Users\sabau.DOM_MEDIASAT\Projects\Licenta\EmailDataSet\TRAINING\,TRAIN_00922.eml
spam,C:\Users\sabau.DOM_MEDIASAT\Projects\Licenta\EmailDataSet\TRAINING\,TRAIN_00923.eml
spam,C:\Users\sabau.DOM_MEDIASAT\Projects\Licenta\EmailDataSet\TRAINING\,TRAIN_00924.eml
ham,C:\Users\sabau.DOM_MEDIASAT\Projects\Licenta\EmailDataSet\TRAINING\,TRAIN_00925.eml
ham,C:\Users\sabau.DOM_MEDIASAT\Projects\Licenta\EmailDataSet\TRAINING\,TRAIN_00926.eml
ham,C:\Users\sabau.DOM_MEDIASAT\Projects\Licenta\EmailDataSet\TRAINING\,TRAIN_00927.eml
ham,C:\Users\sabau.DOM_MEDIASAT\Projects\Licenta\EmailDataSet\TRAINING\,TRAIN_00928.eml
ham,C:\Users\sabau.DOM_MEDIASAT\Projects\Licenta\EmailDataSet\TRAINING\,TRAIN_00929.eml
ham,C:\Users\sabau.DOM_MEDIASAT\Projects\Licenta\EmailDataSet\TRAINING\,TRAIN_00930.eml
spam,C:\Users\sabau.DOM_MEDIASAT\Projects\Licenta\EmailDataSet\TRAINING\,TRAIN_00931.eml
ham,C:\Users\sabau.DOM_MEDIASAT\Projects\Licenta\EmailDataSet\TRAINING\,TRAIN_00932.eml
ham,C:\Users\sabau.DOM_MEDIASAT\Projects\Licenta\EmailDataSet\TRAINING\,TRAIN_00933.eml
spam,C:\Users\sabau.DOM_MEDIASAT\Projects\Licenta\EmailDataSet\TRAINING\,TRAIN_00934.eml
spam,C:\Users\sabau.DOM_MEDIASAT\Projects\Licenta\EmailDataSet\TRAINING\,TRAIN_00935.eml
spam,C:\Users\sabau.DOM_MEDIASAT\Projects\Licenta\EmailDataSet\TRAINING\,TRAIN_00936.eml
ham,C:\Users\sabau.DOM_MEDIASAT\Projects\Licenta\EmailDataSet\TRAINING\,TRAIN_00937.eml
spam,C:\Users\sabau.DOM_MEDIASAT\Projects\Licenta\EmailDataSet\TRAINING\,TRAIN_00938.eml
ham,C:\Users\sabau.DOM_MEDIASAT\Projects\Licenta\EmailDataSet\TRAINING\,TRAIN_00939.eml
ham,C:\Users\sabau.DOM_MEDIASAT\Projects\Licenta\EmailDataSet\TRAINING\,TRAIN_00940.eml
spam,C:\Users\sabau.DOM_MEDIASAT\Projects\Licenta\EmailDataSet\TRAINING\,TRAIN_00941.eml
ham,C:\Users\sabau.DOM_MEDIASAT\Projects\Licenta\EmailDataSet\TRAINING\,TRAIN_00942.eml
ham,C:\Users\sabau.DOM_MEDIASAT\Projects\Licenta\EmailDataSet\TRAINING\,TRAIN_00943.eml
ham,C:\Users\sabau.DOM_MEDIASAT\Projects\Licenta\EmailDataSet\TRAINING\,TRAIN_00944.eml
spam,C:\Users\sabau.DOM_MEDIASAT\Projects\Licenta\EmailDataSet\TRAINING\,TRAIN_00945.eml
ham,C:\Users\sabau.DOM_MEDIASAT\Projects\Licenta\EmailDataSet\TRAINING\,TRAIN_00946.eml
spam,C:\Users\sabau.DOM_MEDIASAT\Projects\Licenta\EmailDataSet\TRAINING\,TRAIN_00947.eml
ham,C:\Users\sabau.DOM_MEDIASAT\Projects\Licenta\EmailDataSet\TRAINING\,TRAIN_00948.eml
ham,C:\Users\sabau.DOM_MEDIASAT\Projects\Licenta\EmailDataSet\TRAINING\,TRAIN_00949.eml
ham,C:\Users\sabau.DOM_MEDIASAT\Projects\Licenta\EmailDataSet\TRAINING\,TRAIN_00950.eml
ham,C:\Users\sabau.DOM_MEDIASAT\Projects\Licenta\EmailDataSet\TRAINING\,TRAIN_00951.eml
spam,C:\Users\sabau.DOM_MEDIASAT\Projects\Licenta\EmailDataSet\TRAINING\,TRAIN_00952.eml
ham,C:\Users\sabau.DOM_MEDIASAT\Projects\Licenta\EmailDataSet\TRAINING\,TRAIN_00953.eml
ham,C:\Users\sabau.DOM_MEDIASAT\Projects\Licenta\EmailDataSet\TRAINING\,TRAIN_00954.eml
spam,C:\Users\sabau.DOM_MEDIASAT\Projects\Licenta\EmailDataSet\TRAINING\,TRAIN_00955.eml
spam,C:\Users\sabau.DOM_MEDIASAT\Projects\Licenta\EmailDataSet\TRAINING\,TRAIN_00956.eml
ham,C:\Users\sabau.DOM_MEDIASAT\Projects\Licenta\EmailDataSet\TRAINING\,TRAIN_00957.eml
ham,C:\Users\sabau.DOM_MEDIASAT\Projects\Licenta\EmailDataSet\TRAINING\,TRAIN_00958.eml
ham,C:\Users\sabau.DOM_MEDIASAT\Projects\Licenta\EmailDataSet\TRAINING\,TRAIN_00959.eml
spam,C:\Users\sabau.DOM_MEDIASAT\Projects\Licenta\EmailDataSet\TRAINING\,TRAIN_00960.eml
ham,C:\Users\sabau.DOM_MEDIASAT\Projects\Licenta\EmailDataSet\TRAINING\,TRAIN_00961.eml
ham,C:\Users\sabau.DOM_MEDIASAT\Projects\Licenta\EmailDataSet\TRAINING\,TRAIN_00962.eml
ham,C:\Users\sabau.DOM_MEDIASAT\Projects\Licenta\EmailDataSet\TRAINING\,TRAIN_00963.eml
ham,C:\Users\sabau.DOM_MEDIASAT\Projects\Licenta\EmailDataSet\TRAINING\,TRAIN_00964.eml
spam,C:\Users\sabau.DOM_MEDIASAT\Projects\Licenta\EmailDataSet\TRAINING\,TRAIN_00965.eml
ham,C:\Users\sabau.DOM_MEDIASAT\Projects\Licenta\EmailDataSet\TRAINING\,TRAIN_00966.eml
ham,C:\Users\sabau.DOM_MEDIASAT\Projects\Licenta\EmailDataSet\TRAINING\,TRAIN_00967.eml
ham,C:\Users\sabau.DOM_MEDIASAT\Projects\Licenta\EmailDataSet\TRAINING\,TRAIN_00968.eml
ham,C:\Users\sabau.DOM_MEDIASAT\Projects\Licenta\EmailDataSet\TRAINING\,TRAIN_00969.eml
spam,C:\Users\sabau.DOM_MEDIASAT\Projects\Licenta\EmailDataSet\TRAINING\,TRAIN_00970.eml
ham,C:\Users\sabau.DOM_MEDIASAT\Projects\Licenta\EmailDataSet\TRAINING\,TRAIN_00971.eml
spam,C:\Users\sabau.DOM_MEDIASAT\Projects\Licenta\EmailDataSet\TRAINING\,TRAIN_00972.eml
spam,C:\Users\sabau.DOM_MEDIASAT\Projects\Licenta\EmailDataSet\TRAINING\,TRAIN_00973.eml
ham,C:\Users\sabau.DOM_MEDIASAT\Projects\Licenta\EmailDataSet\TRAINING\,TRAIN_00974.eml
ham,C:\Users\sabau.DOM_MEDIASAT\Projects\Licenta\EmailDataSet\TRAINING\,TRAIN_00975.eml
ham,C:\Users\sabau.DOM_MEDIASAT\Projects\Licenta\EmailDataSet\TRAINING\,TRAIN_00976.eml
ham,C:\Users\sabau.DOM_MEDIASAT\Projects\Licenta\EmailDataSet\TRAINING\,TRAIN_00977.eml
spam,C:\Users\sabau.DOM_MEDIASAT\Projects\Licenta\EmailDataSet\TRAINING\,TRAIN_00978.eml
spam,C:\Users\sabau.DOM_MEDIASAT\Projects\Licenta\EmailDataSet\TRAINING\,TRAIN_00979.eml
ham,C:\Users\sabau.DOM_MEDIASAT\Projects\Licenta\EmailDataSet\TRAINING\,TRAIN_00980.eml
spam,C:\Users\sabau.DOM_MEDIASAT\Projects\Licenta\EmailDataSet\TRAINING\,TRAIN_00981.eml
spam,C:\Users\sabau.DOM_MEDIASAT\Projects\Licenta\EmailDataSet\TRAINING\,TRAIN_00982.eml
ham,C:\Users\sabau.DOM_MEDIASAT\Projects\Licenta\EmailDataSet\TRAINING\,TRAIN_00983.eml
spam,C:\Users\sabau.DOM_MEDIASAT\Projects\Licenta\EmailDataSet\TRAINING\,TRAIN_00984.eml
ham,C:\Users\sabau.DOM_MEDIASAT\Projects\Licenta\EmailDataSet\TRAINING\,TRAIN_00985.eml
spam,C:\Users\sabau.DOM_MEDIASAT\Projects\Licenta\EmailDataSet\TRAINING\,TRAIN_00986.eml
ham,C:\Users\sabau.DOM_MEDIASAT\Projects\Licenta\EmailDataSet\TRAINING\,TRAIN_00987.eml
spam,C:\Users\sabau.DOM_MEDIASAT\Projects\Licenta\EmailDataSet\TRAINING\,TRAIN_00988.eml
ham,C:\Users\sabau.DOM_MEDIASAT\Projects\Licenta\EmailDataSet\TRAINING\,TRAIN_00989.eml
ham,C:\Users\sabau.DOM_MEDIASAT\Projects\Licenta\EmailDataSet\TRAINING\,TRAIN_00990.eml
spam,C:\Users\sabau.DOM_MEDIASAT\Projects\Licenta\EmailDataSet\TRAINING\,TRAIN_00991.eml
ham,C:\Users\sabau.DOM_MEDIASAT\Projects\Licenta\EmailDataSet\TRAINING\,TRAIN_00992.eml
ham,C:\Users\sabau.DOM_MEDIASAT\Projects\Licenta\EmailDataSet\TRAINING\,TRAIN_00993.eml
ham,C:\Users\sabau.DOM_MEDIASAT\Projects\Licenta\EmailDataSet\TRAINING\,TRAIN_00994.eml
ham,C:\Users\sabau.DOM_MEDIASAT\Projects\Licenta\EmailDataSet\TRAINING\,TRAIN_00995.eml
ham,C:\Users\sabau.DOM_MEDIASAT\Projects\Licenta\EmailDataSet\TRAINING\,TRAIN_00996.eml
ham,C:\Users\sabau.DOM_MEDIASAT\Projects\Licenta\EmailDataSet\TRAINING\,TRAIN_00997.eml
ham,C:\Users\sabau.DOM_MEDIASAT\Projects\Licenta\EmailDataSet\TRAINING\,TRAIN_00998.eml
spam,C:\Users\sabau.DOM_MEDIASAT\Projects\Licenta\EmailDataSet\TRAINING\,TRAIN_00999.eml
ham,C:\Users\sabau.DOM_MEDIASAT\Projects\Licenta\EmailDataSet\TRAINING\,TRAIN_01000.eml
ham,C:\Users\sabau.DOM_MEDIASAT\Projects\Licenta\EmailDataSet\TRAINING\,TRAIN_01001.eml
ham,C:\Users\sabau.DOM_MEDIASAT\Projects\Licenta\EmailDataSet\TRAINING\,TRAIN_01002.eml
spam,C:\Users\sabau.DOM_MEDIASAT\Projects\Licenta\EmailDataSet\TRAINING\,TRAIN_01003.eml
ham,C:\Users\sabau.DOM_MEDIASAT\Projects\Licenta\EmailDataSet\TRAINING\,TRAIN_01004.eml
ham,C:\Users\sabau.DOM_MEDIASAT\Projects\Licenta\EmailDataSet\TRAINING\,TRAIN_01005.eml
spam,C:\Users\sabau.DOM_MEDIASAT\Projects\Licenta\EmailDataSet\TRAINING\,TRAIN_01006.eml
ham,C:\Users\sabau.DOM_MEDIASAT\Projects\Licenta\EmailDataSet\TRAINING\,TRAIN_01007.eml
ham,C:\Users\sabau.DOM_MEDIASAT\Projects\Licenta\EmailDataSet\TRAINING\,TRAIN_01008.eml
ham,C:\Users\sabau.DOM_MEDIASAT\Projects\Licenta\EmailDataSet\TRAINING\,TRAIN_01009.eml
ham,C:\Users\sabau.DOM_MEDIASAT\Projects\Licenta\EmailDataSet\TRAINING\,TRAIN_01010.eml
spam,C:\Users\sabau.DOM_MEDIASAT\Projects\Licenta\EmailDataSet\TRAINING\,TRAIN_01011.eml
ham,C:\Users\sabau.DOM_MEDIASAT\Projects\Licenta\EmailDataSet\TRAINING\,TRAIN_01012.eml
spam,C:\Users\sabau.DOM_MEDIASAT\Projects\Licenta\EmailDataSet\TRAINING\,TRAIN_01013.eml
spam,C:\Users\sabau.DOM_MEDIASAT\Projects\Licenta\EmailDataSet\TRAINING\,TRAIN_01014.eml
ham,C:\Users\sabau.DOM_MEDIASAT\Projects\Licenta\EmailDataSet\TRAINING\,TRAIN_01015.eml
ham,C:\Users\sabau.DOM_MEDIASAT\Projects\Licenta\EmailDataSet\TRAINING\,TRAIN_01016.eml
ham,C:\Users\sabau.DOM_MEDIASAT\Projects\Licenta\EmailDataSet\TRAINING\,TRAIN_01017.eml
ham,C:\Users\sabau.DOM_MEDIASAT\Projects\Licenta\EmailDataSet\TRAINING\,TRAIN_01018.eml
spam,C:\Users\sabau.DOM_MEDIASAT\Projects\Licenta\EmailDataSet\TRAINING\,TRAIN_01019.eml
ham,C:\Users\sabau.DOM_MEDIASAT\Projects\Licenta\EmailDataSet\TRAINING\,TRAIN_01020.eml
ham,C:\Users\sabau.DOM_MEDIASAT\Projects\Licenta\EmailDataSet\TRAINING\,TRAIN_01021.eml
ham,C:\Users\sabau.DOM_MEDIASAT\Projects\Licenta\EmailDataSet\TRAINING\,TRAIN_01022.eml
ham,C:\Users\sabau.DOM_MEDIASAT\Projects\Licenta\EmailDataSet\TRAINING\,TRAIN_01023.eml
spam,C:\Users\sabau.DOM_MEDIASAT\Projects\Licenta\EmailDataSet\TRAINING\,TRAIN_01024.eml
spam,C:\Users\sabau.DOM_MEDIASAT\Projects\Licenta\EmailDataSet\TRAINING\,TRAIN_01025.eml
ham,C:\Users\sabau.DOM_MEDIASAT\Projects\Licenta\EmailDataSet\TRAINING\,TRAIN_01026.eml
ham,C:\Users\sabau.DOM_MEDIASAT\Projects\Licenta\EmailDataSet\TRAINING\,TRAIN_01027.eml
ham,C:\Users\sabau.DOM_MEDIASAT\Projects\Licenta\EmailDataSet\TRAINING\,TRAIN_01028.eml
spam,C:\Users\sabau.DOM_MEDIASAT\Projects\Licenta\EmailDataSet\TRAINING\,TRAIN_01029.eml
ham,C:\Users\sabau.DOM_MEDIASAT\Projects\Licenta\EmailDataSet\TRAINING\,TRAIN_01030.eml
spam,C:\Users\sabau.DOM_MEDIASAT\Projects\Licenta\EmailDataSet\TRAINING\,TRAIN_01031.eml
ham,C:\Users\sabau.DOM_MEDIASAT\Projects\Licenta\EmailDataSet\TRAINING\,TRAIN_01032.eml
spam,C:\Users\sabau.DOM_MEDIASAT\Projects\Licenta\EmailDataSet\TRAINING\,TRAIN_01033.eml
ham,C:\Users\sabau.DOM_MEDIASAT\Projects\Licenta\EmailDataSet\TRAINING\,TRAIN_01034.eml
ham,C:\Users\sabau.DOM_MEDIASAT\Projects\Licenta\EmailDataSet\TRAINING\,TRAIN_01035.eml
ham,C:\Users\sabau.DOM_MEDIASAT\Projects\Licenta\EmailDataSet\TRAINING\,TRAIN_01036.eml
spam,C:\Users\sabau.DOM_MEDIASAT\Projects\Licenta\EmailDataSet\TRAINING\,TRAIN_01037.eml
ham,C:\Users\sabau.DOM_MEDIASAT\Projects\Licenta\EmailDataSet\TRAINING\,TRAIN_01038.eml
ham,C:\Users\sabau.DOM_MEDIASAT\Projects\Licenta\EmailDataSet\TRAINING\,TRAIN_01039.eml
spam,C:\Users\sabau.DOM_MEDIASAT\Projects\Licenta\EmailDataSet\TRAINING\,TRAIN_01040.eml
ham,C:\Users\sabau.DOM_MEDIASAT\Projects\Licenta\EmailDataSet\TRAINING\,TRAIN_01041.eml
ham,C:\Users\sabau.DOM_MEDIASAT\Projects\Licenta\EmailDataSet\TRAINING\,TRAIN_01042.eml
ham,C:\Users\sabau.DOM_MEDIASAT\Projects\Licenta\EmailDataSet\TRAINING\,TRAIN_01043.eml
spam,C:\Users\sabau.DOM_MEDIASAT\Projects\Licenta\EmailDataSet\TRAINING\,TRAIN_01044.eml
spam,C:\Users\sabau.DOM_MEDIASAT\Projects\Licenta\EmailDataSet\TRAINING\,TRAIN_01045.eml
spam,C:\Users\sabau.DOM_MEDIASAT\Projects\Licenta\EmailDataSet\TRAINING\,TRAIN_01046.eml
ham,C:\Users\sabau.DOM_MEDIASAT\Projects\Licenta\EmailDataSet\TRAINING\,TRAIN_01047.eml
ham,C:\Users\sabau.DOM_MEDIASAT\Projects\Licenta\EmailDataSet\TRAINING\,TRAIN_01048.eml
ham,C:\Users\sabau.DOM_MEDIASAT\Projects\Licenta\EmailDataSet\TRAINING\,TRAIN_01049.eml
ham,C:\Users\sabau.DOM_MEDIASAT\Projects\Licenta\EmailDataSet\TRAINING\,TRAIN_01050.eml
ham,C:\Users\sabau.DOM_MEDIASAT\Projects\Licenta\EmailDataSet\TRAINING\,TRAIN_01051.eml
spam,C:\Users\sabau.DOM_MEDIASAT\Projects\Licenta\EmailDataSet\TRAINING\,TRAIN_01052.eml
ham,C:\Users\sabau.DOM_MEDIASAT\Projects\Licenta\EmailDataSet\TRAINING\,TRAIN_01053.eml
ham,C:\Users\sabau.DOM_MEDIASAT\Projects\Licenta\EmailDataSet\TRAINING\,TRAIN_01054.eml
spam,C:\Users\sabau.DOM_MEDIASAT\Projects\Licenta\EmailDataSet\TRAINING\,TRAIN_01055.eml
ham,C:\Users\sabau.DOM_MEDIASAT\Projects\Licenta\EmailDataSet\TRAINING\,TRAIN_01056.eml
ham,C:\Users\sabau.DOM_MEDIASAT\Projects\Licenta\EmailDataSet\TRAINING\,TRAIN_01057.eml
spam,C:\Users\sabau.DOM_MEDIASAT\Projects\Licenta\EmailDataSet\TRAINING\,TRAIN_01058.eml
ham,C:\Users\sabau.DOM_MEDIASAT\Projects\Licenta\EmailDataSet\TRAINING\,TRAIN_01059.eml
ham,C:\Users\sabau.DOM_MEDIASAT\Projects\Licenta\EmailDataSet\TRAINING\,TRAIN_01060.eml
ham,C:\Users\sabau.DOM_MEDIASAT\Projects\Licenta\EmailDataSet\TRAINING\,TRAIN_01061.eml
ham,C:\Users\sabau.DOM_MEDIASAT\Projects\Licenta\EmailDataSet\TRAINING\,TRAIN_01062.eml
spam,C:\Users\sabau.DOM_MEDIASAT\Projects\Licenta\EmailDataSet\TRAINING\,TRAIN_01063.eml
spam,C:\Users\sabau.DOM_MEDIASAT\Projects\Licenta\EmailDataSet\TRAINING\,TRAIN_01064.eml
ham,C:\Users\sabau.DOM_MEDIASAT\Projects\Licenta\EmailDataSet\TRAINING\,TRAIN_01065.eml
ham,C:\Users\sabau.DOM_MEDIASAT\Projects\Licenta\EmailDataSet\TRAINING\,TRAIN_01066.eml
spam,C:\Users\sabau.DOM_MEDIASAT\Projects\Licenta\EmailDataSet\TRAINING\,TRAIN_01067.eml
spam,C:\Users\sabau.DOM_MEDIASAT\Projects\Licenta\EmailDataSet\TRAINING\,TRAIN_01068.eml
ham,C:\Users\sabau.DOM_MEDIASAT\Projects\Licenta\EmailDataSet\TRAINING\,TRAIN_01069.eml
ham,C:\Users\sabau.DOM_MEDIASAT\Projects\Licenta\EmailDataSet\TRAINING\,TRAIN_01070.eml
spam,C:\Users\sabau.DOM_MEDIASAT\Projects\Licenta\EmailDataSet\TRAINING\,TRAIN_01071.eml
ham,C:\Users\sabau.DOM_MEDIASAT\Projects\Licenta\EmailDataSet\TRAINING\,TRAIN_01072.eml
spam,C:\Users\sabau.DOM_MEDIASAT\Projects\Licenta\EmailDataSet\TRAINING\,TRAIN_01073.eml
spam,C:\Users\sabau.DOM_MEDIASAT\Projects\Licenta\EmailDataSet\TRAINING\,TRAIN_01074.eml
spam,C:\Users\sabau.DOM_MEDIASAT\Projects\Licenta\EmailDataSet\TRAINING\,TRAIN_01075.eml
ham,C:\Users\sabau.DOM_MEDIASAT\Projects\Licenta\EmailDataSet\TRAINING\,TRAIN_01076.eml
ham,C:\Users\sabau.DOM_MEDIASAT\Projects\Licenta\EmailDataSet\TRAINING\,TRAIN_01077.eml
spam,C:\Users\sabau.DOM_MEDIASAT\Projects\Licenta\EmailDataSet\TRAINING\,TRAIN_01078.eml
ham,C:\Users\sabau.DOM_MEDIASAT\Projects\Licenta\EmailDataSet\TRAINING\,TRAIN_01079.eml
ham,C:\Users\sabau.DOM_MEDIASAT\Projects\Licenta\EmailDataSet\TRAINING\,TRAIN_01080.eml
ham,C:\Users\sabau.DOM_MEDIASAT\Projects\Licenta\EmailDataSet\TRAINING\,TRAIN_01081.eml
spam,C:\Users\sabau.DOM_MEDIASAT\Projects\Licenta\EmailDataSet\TRAINING\,TRAIN_01082.eml
spam,C:\Users\sabau.DOM_MEDIASAT\Projects\Licenta\EmailDataSet\TRAINING\,TRAIN_01083.eml
spam,C:\Users\sabau.DOM_MEDIASAT\Projects\Licenta\EmailDataSet\TRAINING\,TRAIN_01084.eml
ham,C:\Users\sabau.DOM_MEDIASAT\Projects\Licenta\EmailDataSet\TRAINING\,TRAIN_01085.eml
spam,C:\Users\sabau.DOM_MEDIASAT\Projects\Licenta\EmailDataSet\TRAINING\,TRAIN_01086.eml
ham,C:\Users\sabau.DOM_MEDIASAT\Projects\Licenta\EmailDataSet\TRAINING\,TRAIN_01087.eml
ham,C:\Users\sabau.DOM_MEDIASAT\Projects\Licenta\EmailDataSet\TRAINING\,TRAIN_01088.eml
spam,C:\Users\sabau.DOM_MEDIASAT\Projects\Licenta\EmailDataSet\TRAINING\,TRAIN_01089.eml
spam,C:\Users\sabau.DOM_MEDIASAT\Projects\Licenta\EmailDataSet\TRAINING\,TRAIN_01090.eml
ham,C:\Users\sabau.DOM_MEDIASAT\Projects\Licenta\EmailDataSet\TRAINING\,TRAIN_01091.eml
ham,C:\Users\sabau.DOM_MEDIASAT\Projects\Licenta\EmailDataSet\TRAINING\,TRAIN_01092.eml
ham,C:\Users\sabau.DOM_MEDIASAT\Projects\Licenta\EmailDataSet\TRAINING\,TRAIN_01093.eml
ham,C:\Users\sabau.DOM_MEDIASAT\Projects\Licenta\EmailDataSet\TRAINING\,TRAIN_01094.eml
ham,C:\Users\sabau.DOM_MEDIASAT\Projects\Licenta\EmailDataSet\TRAINING\,TRAIN_01095.eml
ham,C:\Users\sabau.DOM_MEDIASAT\Projects\Licenta\EmailDataSet\TRAINING\,TRAIN_01096.eml
ham,C:\Users\sabau.DOM_MEDIASAT\Projects\Licenta\EmailDataSet\TRAINING\,TRAIN_01097.eml
ham,C:\Users\sabau.DOM_MEDIASAT\Projects\Licenta\EmailDataSet\TRAINING\,TRAIN_01098.eml
ham,C:\Users\sabau.DOM_MEDIASAT\Projects\Licenta\EmailDataSet\TRAINING\,TRAIN_01099.eml
ham,C:\Users\sabau.DOM_MEDIASAT\Projects\Licenta\EmailDataSet\TRAINING\,TRAIN_01100.eml
ham,C:\Users\sabau.DOM_MEDIASAT\Projects\Licenta\EmailDataSet\TRAINING\,TRAIN_01101.eml
spam,C:\Users\sabau.DOM_MEDIASAT\Projects\Licenta\EmailDataSet\TRAINING\,TRAIN_01102.eml
spam,C:\Users\sabau.DOM_MEDIASAT\Projects\Licenta\EmailDataSet\TRAINING\,TRAIN_01103.eml
spam,C:\Users\sabau.DOM_MEDIASAT\Projects\Licenta\EmailDataSet\TRAINING\,TRAIN_01104.eml
ham,C:\Users\sabau.DOM_MEDIASAT\Projects\Licenta\EmailDataSet\TRAINING\,TRAIN_01105.eml
ham,C:\Users\sabau.DOM_MEDIASAT\Projects\Licenta\EmailDataSet\TRAINING\,TRAIN_01106.eml
spam,C:\Users\sabau.DOM_MEDIASAT\Projects\Licenta\EmailDataSet\TRAINING\,TRAIN_01107.eml
ham,C:\Users\sabau.DOM_MEDIASAT\Projects\Licenta\EmailDataSet\TRAINING\,TRAIN_01108.eml
ham,C:\Users\sabau.DOM_MEDIASAT\Projects\Licenta\EmailDataSet\TRAINING\,TRAIN_01109.eml
ham,C:\Users\sabau.DOM_MEDIASAT\Projects\Licenta\EmailDataSet\TRAINING\,TRAIN_01110.eml
spam,C:\Users\sabau.DOM_MEDIASAT\Projects\Licenta\EmailDataSet\TRAINING\,TRAIN_01111.eml
ham,C:\Users\sabau.DOM_MEDIASAT\Projects\Licenta\EmailDataSet\TRAINING\,TRAIN_01112.eml
ham,C:\Users\sabau.DOM_MEDIASAT\Projects\Licenta\EmailDataSet\TRAINING\,TRAIN_01113.eml
spam,C:\Users\sabau.DOM_MEDIASAT\Projects\Licenta\EmailDataSet\TRAINING\,TRAIN_01114.eml
spam,C:\Users\sabau.DOM_MEDIASAT\Projects\Licenta\EmailDataSet\TRAINING\,TRAIN_01115.eml
ham,C:\Users\sabau.DOM_MEDIASAT\Projects\Licenta\EmailDataSet\TRAINING\,TRAIN_01116.eml
ham,C:\Users\sabau.DOM_MEDIASAT\Projects\Licenta\EmailDataSet\TRAINING\,TRAIN_01117.eml
spam,C:\Users\sabau.DOM_MEDIASAT\Projects\Licenta\EmailDataSet\TRAINING\,TRAIN_01118.eml
spam,C:\Users\sabau.DOM_MEDIASAT\Projects\Licenta\EmailDataSet\TRAINING\,TRAIN_01119.eml
spam,C:\Users\sabau.DOM_MEDIASAT\Projects\Licenta\EmailDataSet\TRAINING\,TRAIN_01120.eml
spam,C:\Users\sabau.DOM_MEDIASAT\Projects\Licenta\EmailDataSet\TRAINING\,TRAIN_01121.eml
ham,C:\Users\sabau.DOM_MEDIASAT\Projects\Licenta\EmailDataSet\TRAINING\,TRAIN_01122.eml
ham,C:\Users\sabau.DOM_MEDIASAT\Projects\Licenta\EmailDataSet\TRAINING\,TRAIN_01123.eml
spam,C:\Users\sabau.DOM_MEDIASAT\Projects\Licenta\EmailDataSet\TRAINING\,TRAIN_01124.eml
ham,C:\Users\sabau.DOM_MEDIASAT\Projects\Licenta\EmailDataSet\TRAINING\,TRAIN_01125.eml
ham,C:\Users\sabau.DOM_MEDIASAT\Projects\Licenta\EmailDataSet\TRAINING\,TRAIN_01126.eml
ham,C:\Users\sabau.DOM_MEDIASAT\Projects\Licenta\EmailDataSet\TRAINING\,TRAIN_01127.eml
ham,C:\Users\sabau.DOM_MEDIASAT\Projects\Licenta\EmailDataSet\TRAINING\,TRAIN_01128.eml
ham,C:\Users\sabau.DOM_MEDIASAT\Projects\Licenta\EmailDataSet\TRAINING\,TRAIN_01129.eml
spam,C:\Users\sabau.DOM_MEDIASAT\Projects\Licenta\EmailDataSet\TRAINING\,TRAIN_01130.eml
ham,C:\Users\sabau.DOM_MEDIASAT\Projects\Licenta\EmailDataSet\TRAINING\,TRAIN_01131.eml
spam,C:\Users\sabau.DOM_MEDIASAT\Projects\Licenta\EmailDataSet\TRAINING\,TRAIN_01132.eml
ham,C:\Users\sabau.DOM_MEDIASAT\Projects\Licenta\EmailDataSet\TRAINING\,TRAIN_01133.eml
ham,C:\Users\sabau.DOM_MEDIASAT\Projects\Licenta\EmailDataSet\TRAINING\,TRAIN_01134.eml
ham,C:\Users\sabau.DOM_MEDIASAT\Projects\Licenta\EmailDataSet\TRAINING\,TRAIN_01135.eml
ham,C:\Users\sabau.DOM_MEDIASAT\Projects\Licenta\EmailDataSet\TRAINING\,TRAIN_01136.eml
ham,C:\Users\sabau.DOM_MEDIASAT\Projects\Licenta\EmailDataSet\TRAINING\,TRAIN_01137.eml
spam,C:\Users\sabau.DOM_MEDIASAT\Projects\Licenta\EmailDataSet\TRAINING\,TRAIN_01138.eml
spam,C:\Users\sabau.DOM_MEDIASAT\Projects\Licenta\EmailDataSet\TRAINING\,TRAIN_01139.eml
ham,C:\Users\sabau.DOM_MEDIASAT\Projects\Licenta\EmailDataSet\TRAINING\,TRAIN_01140.eml
spam,C:\Users\sabau.DOM_MEDIASAT\Projects\Licenta\EmailDataSet\TRAINING\,TRAIN_01141.eml
spam,C:\Users\sabau.DOM_MEDIASAT\Projects\Licenta\EmailDataSet\TRAINING\,TRAIN_01142.eml
ham,C:\Users\sabau.DOM_MEDIASAT\Projects\Licenta\EmailDataSet\TRAINING\,TRAIN_01143.eml
ham,C:\Users\sabau.DOM_MEDIASAT\Projects\Licenta\EmailDataSet\TRAINING\,TRAIN_01144.eml
spam,C:\Users\sabau.DOM_MEDIASAT\Projects\Licenta\EmailDataSet\TRAINING\,TRAIN_01145.eml
ham,C:\Users\sabau.DOM_MEDIASAT\Projects\Licenta\EmailDataSet\TRAINING\,TRAIN_01146.eml
spam,C:\Users\sabau.DOM_MEDIASAT\Projects\Licenta\EmailDataSet\TRAINING\,TRAIN_01147.eml
spam,C:\Users\sabau.DOM_MEDIASAT\Projects\Licenta\EmailDataSet\TRAINING\,TRAIN_01148.eml
ham,C:\Users\sabau.DOM_MEDIASAT\Projects\Licenta\EmailDataSet\TRAINING\,TRAIN_01149.eml
spam,C:\Users\sabau.DOM_MEDIASAT\Projects\Licenta\EmailDataSet\TRAINING\,TRAIN_01150.eml
spam,C:\Users\sabau.DOM_MEDIASAT\Projects\Licenta\EmailDataSet\TRAINING\,TRAIN_01151.eml
ham,C:\Users\sabau.DOM_MEDIASAT\Projects\Licenta\EmailDataSet\TRAINING\,TRAIN_01152.eml
spam,C:\Users\sabau.DOM_MEDIASAT\Projects\Licenta\EmailDataSet\TRAINING\,TRAIN_01153.eml
ham,C:\Users\sabau.DOM_MEDIASAT\Projects\Licenta\EmailDataSet\TRAINING\,TRAIN_01154.eml
spam,C:\Users\sabau.DOM_MEDIASAT\Projects\Licenta\EmailDataSet\TRAINING\,TRAIN_01155.eml
ham,C:\Users\sabau.DOM_MEDIASAT\Projects\Licenta\EmailDataSet\TRAINING\,TRAIN_01156.eml
ham,C:\Users\sabau.DOM_MEDIASAT\Projects\Licenta\EmailDataSet\TRAINING\,TRAIN_01157.eml
ham,C:\Users\sabau.DOM_MEDIASAT\Projects\Licenta\EmailDataSet\TRAINING\,TRAIN_01158.eml
ham,C:\Users\sabau.DOM_MEDIASAT\Projects\Licenta\EmailDataSet\TRAINING\,TRAIN_01159.eml
ham,C:\Users\sabau.DOM_MEDIASAT\Projects\Licenta\EmailDataSet\TRAINING\,TRAIN_01160.eml
spam,C:\Users\sabau.DOM_MEDIASAT\Projects\Licenta\EmailDataSet\TRAINING\,TRAIN_01161.eml
ham,C:\Users\sabau.DOM_MEDIASAT\Projects\Licenta\EmailDataSet\TRAINING\,TRAIN_01162.eml
ham,C:\Users\sabau.DOM_MEDIASAT\Projects\Licenta\EmailDataSet\TRAINING\,TRAIN_01163.eml
spam,C:\Users\sabau.DOM_MEDIASAT\Projects\Licenta\EmailDataSet\TRAINING\,TRAIN_01164.eml
spam,C:\Users\sabau.DOM_MEDIASAT\Projects\Licenta\EmailDataSet\TRAINING\,TRAIN_01165.eml
ham,C:\Users\sabau.DOM_MEDIASAT\Projects\Licenta\EmailDataSet\TRAINING\,TRAIN_01166.eml
ham,C:\Users\sabau.DOM_MEDIASAT\Projects\Licenta\EmailDataSet\TRAINING\,TRAIN_01167.eml
ham,C:\Users\sabau.DOM_MEDIASAT\Projects\Licenta\EmailDataSet\TRAINING\,TRAIN_01168.eml
ham,C:\Users\sabau.DOM_MEDIASAT\Projects\Licenta\EmailDataSet\TRAINING\,TRAIN_01169.eml
ham,C:\Users\sabau.DOM_MEDIASAT\Projects\Licenta\EmailDataSet\TRAINING\,TRAIN_01170.eml
ham,C:\Users\sabau.DOM_MEDIASAT\Projects\Licenta\EmailDataSet\TRAINING\,TRAIN_01171.eml
ham,C:\Users\sabau.DOM_MEDIASAT\Projects\Licenta\EmailDataSet\TRAINING\,TRAIN_01172.eml
ham,C:\Users\sabau.DOM_MEDIASAT\Projects\Licenta\EmailDataSet\TRAINING\,TRAIN_01173.eml
spam,C:\Users\sabau.DOM_MEDIASAT\Projects\Licenta\EmailDataSet\TRAINING\,TRAIN_01174.eml
spam,C:\Users\sabau.DOM_MEDIASAT\Projects\Licenta\EmailDataSet\TRAINING\,TRAIN_01175.eml
spam,C:\Users\sabau.DOM_MEDIASAT\Projects\Licenta\EmailDataSet\TRAINING\,TRAIN_01176.eml
ham,C:\Users\sabau.DOM_MEDIASAT\Projects\Licenta\EmailDataSet\TRAINING\,TRAIN_01177.eml
ham,C:\Users\sabau.DOM_MEDIASAT\Projects\Licenta\EmailDataSet\TRAINING\,TRAIN_01178.eml
ham,C:\Users\sabau.DOM_MEDIASAT\Projects\Licenta\EmailDataSet\TRAINING\,TRAIN_01179.eml
spam,C:\Users\sabau.DOM_MEDIASAT\Projects\Licenta\EmailDataSet\TRAINING\,TRAIN_01180.eml
spam,C:\Users\sabau.DOM_MEDIASAT\Projects\Licenta\EmailDataSet\TRAINING\,TRAIN_01181.eml
spam,C:\Users\sabau.DOM_MEDIASAT\Projects\Licenta\EmailDataSet\TRAINING\,TRAIN_01182.eml
spam,C:\Users\sabau.DOM_MEDIASAT\Projects\Licenta\EmailDataSet\TRAINING\,TRAIN_01183.eml
ham,C:\Users\sabau.DOM_MEDIASAT\Projects\Licenta\EmailDataSet\TRAINING\,TRAIN_01184.eml
spam,C:\Users\sabau.DOM_MEDIASAT\Projects\Licenta\EmailDataSet\TRAINING\,TRAIN_01185.eml
ham,C:\Users\sabau.DOM_MEDIASAT\Projects\Licenta\EmailDataSet\TRAINING\,TRAIN_01186.eml
ham,C:\Users\sabau.DOM_MEDIASAT\Projects\Licenta\EmailDataSet\TRAINING\,TRAIN_01187.eml
ham,C:\Users\sabau.DOM_MEDIASAT\Projects\Licenta\EmailDataSet\TRAINING\,TRAIN_01188.eml
ham,C:\Users\sabau.DOM_MEDIASAT\Projects\Licenta\EmailDataSet\TRAINING\,TRAIN_01189.eml
ham,C:\Users\sabau.DOM_MEDIASAT\Projects\Licenta\EmailDataSet\TRAINING\,TRAIN_01190.eml
ham,C:\Users\sabau.DOM_MEDIASAT\Projects\Licenta\EmailDataSet\TRAINING\,TRAIN_01191.eml
ham,C:\Users\sabau.DOM_MEDIASAT\Projects\Licenta\EmailDataSet\TRAINING\,TRAIN_01192.eml
ham,C:\Users\sabau.DOM_MEDIASAT\Projects\Licenta\EmailDataSet\TRAINING\,TRAIN_01193.eml
spam,C:\Users\sabau.DOM_MEDIASAT\Projects\Licenta\EmailDataSet\TRAINING\,TRAIN_01194.eml
spam,C:\Users\sabau.DOM_MEDIASAT\Projects\Licenta\EmailDataSet\TRAINING\,TRAIN_01195.eml
ham,C:\Users\sabau.DOM_MEDIASAT\Projects\Licenta\EmailDataSet\TRAINING\,TRAIN_01196.eml
spam,C:\Users\sabau.DOM_MEDIASAT\Projects\Licenta\EmailDataSet\TRAINING\,TRAIN_01197.eml
ham,C:\Users\sabau.DOM_MEDIASAT\Projects\Licenta\EmailDataSet\TRAINING\,TRAIN_01198.eml
ham,C:\Users\sabau.DOM_MEDIASAT\Projects\Licenta\EmailDataSet\TRAINING\,TRAIN_01199.eml
ham,C:\Users\sabau.DOM_MEDIASAT\Projects\Licenta\EmailDataSet\TRAINING\,TRAIN_01200.eml
spam,C:\Users\sabau.DOM_MEDIASAT\Projects\Licenta\EmailDataSet\TRAINING\,TRAIN_01201.eml
spam,C:\Users\sabau.DOM_MEDIASAT\Projects\Licenta\EmailDataSet\TRAINING\,TRAIN_01202.eml
spam,C:\Users\sabau.DOM_MEDIASAT\Projects\Licenta\EmailDataSet\TRAINING\,TRAIN_01203.eml
spam,C:\Users\sabau.DOM_MEDIASAT\Projects\Licenta\EmailDataSet\TRAINING\,TRAIN_01204.eml
ham,C:\Users\sabau.DOM_MEDIASAT\Projects\Licenta\EmailDataSet\TRAINING\,TRAIN_01205.eml
spam,C:\Users\sabau.DOM_MEDIASAT\Projects\Licenta\EmailDataSet\TRAINING\,TRAIN_01206.eml
ham,C:\Users\sabau.DOM_MEDIASAT\Projects\Licenta\EmailDataSet\TRAINING\,TRAIN_01207.eml
spam,C:\Users\sabau.DOM_MEDIASAT\Projects\Licenta\EmailDataSet\TRAINING\,TRAIN_01208.eml
ham,C:\Users\sabau.DOM_MEDIASAT\Projects\Licenta\EmailDataSet\TRAINING\,TRAIN_01209.eml
ham,C:\Users\sabau.DOM_MEDIASAT\Projects\Licenta\EmailDataSet\TRAINING\,TRAIN_01210.eml
ham,C:\Users\sabau.DOM_MEDIASAT\Projects\Licenta\EmailDataSet\TRAINING\,TRAIN_01211.eml
ham,C:\Users\sabau.DOM_MEDIASAT\Projects\Licenta\EmailDataSet\TRAINING\,TRAIN_01212.eml
ham,C:\Users\sabau.DOM_MEDIASAT\Projects\Licenta\EmailDataSet\TRAINING\,TRAIN_01213.eml
ham,C:\Users\sabau.DOM_MEDIASAT\Projects\Licenta\EmailDataSet\TRAINING\,TRAIN_01214.eml
spam,C:\Users\sabau.DOM_MEDIASAT\Projects\Licenta\EmailDataSet\TRAINING\,TRAIN_01215.eml
spam,C:\Users\sabau.DOM_MEDIASAT\Projects\Licenta\EmailDataSet\TRAINING\,TRAIN_01216.eml
ham,C:\Users\sabau.DOM_MEDIASAT\Projects\Licenta\EmailDataSet\TRAINING\,TRAIN_01217.eml
ham,C:\Users\sabau.DOM_MEDIASAT\Projects\Licenta\EmailDataSet\TRAINING\,TRAIN_01218.eml
spam,C:\Users\sabau.DOM_MEDIASAT\Projects\Licenta\EmailDataSet\TRAINING\,TRAIN_01219.eml
ham,C:\Users\sabau.DOM_MEDIASAT\Projects\Licenta\EmailDataSet\TRAINING\,TRAIN_01220.eml
ham,C:\Users\sabau.DOM_MEDIASAT\Projects\Licenta\EmailDataSet\TRAINING\,TRAIN_01221.eml
ham,C:\Users\sabau.DOM_MEDIASAT\Projects\Licenta\EmailDataSet\TRAINING\,TRAIN_01222.eml
spam,C:\Users\sabau.DOM_MEDIASAT\Projects\Licenta\EmailDataSet\TRAINING\,TRAIN_01223.eml
spam,C:\Users\sabau.DOM_MEDIASAT\Projects\Licenta\EmailDataSet\TRAINING\,TRAIN_01224.eml
ham,C:\Users\sabau.DOM_MEDIASAT\Projects\Licenta\EmailDataSet\TRAINING\,TRAIN_01225.eml
ham,C:\Users\sabau.DOM_MEDIASAT\Projects\Licenta\EmailDataSet\TRAINING\,TRAIN_01226.eml
ham,C:\Users\sabau.DOM_MEDIASAT\Projects\Licenta\EmailDataSet\TRAINING\,TRAIN_01227.eml
ham,C:\Users\sabau.DOM_MEDIASAT\Projects\Licenta\EmailDataSet\TRAINING\,TRAIN_01228.eml
spam,C:\Users\sabau.DOM_MEDIASAT\Projects\Licenta\EmailDataSet\TRAINING\,TRAIN_01229.eml
ham,C:\Users\sabau.DOM_MEDIASAT\Projects\Licenta\EmailDataSet\TRAINING\,TRAIN_01230.eml
ham,C:\Users\sabau.DOM_MEDIASAT\Projects\Licenta\EmailDataSet\TRAINING\,TRAIN_01231.eml
ham,C:\Users\sabau.DOM_MEDIASAT\Projects\Licenta\EmailDataSet\TRAINING\,TRAIN_01232.eml
ham,C:\Users\sabau.DOM_MEDIASAT\Projects\Licenta\EmailDataSet\TRAINING\,TRAIN_01233.eml
spam,C:\Users\sabau.DOM_MEDIASAT\Projects\Licenta\EmailDataSet\TRAINING\,TRAIN_01234.eml
ham,C:\Users\sabau.DOM_MEDIASAT\Projects\Licenta\EmailDataSet\TRAINING\,TRAIN_01235.eml
spam,C:\Users\sabau.DOM_MEDIASAT\Projects\Licenta\EmailDataSet\TRAINING\,TRAIN_01236.eml
ham,C:\Users\sabau.DOM_MEDIASAT\Projects\Licenta\EmailDataSet\TRAINING\,TRAIN_01237.eml
spam,C:\Users\sabau.DOM_MEDIASAT\Projects\Licenta\EmailDataSet\TRAINING\,TRAIN_01238.eml
ham,C:\Users\sabau.DOM_MEDIASAT\Projects\Licenta\EmailDataSet\TRAINING\,TRAIN_01239.eml
ham,C:\Users\sabau.DOM_MEDIASAT\Projects\Licenta\EmailDataSet\TRAINING\,TRAIN_01240.eml
ham,C:\Users\sabau.DOM_MEDIASAT\Projects\Licenta\EmailDataSet\TRAINING\,TRAIN_01241.eml
ham,C:\Users\sabau.DOM_MEDIASAT\Projects\Licenta\EmailDataSet\TRAINING\,TRAIN_01242.eml
ham,C:\Users\sabau.DOM_MEDIASAT\Projects\Licenta\EmailDataSet\TRAINING\,TRAIN_01243.eml
spam,C:\Users\sabau.DOM_MEDIASAT\Projects\Licenta\EmailDataSet\TRAINING\,TRAIN_01244.eml
ham,C:\Users\sabau.DOM_MEDIASAT\Projects\Licenta\EmailDataSet\TRAINING\,TRAIN_01245.eml
ham,C:\Users\sabau.DOM_MEDIASAT\Projects\Licenta\EmailDataSet\TRAINING\,TRAIN_01246.eml
spam,C:\Users\sabau.DOM_MEDIASAT\Projects\Licenta\EmailDataSet\TRAINING\,TRAIN_01247.eml
spam,C:\Users\sabau.DOM_MEDIASAT\Projects\Licenta\EmailDataSet\TRAINING\,TRAIN_01248.eml
ham,C:\Users\sabau.DOM_MEDIASAT\Projects\Licenta\EmailDataSet\TRAINING\,TRAIN_01249.eml
ham,C:\Users\sabau.DOM_MEDIASAT\Projects\Licenta\EmailDataSet\TRAINING\,TRAIN_01250.eml
spam,C:\Users\sabau.DOM_MEDIASAT\Projects\Licenta\EmailDataSet\TRAINING\,TRAIN_01251.eml
ham,C:\Users\sabau.DOM_MEDIASAT\Projects\Licenta\EmailDataSet\TRAINING\,TRAIN_01252.eml
spam,C:\Users\sabau.DOM_MEDIASAT\Projects\Licenta\EmailDataSet\TRAINING\,TRAIN_01253.eml
ham,C:\Users\sabau.DOM_MEDIASAT\Projects\Licenta\EmailDataSet\TRAINING\,TRAIN_01254.eml
ham,C:\Users\sabau.DOM_MEDIASAT\Projects\Licenta\EmailDataSet\TRAINING\,TRAIN_01255.eml
spam,C:\Users\sabau.DOM_MEDIASAT\Projects\Licenta\EmailDataSet\TRAINING\,TRAIN_01256.eml
spam,C:\Users\sabau.DOM_MEDIASAT\Projects\Licenta\EmailDataSet\TRAINING\,TRAIN_01257.eml
ham,C:\Users\sabau.DOM_MEDIASAT\Projects\Licenta\EmailDataSet\TRAINING\,TRAIN_01258.eml
ham,C:\Users\sabau.DOM_MEDIASAT\Projects\Licenta\EmailDataSet\TRAINING\,TRAIN_01259.eml
ham,C:\Users\sabau.DOM_MEDIASAT\Projects\Licenta\EmailDataSet\TRAINING\,TRAIN_01260.eml
ham,C:\Users\sabau.DOM_MEDIASAT\Projects\Licenta\EmailDataSet\TRAINING\,TRAIN_01261.eml
spam,C:\Users\sabau.DOM_MEDIASAT\Projects\Licenta\EmailDataSet\TRAINING\,TRAIN_01262.eml
ham,C:\Users\sabau.DOM_MEDIASAT\Projects\Licenta\EmailDataSet\TRAINING\,TRAIN_01263.eml
ham,C:\Users\sabau.DOM_MEDIASAT\Projects\Licenta\EmailDataSet\TRAINING\,TRAIN_01264.eml
ham,C:\Users\sabau.DOM_MEDIASAT\Projects\Licenta\EmailDataSet\TRAINING\,TRAIN_01265.eml
ham,C:\Users\sabau.DOM_MEDIASAT\Projects\Licenta\EmailDataSet\TRAINING\,TRAIN_01266.eml
spam,C:\Users\sabau.DOM_MEDIASAT\Projects\Licenta\EmailDataSet\TRAINING\,TRAIN_01267.eml
ham,C:\Users\sabau.DOM_MEDIASAT\Projects\Licenta\EmailDataSet\TRAINING\,TRAIN_01268.eml
ham,C:\Users\sabau.DOM_MEDIASAT\Projects\Licenta\EmailDataSet\TRAINING\,TRAIN_01269.eml
ham,C:\Users\sabau.DOM_MEDIASAT\Projects\Licenta\EmailDataSet\TRAINING\,TRAIN_01270.eml
ham,C:\Users\sabau.DOM_MEDIASAT\Projects\Licenta\EmailDataSet\TRAINING\,TRAIN_01271.eml
ham,C:\Users\sabau.DOM_MEDIASAT\Projects\Licenta\EmailDataSet\TRAINING\,TRAIN_01272.eml
ham,C:\Users\sabau.DOM_MEDIASAT\Projects\Licenta\EmailDataSet\TRAINING\,TRAIN_01273.eml
ham,C:\Users\sabau.DOM_MEDIASAT\Projects\Licenta\EmailDataSet\TRAINING\,TRAIN_01274.eml
ham,C:\Users\sabau.DOM_MEDIASAT\Projects\Licenta\EmailDataSet\TRAINING\,TRAIN_01275.eml
spam,C:\Users\sabau.DOM_MEDIASAT\Projects\Licenta\EmailDataSet\TRAINING\,TRAIN_01276.eml
spam,C:\Users\sabau.DOM_MEDIASAT\Projects\Licenta\EmailDataSet\TRAINING\,TRAIN_01277.eml
ham,C:\Users\sabau.DOM_MEDIASAT\Projects\Licenta\EmailDataSet\TRAINING\,TRAIN_01278.eml
ham,C:\Users\sabau.DOM_MEDIASAT\Projects\Licenta\EmailDataSet\TRAINING\,TRAIN_01279.eml
ham,C:\Users\sabau.DOM_MEDIASAT\Projects\Licenta\EmailDataSet\TRAINING\,TRAIN_01280.eml
ham,C:\Users\sabau.DOM_MEDIASAT\Projects\Licenta\EmailDataSet\TRAINING\,TRAIN_01281.eml
ham,C:\Users\sabau.DOM_MEDIASAT\Projects\Licenta\EmailDataSet\TRAINING\,TRAIN_01282.eml
ham,C:\Users\sabau.DOM_MEDIASAT\Projects\Licenta\EmailDataSet\TRAINING\,TRAIN_01283.eml
ham,C:\Users\sabau.DOM_MEDIASAT\Projects\Licenta\EmailDataSet\TRAINING\,TRAIN_01284.eml
ham,C:\Users\sabau.DOM_MEDIASAT\Projects\Licenta\EmailDataSet\TRAINING\,TRAIN_01285.eml
ham,C:\Users\sabau.DOM_MEDIASAT\Projects\Licenta\EmailDataSet\TRAINING\,TRAIN_01286.eml
spam,C:\Users\sabau.DOM_MEDIASAT\Projects\Licenta\EmailDataSet\TRAINING\,TRAIN_01287.eml
spam,C:\Users\sabau.DOM_MEDIASAT\Projects\Licenta\EmailDataSet\TRAINING\,TRAIN_01288.eml
ham,C:\Users\sabau.DOM_MEDIASAT\Projects\Licenta\EmailDataSet\TRAINING\,TRAIN_01289.eml
ham,C:\Users\sabau.DOM_MEDIASAT\Projects\Licenta\EmailDataSet\TRAINING\,TRAIN_01290.eml
ham,C:\Users\sabau.DOM_MEDIASAT\Projects\Licenta\EmailDataSet\TRAINING\,TRAIN_01291.eml
ham,C:\Users\sabau.DOM_MEDIASAT\Projects\Licenta\EmailDataSet\TRAINING\,TRAIN_01292.eml
spam,C:\Users\sabau.DOM_MEDIASAT\Projects\Licenta\EmailDataSet\TRAINING\,TRAIN_01293.eml
ham,C:\Users\sabau.DOM_MEDIASAT\Projects\Licenta\EmailDataSet\TRAINING\,TRAIN_01294.eml
ham,C:\Users\sabau.DOM_MEDIASAT\Projects\Licenta\EmailDataSet\TRAINING\,TRAIN_01295.eml
ham,C:\Users\sabau.DOM_MEDIASAT\Projects\Licenta\EmailDataSet\TRAINING\,TRAIN_01296.eml
ham,C:\Users\sabau.DOM_MEDIASAT\Projects\Licenta\EmailDataSet\TRAINING\,TRAIN_01297.eml
spam,C:\Users\sabau.DOM_MEDIASAT\Projects\Licenta\EmailDataSet\TRAINING\,TRAIN_01298.eml
ham,C:\Users\sabau.DOM_MEDIASAT\Projects\Licenta\EmailDataSet\TRAINING\,TRAIN_01299.eml
spam,C:\Users\sabau.DOM_MEDIASAT\Projects\Licenta\EmailDataSet\TRAINING\,TRAIN_01300.eml
