sci.electronics,C:\Users\sabau.DOM_MEDIASAT\Projects\Licenta\NewsGroupDataSet\20news-bydate-train\sci.electronics\,53713
sci.electronics,C:\Users\sabau.DOM_MEDIASAT\Projects\Licenta\NewsGroupDataSet\20news-bydate-train\sci.electronics\,52749
sci.crypt,C:\Users\sabau.DOM_MEDIASAT\Projects\Licenta\NewsGroupDataSet\20news-bydate-train\sci.crypt\,15222
sci.crypt,C:\Users\sabau.DOM_MEDIASAT\Projects\Licenta\NewsGroupDataSet\20news-bydate-train\sci.crypt\,15447
sci.crypt,C:\Users\sabau.DOM_MEDIASAT\Projects\Licenta\NewsGroupDataSet\20news-bydate-train\sci.crypt\,15228
sci.electronics,C:\Users\sabau.DOM_MEDIASAT\Projects\Licenta\NewsGroupDataSet\20news-bydate-train\sci.electronics\,53743
sci.crypt,C:\Users\sabau.DOM_MEDIASAT\Projects\Licenta\NewsGroupDataSet\20news-bydate-train\sci.crypt\,15738
sci.electronics,C:\Users\sabau.DOM_MEDIASAT\Projects\Licenta\NewsGroupDataSet\20news-bydate-train\sci.electronics\,53976
sci.electronics,C:\Users\sabau.DOM_MEDIASAT\Projects\Licenta\NewsGroupDataSet\20news-bydate-train\sci.electronics\,53512
sci.med,C:\Users\sabau.DOM_MEDIASAT\Projects\Licenta\NewsGroupDataSet\20news-bydate-train\sci.med\,58091
sci.electronics,C:\Users\sabau.DOM_MEDIASAT\Projects\Licenta\NewsGroupDataSet\20news-bydate-train\sci.electronics\,53836
sci.electronics,C:\Users\sabau.DOM_MEDIASAT\Projects\Licenta\NewsGroupDataSet\20news-bydate-train\sci.electronics\,53845
sci.electronics,C:\Users\sabau.DOM_MEDIASAT\Projects\Licenta\NewsGroupDataSet\20news-bydate-train\sci.electronics\,52822
sci.crypt,C:\Users\sabau.DOM_MEDIASAT\Projects\Licenta\NewsGroupDataSet\20news-bydate-train\sci.crypt\,15641
sci.med,C:\Users\sabau.DOM_MEDIASAT\Projects\Licenta\NewsGroupDataSet\20news-bydate-train\sci.med\,59012
sci.electronics,C:\Users\sabau.DOM_MEDIASAT\Projects\Licenta\NewsGroupDataSet\20news-bydate-train\sci.electronics\,53646
sci.electronics,C:\Users\sabau.DOM_MEDIASAT\Projects\Licenta\NewsGroupDataSet\20news-bydate-train\sci.electronics\,53579
sci.electronics,C:\Users\sabau.DOM_MEDIASAT\Projects\Licenta\NewsGroupDataSet\20news-bydate-train\sci.electronics\,53874
sci.crypt,C:\Users\sabau.DOM_MEDIASAT\Projects\Licenta\NewsGroupDataSet\20news-bydate-train\sci.crypt\,15381
sci.med,C:\Users\sabau.DOM_MEDIASAT\Projects\Licenta\NewsGroupDataSet\20news-bydate-train\sci.med\,59230
sci.crypt,C:\Users\sabau.DOM_MEDIASAT\Projects\Licenta\NewsGroupDataSet\20news-bydate-train\sci.crypt\,15458
sci.med,C:\Users\sabau.DOM_MEDIASAT\Projects\Licenta\NewsGroupDataSet\20news-bydate-train\sci.med\,58762
sci.electronics,C:\Users\sabau.DOM_MEDIASAT\Projects\Licenta\NewsGroupDataSet\20news-bydate-train\sci.electronics\,53982
sci.electronics,C:\Users\sabau.DOM_MEDIASAT\Projects\Licenta\NewsGroupDataSet\20news-bydate-train\sci.electronics\,53849
sci.electronics,C:\Users\sabau.DOM_MEDIASAT\Projects\Licenta\NewsGroupDataSet\20news-bydate-train\sci.electronics\,53568
sci.electronics,C:\Users\sabau.DOM_MEDIASAT\Projects\Licenta\NewsGroupDataSet\20news-bydate-train\sci.electronics\,52766
sci.electronics,C:\Users\sabau.DOM_MEDIASAT\Projects\Licenta\NewsGroupDataSet\20news-bydate-train\sci.electronics\,53927
sci.electronics,C:\Users\sabau.DOM_MEDIASAT\Projects\Licenta\NewsGroupDataSet\20news-bydate-train\sci.electronics\,53503
sci.electronics,C:\Users\sabau.DOM_MEDIASAT\Projects\Licenta\NewsGroupDataSet\20news-bydate-train\sci.electronics\,53945
sci.med,C:\Users\sabau.DOM_MEDIASAT\Projects\Licenta\NewsGroupDataSet\20news-bydate-train\sci.med\,58986
sci.med,C:\Users\sabau.DOM_MEDIASAT\Projects\Licenta\NewsGroupDataSet\20news-bydate-train\sci.med\,58911
sci.med,C:\Users\sabau.DOM_MEDIASAT\Projects\Licenta\NewsGroupDataSet\20news-bydate-train\sci.med\,59180
sci.med,C:\Users\sabau.DOM_MEDIASAT\Projects\Licenta\NewsGroupDataSet\20news-bydate-train\sci.med\,58888
sci.electronics,C:\Users\sabau.DOM_MEDIASAT\Projects\Licenta\NewsGroupDataSet\20news-bydate-train\sci.electronics\,53554
sci.med,C:\Users\sabau.DOM_MEDIASAT\Projects\Licenta\NewsGroupDataSet\20news-bydate-train\sci.med\,58105
sci.med,C:\Users\sabau.DOM_MEDIASAT\Projects\Licenta\NewsGroupDataSet\20news-bydate-train\sci.med\,58854
sci.crypt,C:\Users\sabau.DOM_MEDIASAT\Projects\Licenta\NewsGroupDataSet\20news-bydate-train\sci.crypt\,15324
sci.electronics,C:\Users\sabau.DOM_MEDIASAT\Projects\Licenta\NewsGroupDataSet\20news-bydate-train\sci.electronics\,52785
sci.crypt,C:\Users\sabau.DOM_MEDIASAT\Projects\Licenta\NewsGroupDataSet\20news-bydate-train\sci.crypt\,15184
sci.electronics,C:\Users\sabau.DOM_MEDIASAT\Projects\Licenta\NewsGroupDataSet\20news-bydate-train\sci.electronics\,53939
sci.crypt,C:\Users\sabau.DOM_MEDIASAT\Projects\Licenta\NewsGroupDataSet\20news-bydate-train\sci.crypt\,15778
sci.med,C:\Users\sabau.DOM_MEDIASAT\Projects\Licenta\NewsGroupDataSet\20news-bydate-train\sci.med\,58127
sci.med,C:\Users\sabau.DOM_MEDIASAT\Projects\Licenta\NewsGroupDataSet\20news-bydate-train\sci.med\,58115
sci.electronics,C:\Users\sabau.DOM_MEDIASAT\Projects\Licenta\NewsGroupDataSet\20news-bydate-train\sci.electronics\,53943
sci.crypt,C:\Users\sabau.DOM_MEDIASAT\Projects\Licenta\NewsGroupDataSet\20news-bydate-train\sci.crypt\,15546
sci.crypt,C:\Users\sabau.DOM_MEDIASAT\Projects\Licenta\NewsGroupDataSet\20news-bydate-train\sci.crypt\,15173
sci.crypt,C:\Users\sabau.DOM_MEDIASAT\Projects\Licenta\NewsGroupDataSet\20news-bydate-train\sci.crypt\,15393
sci.med,C:\Users\sabau.DOM_MEDIASAT\Projects\Licenta\NewsGroupDataSet\20news-bydate-train\sci.med\,58761
sci.electronics,C:\Users\sabau.DOM_MEDIASAT\Projects\Licenta\NewsGroupDataSet\20news-bydate-train\sci.electronics\,53831
sci.med,C:\Users\sabau.DOM_MEDIASAT\Projects\Licenta\NewsGroupDataSet\20news-bydate-train\sci.med\,58570
sci.crypt,C:\Users\sabau.DOM_MEDIASAT\Projects\Licenta\NewsGroupDataSet\20news-bydate-train\sci.crypt\,15403
sci.crypt,C:\Users\sabau.DOM_MEDIASAT\Projects\Licenta\NewsGroupDataSet\20news-bydate-train\sci.crypt\,15696
sci.crypt,C:\Users\sabau.DOM_MEDIASAT\Projects\Licenta\NewsGroupDataSet\20news-bydate-train\sci.crypt\,15687
sci.crypt,C:\Users\sabau.DOM_MEDIASAT\Projects\Licenta\NewsGroupDataSet\20news-bydate-train\sci.crypt\,15329
sci.crypt,C:\Users\sabau.DOM_MEDIASAT\Projects\Licenta\NewsGroupDataSet\20news-bydate-train\sci.crypt\,15505
sci.crypt,C:\Users\sabau.DOM_MEDIASAT\Projects\Licenta\NewsGroupDataSet\20news-bydate-train\sci.crypt\,15193
sci.med,C:\Users\sabau.DOM_MEDIASAT\Projects\Licenta\NewsGroupDataSet\20news-bydate-train\sci.med\,58578
sci.crypt,C:\Users\sabau.DOM_MEDIASAT\Projects\Licenta\NewsGroupDataSet\20news-bydate-train\sci.crypt\,15434
sci.med,C:\Users\sabau.DOM_MEDIASAT\Projects\Licenta\NewsGroupDataSet\20news-bydate-train\sci.med\,58853
sci.crypt,C:\Users\sabau.DOM_MEDIASAT\Projects\Licenta\NewsGroupDataSet\20news-bydate-train\sci.crypt\,15359
sci.med,C:\Users\sabau.DOM_MEDIASAT\Projects\Licenta\NewsGroupDataSet\20news-bydate-train\sci.med\,58971
sci.crypt,C:\Users\sabau.DOM_MEDIASAT\Projects\Licenta\NewsGroupDataSet\20news-bydate-train\sci.crypt\,15649
sci.med,C:\Users\sabau.DOM_MEDIASAT\Projects\Licenta\NewsGroupDataSet\20news-bydate-train\sci.med\,59001
sci.crypt,C:\Users\sabau.DOM_MEDIASAT\Projects\Licenta\NewsGroupDataSet\20news-bydate-train\sci.crypt\,15418
sci.med,C:\Users\sabau.DOM_MEDIASAT\Projects\Licenta\NewsGroupDataSet\20news-bydate-train\sci.med\,59188
sci.crypt,C:\Users\sabau.DOM_MEDIASAT\Projects\Licenta\NewsGroupDataSet\20news-bydate-train\sci.crypt\,15367
sci.electronics,C:\Users\sabau.DOM_MEDIASAT\Projects\Licenta\NewsGroupDataSet\20news-bydate-train\sci.electronics\,53899
sci.med,C:\Users\sabau.DOM_MEDIASAT\Projects\Licenta\NewsGroupDataSet\20news-bydate-train\sci.med\,59086
sci.crypt,C:\Users\sabau.DOM_MEDIASAT\Projects\Licenta\NewsGroupDataSet\20news-bydate-train\sci.crypt\,15492
sci.crypt,C:\Users\sabau.DOM_MEDIASAT\Projects\Licenta\NewsGroupDataSet\20news-bydate-train\sci.crypt\,15245
sci.med,C:\Users\sabau.DOM_MEDIASAT\Projects\Licenta\NewsGroupDataSet\20news-bydate-train\sci.med\,59212
sci.crypt,C:\Users\sabau.DOM_MEDIASAT\Projects\Licenta\NewsGroupDataSet\20news-bydate-train\sci.crypt\,14995
sci.med,C:\Users\sabau.DOM_MEDIASAT\Projects\Licenta\NewsGroupDataSet\20news-bydate-train\sci.med\,59101
sci.med,C:\Users\sabau.DOM_MEDIASAT\Projects\Licenta\NewsGroupDataSet\20news-bydate-train\sci.med\,58834
sci.med,C:\Users\sabau.DOM_MEDIASAT\Projects\Licenta\NewsGroupDataSet\20news-bydate-train\sci.med\,59235
sci.crypt,C:\Users\sabau.DOM_MEDIASAT\Projects\Licenta\NewsGroupDataSet\20news-bydate-train\sci.crypt\,15726
sci.crypt,C:\Users\sabau.DOM_MEDIASAT\Projects\Licenta\NewsGroupDataSet\20news-bydate-train\sci.crypt\,15227
sci.crypt,C:\Users\sabau.DOM_MEDIASAT\Projects\Licenta\NewsGroupDataSet\20news-bydate-train\sci.crypt\,15580
sci.electronics,C:\Users\sabau.DOM_MEDIASAT\Projects\Licenta\NewsGroupDataSet\20news-bydate-train\sci.electronics\,53607
sci.electronics,C:\Users\sabau.DOM_MEDIASAT\Projects\Licenta\NewsGroupDataSet\20news-bydate-train\sci.electronics\,53828
sci.electronics,C:\Users\sabau.DOM_MEDIASAT\Projects\Licenta\NewsGroupDataSet\20news-bydate-train\sci.electronics\,52794
sci.med,C:\Users\sabau.DOM_MEDIASAT\Projects\Licenta\NewsGroupDataSet\20news-bydate-train\sci.med\,59201
sci.crypt,C:\Users\sabau.DOM_MEDIASAT\Projects\Licenta\NewsGroupDataSet\20news-bydate-train\sci.crypt\,15186
sci.crypt,C:\Users\sabau.DOM_MEDIASAT\Projects\Licenta\NewsGroupDataSet\20news-bydate-train\sci.crypt\,15409
sci.crypt,C:\Users\sabau.DOM_MEDIASAT\Projects\Licenta\NewsGroupDataSet\20news-bydate-train\sci.crypt\,15616
sci.electronics,C:\Users\sabau.DOM_MEDIASAT\Projects\Licenta\NewsGroupDataSet\20news-bydate-train\sci.electronics\,53947
sci.electronics,C:\Users\sabau.DOM_MEDIASAT\Projects\Licenta\NewsGroupDataSet\20news-bydate-train\sci.electronics\,52735
sci.electronics,C:\Users\sabau.DOM_MEDIASAT\Projects\Licenta\NewsGroupDataSet\20news-bydate-train\sci.electronics\,52773
sci.med,C:\Users\sabau.DOM_MEDIASAT\Projects\Licenta\NewsGroupDataSet\20news-bydate-train\sci.med\,58896
sci.med,C:\Users\sabau.DOM_MEDIASAT\Projects\Licenta\NewsGroupDataSet\20news-bydate-train\sci.med\,59049
sci.electronics,C:\Users\sabau.DOM_MEDIASAT\Projects\Licenta\NewsGroupDataSet\20news-bydate-train\sci.electronics\,53595
sci.crypt,C:\Users\sabau.DOM_MEDIASAT\Projects\Licenta\NewsGroupDataSet\20news-bydate-train\sci.crypt\,15626
sci.med,C:\Users\sabau.DOM_MEDIASAT\Projects\Licenta\NewsGroupDataSet\20news-bydate-train\sci.med\,58147
sci.med,C:\Users\sabau.DOM_MEDIASAT\Projects\Licenta\NewsGroupDataSet\20news-bydate-train\sci.med\,58794
sci.med,C:\Users\sabau.DOM_MEDIASAT\Projects\Licenta\NewsGroupDataSet\20news-bydate-train\sci.med\,58849
sci.crypt,C:\Users\sabau.DOM_MEDIASAT\Projects\Licenta\NewsGroupDataSet\20news-bydate-train\sci.crypt\,15699
sci.crypt,C:\Users\sabau.DOM_MEDIASAT\Projects\Licenta\NewsGroupDataSet\20news-bydate-train\sci.crypt\,15269
sci.electronics,C:\Users\sabau.DOM_MEDIASAT\Projects\Licenta\NewsGroupDataSet\20news-bydate-train\sci.electronics\,52756
sci.med,C:\Users\sabau.DOM_MEDIASAT\Projects\Licenta\NewsGroupDataSet\20news-bydate-train\sci.med\,58975
sci.electronics,C:\Users\sabau.DOM_MEDIASAT\Projects\Licenta\NewsGroupDataSet\20news-bydate-train\sci.electronics\,53903
sci.electronics,C:\Users\sabau.DOM_MEDIASAT\Projects\Licenta\NewsGroupDataSet\20news-bydate-train\sci.electronics\,53611
sci.electronics,C:\Users\sabau.DOM_MEDIASAT\Projects\Licenta\NewsGroupDataSet\20news-bydate-train\sci.electronics\,53923
sci.crypt,C:\Users\sabau.DOM_MEDIASAT\Projects\Licenta\NewsGroupDataSet\20news-bydate-train\sci.crypt\,15746
sci.crypt,C:\Users\sabau.DOM_MEDIASAT\Projects\Licenta\NewsGroupDataSet\20news-bydate-train\sci.crypt\,15172
sci.electronics,C:\Users\sabau.DOM_MEDIASAT\Projects\Licenta\NewsGroupDataSet\20news-bydate-train\sci.electronics\,52801
sci.crypt,C:\Users\sabau.DOM_MEDIASAT\Projects\Licenta\NewsGroupDataSet\20news-bydate-train\sci.crypt\,15479
sci.med,C:\Users\sabau.DOM_MEDIASAT\Projects\Licenta\NewsGroupDataSet\20news-bydate-train\sci.med\,58785
sci.crypt,C:\Users\sabau.DOM_MEDIASAT\Projects\Licenta\NewsGroupDataSet\20news-bydate-train\sci.crypt\,15672
sci.crypt,C:\Users\sabau.DOM_MEDIASAT\Projects\Licenta\NewsGroupDataSet\20news-bydate-train\sci.crypt\,15262
sci.med,C:\Users\sabau.DOM_MEDIASAT\Projects\Licenta\NewsGroupDataSet\20news-bydate-train\sci.med\,58816
sci.crypt,C:\Users\sabau.DOM_MEDIASAT\Projects\Licenta\NewsGroupDataSet\20news-bydate-train\sci.crypt\,15634
sci.crypt,C:\Users\sabau.DOM_MEDIASAT\Projects\Licenta\NewsGroupDataSet\20news-bydate-train\sci.crypt\,15229
sci.crypt,C:\Users\sabau.DOM_MEDIASAT\Projects\Licenta\NewsGroupDataSet\20news-bydate-train\sci.crypt\,15216
sci.electronics,C:\Users\sabau.DOM_MEDIASAT\Projects\Licenta\NewsGroupDataSet\20news-bydate-train\sci.electronics\,52814
sci.med,C:\Users\sabau.DOM_MEDIASAT\Projects\Licenta\NewsGroupDataSet\20news-bydate-train\sci.med\,58914
sci.crypt,C:\Users\sabau.DOM_MEDIASAT\Projects\Licenta\NewsGroupDataSet\20news-bydate-train\sci.crypt\,15339
sci.med,C:\Users\sabau.DOM_MEDIASAT\Projects\Licenta\NewsGroupDataSet\20news-bydate-train\sci.med\,58884
sci.med,C:\Users\sabau.DOM_MEDIASAT\Projects\Licenta\NewsGroupDataSet\20news-bydate-train\sci.med\,59147
sci.crypt,C:\Users\sabau.DOM_MEDIASAT\Projects\Licenta\NewsGroupDataSet\20news-bydate-train\sci.crypt\,15368
sci.med,C:\Users\sabau.DOM_MEDIASAT\Projects\Licenta\NewsGroupDataSet\20news-bydate-train\sci.med\,59205
sci.electronics,C:\Users\sabau.DOM_MEDIASAT\Projects\Licenta\NewsGroupDataSet\20news-bydate-train\sci.electronics\,53827
sci.med,C:\Users\sabau.DOM_MEDIASAT\Projects\Licenta\NewsGroupDataSet\20news-bydate-train\sci.med\,59189
sci.crypt,C:\Users\sabau.DOM_MEDIASAT\Projects\Licenta\NewsGroupDataSet\20news-bydate-train\sci.crypt\,14988
sci.med,C:\Users\sabau.DOM_MEDIASAT\Projects\Licenta\NewsGroupDataSet\20news-bydate-train\sci.med\,58841
sci.crypt,C:\Users\sabau.DOM_MEDIASAT\Projects\Licenta\NewsGroupDataSet\20news-bydate-train\sci.crypt\,15493
sci.crypt,C:\Users\sabau.DOM_MEDIASAT\Projects\Licenta\NewsGroupDataSet\20news-bydate-train\sci.crypt\,15351
sci.crypt,C:\Users\sabau.DOM_MEDIASAT\Projects\Licenta\NewsGroupDataSet\20news-bydate-train\sci.crypt\,15598
sci.electronics,C:\Users\sabau.DOM_MEDIASAT\Projects\Licenta\NewsGroupDataSet\20news-bydate-train\sci.electronics\,53640
sci.med,C:\Users\sabau.DOM_MEDIASAT\Projects\Licenta\NewsGroupDataSet\20news-bydate-train\sci.med\,58860
sci.med,C:\Users\sabau.DOM_MEDIASAT\Projects\Licenta\NewsGroupDataSet\20news-bydate-train\sci.med\,59195
sci.med,C:\Users\sabau.DOM_MEDIASAT\Projects\Licenta\NewsGroupDataSet\20news-bydate-train\sci.med\,58989
sci.crypt,C:\Users\sabau.DOM_MEDIASAT\Projects\Licenta\NewsGroupDataSet\20news-bydate-train\sci.crypt\,14147
sci.med,C:\Users\sabau.DOM_MEDIASAT\Projects\Licenta\NewsGroupDataSet\20news-bydate-train\sci.med\,58939
sci.electronics,C:\Users\sabau.DOM_MEDIASAT\Projects\Licenta\NewsGroupDataSet\20news-bydate-train\sci.electronics\,53925
sci.crypt,C:\Users\sabau.DOM_MEDIASAT\Projects\Licenta\NewsGroupDataSet\20news-bydate-train\sci.crypt\,15203
sci.crypt,C:\Users\sabau.DOM_MEDIASAT\Projects\Licenta\NewsGroupDataSet\20news-bydate-train\sci.crypt\,15552
sci.crypt,C:\Users\sabau.DOM_MEDIASAT\Projects\Licenta\NewsGroupDataSet\20news-bydate-train\sci.crypt\,15210
sci.electronics,C:\Users\sabau.DOM_MEDIASAT\Projects\Licenta\NewsGroupDataSet\20news-bydate-train\sci.electronics\,53644
sci.electronics,C:\Users\sabau.DOM_MEDIASAT\Projects\Licenta\NewsGroupDataSet\20news-bydate-train\sci.electronics\,53904
sci.electronics,C:\Users\sabau.DOM_MEDIASAT\Projects\Licenta\NewsGroupDataSet\20news-bydate-train\sci.electronics\,53978
sci.crypt,C:\Users\sabau.DOM_MEDIASAT\Projects\Licenta\NewsGroupDataSet\20news-bydate-train\sci.crypt\,15415
sci.med,C:\Users\sabau.DOM_MEDIASAT\Projects\Licenta\NewsGroupDataSet\20news-bydate-train\sci.med\,58073
sci.med,C:\Users\sabau.DOM_MEDIASAT\Projects\Licenta\NewsGroupDataSet\20news-bydate-train\sci.med\,58802
sci.electronics,C:\Users\sabau.DOM_MEDIASAT\Projects\Licenta\NewsGroupDataSet\20news-bydate-train\sci.electronics\,52748
sci.electronics,C:\Users\sabau.DOM_MEDIASAT\Projects\Licenta\NewsGroupDataSet\20news-bydate-train\sci.electronics\,53588
sci.crypt,C:\Users\sabau.DOM_MEDIASAT\Projects\Licenta\NewsGroupDataSet\20news-bydate-train\sci.crypt\,15383
sci.med,C:\Users\sabau.DOM_MEDIASAT\Projects\Licenta\NewsGroupDataSet\20news-bydate-train\sci.med\,58912
sci.crypt,C:\Users\sabau.DOM_MEDIASAT\Projects\Licenta\NewsGroupDataSet\20news-bydate-train\sci.crypt\,15284
sci.electronics,C:\Users\sabau.DOM_MEDIASAT\Projects\Licenta\NewsGroupDataSet\20news-bydate-train\sci.electronics\,53733
sci.electronics,C:\Users\sabau.DOM_MEDIASAT\Projects\Licenta\NewsGroupDataSet\20news-bydate-train\sci.electronics\,52750
sci.med,C:\Users\sabau.DOM_MEDIASAT\Projects\Licenta\NewsGroupDataSet\20news-bydate-train\sci.med\,58840
sci.med,C:\Users\sabau.DOM_MEDIASAT\Projects\Licenta\NewsGroupDataSet\20news-bydate-train\sci.med\,58099
sci.electronics,C:\Users\sabau.DOM_MEDIASAT\Projects\Licenta\NewsGroupDataSet\20news-bydate-train\sci.electronics\,52800
sci.electronics,C:\Users\sabau.DOM_MEDIASAT\Projects\Licenta\NewsGroupDataSet\20news-bydate-train\sci.electronics\,52772
sci.med,C:\Users\sabau.DOM_MEDIASAT\Projects\Licenta\NewsGroupDataSet\20news-bydate-train\sci.med\,59130
sci.med,C:\Users\sabau.DOM_MEDIASAT\Projects\Licenta\NewsGroupDataSet\20news-bydate-train\sci.med\,58093
sci.crypt,C:\Users\sabau.DOM_MEDIASAT\Projects\Licenta\NewsGroupDataSet\20news-bydate-train\sci.crypt\,15432
sci.med,C:\Users\sabau.DOM_MEDIASAT\Projects\Licenta\NewsGroupDataSet\20news-bydate-train\sci.med\,58984
sci.electronics,C:\Users\sabau.DOM_MEDIASAT\Projects\Licenta\NewsGroupDataSet\20news-bydate-train\sci.electronics\,53658
sci.crypt,C:\Users\sabau.DOM_MEDIASAT\Projects\Licenta\NewsGroupDataSet\20news-bydate-train\sci.crypt\,15364
sci.electronics,C:\Users\sabau.DOM_MEDIASAT\Projects\Licenta\NewsGroupDataSet\20news-bydate-train\sci.electronics\,52787
sci.crypt,C:\Users\sabau.DOM_MEDIASAT\Projects\Licenta\NewsGroupDataSet\20news-bydate-train\sci.crypt\,15532
sci.electronics,C:\Users\sabau.DOM_MEDIASAT\Projects\Licenta\NewsGroupDataSet\20news-bydate-train\sci.electronics\,52733
sci.crypt,C:\Users\sabau.DOM_MEDIASAT\Projects\Licenta\NewsGroupDataSet\20news-bydate-train\sci.crypt\,14996
sci.electronics,C:\Users\sabau.DOM_MEDIASAT\Projects\Licenta\NewsGroupDataSet\20news-bydate-train\sci.electronics\,53809
sci.med,C:\Users\sabau.DOM_MEDIASAT\Projects\Licenta\NewsGroupDataSet\20news-bydate-train\sci.med\,58144
sci.med,C:\Users\sabau.DOM_MEDIASAT\Projects\Licenta\NewsGroupDataSet\20news-bydate-train\sci.med\,58850
sci.med,C:\Users\sabau.DOM_MEDIASAT\Projects\Licenta\NewsGroupDataSet\20news-bydate-train\sci.med\,59106
sci.crypt,C:\Users\sabau.DOM_MEDIASAT\Projects\Licenta\NewsGroupDataSet\20news-bydate-train\sci.crypt\,15192
sci.crypt,C:\Users\sabau.DOM_MEDIASAT\Projects\Licenta\NewsGroupDataSet\20news-bydate-train\sci.crypt\,15470
sci.crypt,C:\Users\sabau.DOM_MEDIASAT\Projects\Licenta\NewsGroupDataSet\20news-bydate-train\sci.crypt\,15610
sci.electronics,C:\Users\sabau.DOM_MEDIASAT\Projects\Licenta\NewsGroupDataSet\20news-bydate-train\sci.electronics\,53912
sci.crypt,C:\Users\sabau.DOM_MEDIASAT\Projects\Licenta\NewsGroupDataSet\20news-bydate-train\sci.crypt\,15491
sci.electronics,C:\Users\sabau.DOM_MEDIASAT\Projects\Licenta\NewsGroupDataSet\20news-bydate-train\sci.electronics\,53866
sci.crypt,C:\Users\sabau.DOM_MEDIASAT\Projects\Licenta\NewsGroupDataSet\20news-bydate-train\sci.crypt\,15539
sci.crypt,C:\Users\sabau.DOM_MEDIASAT\Projects\Licenta\NewsGroupDataSet\20news-bydate-train\sci.crypt\,15636
sci.med,C:\Users\sabau.DOM_MEDIASAT\Projects\Licenta\NewsGroupDataSet\20news-bydate-train\sci.med\,58960
sci.electronics,C:\Users\sabau.DOM_MEDIASAT\Projects\Licenta\NewsGroupDataSet\20news-bydate-train\sci.electronics\,53732
