sci.electronics,C:\Users\sabau.DOM_MEDIASAT\Projects\Licenta\NewsGroupDataSet\20news-bydate-train\sci.electronics\,53958
rec.autos,C:\Users\sabau.DOM_MEDIASAT\Projects\Licenta\NewsGroupDataSet\20news-bydate-train\rec.autos\,103383
rec.autos,C:\Users\sabau.DOM_MEDIASAT\Projects\Licenta\NewsGroupDataSet\20news-bydate-train\rec.autos\,103047
rec.sport.baseball,C:\Users\sabau.DOM_MEDIASAT\Projects\Licenta\NewsGroupDataSet\20news-bydate-train\rec.sport.baseball\,104394
comp.os.ms-windows.misc,C:\Users\sabau.DOM_MEDIASAT\Projects\Licenta\NewsGroupDataSet\20news-bydate-train\comp.os.ms-windows.misc\,9857
rec.autos,C:\Users\sabau.DOM_MEDIASAT\Projects\Licenta\NewsGroupDataSet\20news-bydate-train\rec.autos\,103761
rec.sport.baseball,C:\Users\sabau.DOM_MEDIASAT\Projects\Licenta\NewsGroupDataSet\20news-bydate-train\rec.sport.baseball\,104801
rec.autos,C:\Users\sabau.DOM_MEDIASAT\Projects\Licenta\NewsGroupDataSet\20news-bydate-train\rec.autos\,102844
sci.electronics,C:\Users\sabau.DOM_MEDIASAT\Projects\Licenta\NewsGroupDataSet\20news-bydate-train\sci.electronics\,52743
sci.med,C:\Users\sabau.DOM_MEDIASAT\Projects\Licenta\NewsGroupDataSet\20news-bydate-train\sci.med\,58785
comp.os.ms-windows.misc,C:\Users\sabau.DOM_MEDIASAT\Projects\Licenta\NewsGroupDataSet\20news-bydate-train\comp.os.ms-windows.misc\,9739
rec.sport.baseball,C:\Users\sabau.DOM_MEDIASAT\Projects\Licenta\NewsGroupDataSet\20news-bydate-train\rec.sport.baseball\,104411
rec.autos,C:\Users\sabau.DOM_MEDIASAT\Projects\Licenta\NewsGroupDataSet\20news-bydate-train\rec.autos\,101652
sci.electronics,C:\Users\sabau.DOM_MEDIASAT\Projects\Licenta\NewsGroupDataSet\20news-bydate-train\sci.electronics\,53952
comp.os.ms-windows.misc,C:\Users\sabau.DOM_MEDIASAT\Projects\Licenta\NewsGroupDataSet\20news-bydate-train\comp.os.ms-windows.misc\,9547
sci.electronics,C:\Users\sabau.DOM_MEDIASAT\Projects\Licenta\NewsGroupDataSet\20news-bydate-train\sci.electronics\,53605
sci.med,C:\Users\sabau.DOM_MEDIASAT\Projects\Licenta\NewsGroupDataSet\20news-bydate-train\sci.med\,58094
rec.autos,C:\Users\sabau.DOM_MEDIASAT\Projects\Licenta\NewsGroupDataSet\20news-bydate-train\rec.autos\,103187
sci.med,C:\Users\sabau.DOM_MEDIASAT\Projects\Licenta\NewsGroupDataSet\20news-bydate-train\sci.med\,59205
rec.sport.baseball,C:\Users\sabau.DOM_MEDIASAT\Projects\Licenta\NewsGroupDataSet\20news-bydate-train\rec.sport.baseball\,104583
rec.sport.baseball,C:\Users\sabau.DOM_MEDIASAT\Projects\Licenta\NewsGroupDataSet\20news-bydate-train\rec.sport.baseball\,105087
rec.sport.baseball,C:\Users\sabau.DOM_MEDIASAT\Projects\Licenta\NewsGroupDataSet\20news-bydate-train\rec.sport.baseball\,104403
comp.os.ms-windows.misc,C:\Users\sabau.DOM_MEDIASAT\Projects\Licenta\NewsGroupDataSet\20news-bydate-train\comp.os.ms-windows.misc\,9852
sci.electronics,C:\Users\sabau.DOM_MEDIASAT\Projects\Licenta\NewsGroupDataSet\20news-bydate-train\sci.electronics\,53957
comp.os.ms-windows.misc,C:\Users\sabau.DOM_MEDIASAT\Projects\Licenta\NewsGroupDataSet\20news-bydate-train\comp.os.ms-windows.misc\,9647
sci.med,C:\Users\sabau.DOM_MEDIASAT\Projects\Licenta\NewsGroupDataSet\20news-bydate-train\sci.med\,59171
rec.sport.baseball,C:\Users\sabau.DOM_MEDIASAT\Projects\Licenta\NewsGroupDataSet\20news-bydate-train\rec.sport.baseball\,104518
sci.electronics,C:\Users\sabau.DOM_MEDIASAT\Projects\Licenta\NewsGroupDataSet\20news-bydate-train\sci.electronics\,53793
sci.med,C:\Users\sabau.DOM_MEDIASAT\Projects\Licenta\NewsGroupDataSet\20news-bydate-train\sci.med\,59111
sci.electronics,C:\Users\sabau.DOM_MEDIASAT\Projects\Licenta\NewsGroupDataSet\20news-bydate-train\sci.electronics\,53854
sci.med,C:\Users\sabau.DOM_MEDIASAT\Projects\Licenta\NewsGroupDataSet\20news-bydate-train\sci.med\,58907
sci.med,C:\Users\sabau.DOM_MEDIASAT\Projects\Licenta\NewsGroupDataSet\20news-bydate-train\sci.med\,59169
sci.med,C:\Users\sabau.DOM_MEDIASAT\Projects\Licenta\NewsGroupDataSet\20news-bydate-train\sci.med\,59067
sci.electronics,C:\Users\sabau.DOM_MEDIASAT\Projects\Licenta\NewsGroupDataSet\20news-bydate-train\sci.electronics\,53632
sci.med,C:\Users\sabau.DOM_MEDIASAT\Projects\Licenta\NewsGroupDataSet\20news-bydate-train\sci.med\,58129
rec.sport.baseball,C:\Users\sabau.DOM_MEDIASAT\Projects\Licenta\NewsGroupDataSet\20news-bydate-train\rec.sport.baseball\,104915
rec.autos,C:\Users\sabau.DOM_MEDIASAT\Projects\Licenta\NewsGroupDataSet\20news-bydate-train\rec.autos\,103188
rec.autos,C:\Users\sabau.DOM_MEDIASAT\Projects\Licenta\NewsGroupDataSet\20news-bydate-train\rec.autos\,102745
rec.autos,C:\Users\sabau.DOM_MEDIASAT\Projects\Licenta\NewsGroupDataSet\20news-bydate-train\rec.autos\,102877
sci.med,C:\Users\sabau.DOM_MEDIASAT\Projects\Licenta\NewsGroupDataSet\20news-bydate-train\sci.med\,59033
sci.electronics,C:\Users\sabau.DOM_MEDIASAT\Projects\Licenta\NewsGroupDataSet\20news-bydate-train\sci.electronics\,53786
rec.sport.baseball,C:\Users\sabau.DOM_MEDIASAT\Projects\Licenta\NewsGroupDataSet\20news-bydate-train\rec.sport.baseball\,104782
rec.autos,C:\Users\sabau.DOM_MEDIASAT\Projects\Licenta\NewsGroupDataSet\20news-bydate-train\rec.autos\,102757
rec.sport.baseball,C:\Users\sabau.DOM_MEDIASAT\Projects\Licenta\NewsGroupDataSet\20news-bydate-train\rec.sport.baseball\,104447
comp.os.ms-windows.misc,C:\Users\sabau.DOM_MEDIASAT\Projects\Licenta\NewsGroupDataSet\20news-bydate-train\comp.os.ms-windows.misc\,9471
sci.electronics,C:\Users\sabau.DOM_MEDIASAT\Projects\Licenta\NewsGroupDataSet\20news-bydate-train\sci.electronics\,53843
sci.med,C:\Users\sabau.DOM_MEDIASAT\Projects\Licenta\NewsGroupDataSet\20news-bydate-train\sci.med\,59085
rec.sport.baseball,C:\Users\sabau.DOM_MEDIASAT\Projects\Licenta\NewsGroupDataSet\20news-bydate-train\rec.sport.baseball\,104662
rec.sport.baseball,C:\Users\sabau.DOM_MEDIASAT\Projects\Licenta\NewsGroupDataSet\20news-bydate-train\rec.sport.baseball\,104363
sci.electronics,C:\Users\sabau.DOM_MEDIASAT\Projects\Licenta\NewsGroupDataSet\20news-bydate-train\sci.electronics\,53619
sci.med,C:\Users\sabau.DOM_MEDIASAT\Projects\Licenta\NewsGroupDataSet\20news-bydate-train\sci.med\,58090
rec.sport.baseball,C:\Users\sabau.DOM_MEDIASAT\Projects\Licenta\NewsGroupDataSet\20news-bydate-train\rec.sport.baseball\,104540
sci.electronics,C:\Users\sabau.DOM_MEDIASAT\Projects\Licenta\NewsGroupDataSet\20news-bydate-train\sci.electronics\,53948
sci.electronics,C:\Users\sabau.DOM_MEDIASAT\Projects\Licenta\NewsGroupDataSet\20news-bydate-train\sci.electronics\,53656
rec.sport.baseball,C:\Users\sabau.DOM_MEDIASAT\Projects\Licenta\NewsGroupDataSet\20news-bydate-train\rec.sport.baseball\,104471
rec.autos,C:\Users\sabau.DOM_MEDIASAT\Projects\Licenta\NewsGroupDataSet\20news-bydate-train\rec.autos\,102870
sci.electronics,C:\Users\sabau.DOM_MEDIASAT\Projects\Licenta\NewsGroupDataSet\20news-bydate-train\sci.electronics\,53567
comp.os.ms-windows.misc,C:\Users\sabau.DOM_MEDIASAT\Projects\Licenta\NewsGroupDataSet\20news-bydate-train\comp.os.ms-windows.misc\,9876
sci.med,C:\Users\sabau.DOM_MEDIASAT\Projects\Licenta\NewsGroupDataSet\20news-bydate-train\sci.med\,58569
rec.sport.baseball,C:\Users\sabau.DOM_MEDIASAT\Projects\Licenta\NewsGroupDataSet\20news-bydate-train\rec.sport.baseball\,104388
rec.autos,C:\Users\sabau.DOM_MEDIASAT\Projects\Licenta\NewsGroupDataSet\20news-bydate-train\rec.autos\,102985
rec.sport.baseball,C:\Users\sabau.DOM_MEDIASAT\Projects\Licenta\NewsGroupDataSet\20news-bydate-train\rec.sport.baseball\,104448
sci.electronics,C:\Users\sabau.DOM_MEDIASAT\Projects\Licenta\NewsGroupDataSet\20news-bydate-train\sci.electronics\,53529
comp.os.ms-windows.misc,C:\Users\sabau.DOM_MEDIASAT\Projects\Licenta\NewsGroupDataSet\20news-bydate-train\comp.os.ms-windows.misc\,9850
sci.med,C:\Users\sabau.DOM_MEDIASAT\Projects\Licenta\NewsGroupDataSet\20news-bydate-train\sci.med\,59178
sci.electronics,C:\Users\sabau.DOM_MEDIASAT\Projects\Licenta\NewsGroupDataSet\20news-bydate-train\sci.electronics\,53514
sci.electronics,C:\Users\sabau.DOM_MEDIASAT\Projects\Licenta\NewsGroupDataSet\20news-bydate-train\sci.electronics\,53845
sci.electronics,C:\Users\sabau.DOM_MEDIASAT\Projects\Licenta\NewsGroupDataSet\20news-bydate-train\sci.electronics\,52753
sci.electronics,C:\Users\sabau.DOM_MEDIASAT\Projects\Licenta\NewsGroupDataSet\20news-bydate-train\sci.electronics\,52809
rec.autos,C:\Users\sabau.DOM_MEDIASAT\Projects\Licenta\NewsGroupDataSet\20news-bydate-train\rec.autos\,101552
rec.autos,C:\Users\sabau.DOM_MEDIASAT\Projects\Licenta\NewsGroupDataSet\20news-bydate-train\rec.autos\,102845
rec.autos,C:\Users\sabau.DOM_MEDIASAT\Projects\Licenta\NewsGroupDataSet\20news-bydate-train\rec.autos\,103347
sci.med,C:\Users\sabau.DOM_MEDIASAT\Projects\Licenta\NewsGroupDataSet\20news-bydate-train\sci.med\,59113
rec.autos,C:\Users\sabau.DOM_MEDIASAT\Projects\Licenta\NewsGroupDataSet\20news-bydate-train\rec.autos\,102922
comp.os.ms-windows.misc,C:\Users\sabau.DOM_MEDIASAT\Projects\Licenta\NewsGroupDataSet\20news-bydate-train\comp.os.ms-windows.misc\,9674
sci.med,C:\Users\sabau.DOM_MEDIASAT\Projects\Licenta\NewsGroupDataSet\20news-bydate-train\sci.med\,59226
sci.med,C:\Users\sabau.DOM_MEDIASAT\Projects\Licenta\NewsGroupDataSet\20news-bydate-train\sci.med\,58987
rec.sport.baseball,C:\Users\sabau.DOM_MEDIASAT\Projects\Licenta\NewsGroupDataSet\20news-bydate-train\rec.sport.baseball\,104495
rec.sport.baseball,C:\Users\sabau.DOM_MEDIASAT\Projects\Licenta\NewsGroupDataSet\20news-bydate-train\rec.sport.baseball\,104800
comp.os.ms-windows.misc,C:\Users\sabau.DOM_MEDIASAT\Projects\Licenta\NewsGroupDataSet\20news-bydate-train\comp.os.ms-windows.misc\,9899
rec.sport.baseball,C:\Users\sabau.DOM_MEDIASAT\Projects\Licenta\NewsGroupDataSet\20news-bydate-train\rec.sport.baseball\,102633
sci.electronics,C:\Users\sabau.DOM_MEDIASAT\Projects\Licenta\NewsGroupDataSet\20news-bydate-train\sci.electronics\,53964
rec.sport.baseball,C:\Users\sabau.DOM_MEDIASAT\Projects\Licenta\NewsGroupDataSet\20news-bydate-train\rec.sport.baseball\,104457
sci.electronics,C:\Users\sabau.DOM_MEDIASAT\Projects\Licenta\NewsGroupDataSet\20news-bydate-train\sci.electronics\,52749
comp.os.ms-windows.misc,C:\Users\sabau.DOM_MEDIASAT\Projects\Licenta\NewsGroupDataSet\20news-bydate-train\comp.os.ms-windows.misc\,9768
rec.autos,C:\Users\sabau.DOM_MEDIASAT\Projects\Licenta\NewsGroupDataSet\20news-bydate-train\rec.autos\,101628
rec.sport.baseball,C:\Users\sabau.DOM_MEDIASAT\Projects\Licenta\NewsGroupDataSet\20news-bydate-train\rec.sport.baseball\,102648
rec.autos,C:\Users\sabau.DOM_MEDIASAT\Projects\Licenta\NewsGroupDataSet\20news-bydate-train\rec.autos\,101615
rec.sport.baseball,C:\Users\sabau.DOM_MEDIASAT\Projects\Licenta\NewsGroupDataSet\20news-bydate-train\rec.sport.baseball\,102589
sci.electronics,C:\Users\sabau.DOM_MEDIASAT\Projects\Licenta\NewsGroupDataSet\20news-bydate-train\sci.electronics\,53615
rec.sport.baseball,C:\Users\sabau.DOM_MEDIASAT\Projects\Licenta\NewsGroupDataSet\20news-bydate-train\rec.sport.baseball\,104572
rec.autos,C:\Users\sabau.DOM_MEDIASAT\Projects\Licenta\NewsGroupDataSet\20news-bydate-train\rec.autos\,103052
sci.med,C:\Users\sabau.DOM_MEDIASAT\Projects\Licenta\NewsGroupDataSet\20news-bydate-train\sci.med\,58136
sci.electronics,C:\Users\sabau.DOM_MEDIASAT\Projects\Licenta\NewsGroupDataSet\20news-bydate-train\sci.electronics\,53751
comp.os.ms-windows.misc,C:\Users\sabau.DOM_MEDIASAT\Projects\Licenta\NewsGroupDataSet\20news-bydate-train\comp.os.ms-windows.misc\,9763
sci.med,C:\Users\sabau.DOM_MEDIASAT\Projects\Licenta\NewsGroupDataSet\20news-bydate-train\sci.med\,58830
sci.med,C:\Users\sabau.DOM_MEDIASAT\Projects\Licenta\NewsGroupDataSet\20news-bydate-train\sci.med\,59056
rec.sport.baseball,C:\Users\sabau.DOM_MEDIASAT\Projects\Licenta\NewsGroupDataSet\20news-bydate-train\rec.sport.baseball\,105121
sci.electronics,C:\Users\sabau.DOM_MEDIASAT\Projects\Licenta\NewsGroupDataSet\20news-bydate-train\sci.electronics\,52776
comp.os.ms-windows.misc,C:\Users\sabau.DOM_MEDIASAT\Projects\Licenta\NewsGroupDataSet\20news-bydate-train\comp.os.ms-windows.misc\,9953
rec.sport.baseball,C:\Users\sabau.DOM_MEDIASAT\Projects\Licenta\NewsGroupDataSet\20news-bydate-train\rec.sport.baseball\,104695
sci.electronics,C:\Users\sabau.DOM_MEDIASAT\Projects\Licenta\NewsGroupDataSet\20news-bydate-train\sci.electronics\,53826
rec.sport.baseball,C:\Users\sabau.DOM_MEDIASAT\Projects\Licenta\NewsGroupDataSet\20news-bydate-train\rec.sport.baseball\,104474
comp.os.ms-windows.misc,C:\Users\sabau.DOM_MEDIASAT\Projects\Licenta\NewsGroupDataSet\20news-bydate-train\comp.os.ms-windows.misc\,9611
comp.os.ms-windows.misc,C:\Users\sabau.DOM_MEDIASAT\Projects\Licenta\NewsGroupDataSet\20news-bydate-train\comp.os.ms-windows.misc\,9560
rec.autos,C:\Users\sabau.DOM_MEDIASAT\Projects\Licenta\NewsGroupDataSet\20news-bydate-train\rec.autos\,103021
rec.sport.baseball,C:\Users\sabau.DOM_MEDIASAT\Projects\Licenta\NewsGroupDataSet\20news-bydate-train\rec.sport.baseball\,104469
comp.os.ms-windows.misc,C:\Users\sabau.DOM_MEDIASAT\Projects\Licenta\NewsGroupDataSet\20news-bydate-train\comp.os.ms-windows.misc\,9892
rec.autos,C:\Users\sabau.DOM_MEDIASAT\Projects\Licenta\NewsGroupDataSet\20news-bydate-train\rec.autos\,101624
sci.electronics,C:\Users\sabau.DOM_MEDIASAT\Projects\Licenta\NewsGroupDataSet\20news-bydate-train\sci.electronics\,53609
sci.electronics,C:\Users\sabau.DOM_MEDIASAT\Projects\Licenta\NewsGroupDataSet\20news-bydate-train\sci.electronics\,53868
rec.sport.baseball,C:\Users\sabau.DOM_MEDIASAT\Projects\Licenta\NewsGroupDataSet\20news-bydate-train\rec.sport.baseball\,104323
rec.autos,C:\Users\sabau.DOM_MEDIASAT\Projects\Licenta\NewsGroupDataSet\20news-bydate-train\rec.autos\,102935
sci.med,C:\Users\sabau.DOM_MEDIASAT\Projects\Licenta\NewsGroupDataSet\20news-bydate-train\sci.med\,58133
rec.autos,C:\Users\sabau.DOM_MEDIASAT\Projects\Licenta\NewsGroupDataSet\20news-bydate-train\rec.autos\,103013
sci.med,C:\Users\sabau.DOM_MEDIASAT\Projects\Licenta\NewsGroupDataSet\20news-bydate-train\sci.med\,58863
sci.electronics,C:\Users\sabau.DOM_MEDIASAT\Projects\Licenta\NewsGroupDataSet\20news-bydate-train\sci.electronics\,52792
comp.os.ms-windows.misc,C:\Users\sabau.DOM_MEDIASAT\Projects\Licenta\NewsGroupDataSet\20news-bydate-train\comp.os.ms-windows.misc\,9934
sci.med,C:\Users\sabau.DOM_MEDIASAT\Projects\Licenta\NewsGroupDataSet\20news-bydate-train\sci.med\,58146
comp.os.ms-windows.misc,C:\Users\sabau.DOM_MEDIASAT\Projects\Licenta\NewsGroupDataSet\20news-bydate-train\comp.os.ms-windows.misc\,10025
rec.autos,C:\Users\sabau.DOM_MEDIASAT\Projects\Licenta\NewsGroupDataSet\20news-bydate-train\rec.autos\,103415
rec.sport.baseball,C:\Users\sabau.DOM_MEDIASAT\Projects\Licenta\NewsGroupDataSet\20news-bydate-train\rec.sport.baseball\,104413
comp.os.ms-windows.misc,C:\Users\sabau.DOM_MEDIASAT\Projects\Licenta\NewsGroupDataSet\20news-bydate-train\comp.os.ms-windows.misc\,9912
rec.autos,C:\Users\sabau.DOM_MEDIASAT\Projects\Licenta\NewsGroupDataSet\20news-bydate-train\rec.autos\,102908
rec.sport.baseball,C:\Users\sabau.DOM_MEDIASAT\Projects\Licenta\NewsGroupDataSet\20news-bydate-train\rec.sport.baseball\,104564
rec.sport.baseball,C:\Users\sabau.DOM_MEDIASAT\Projects\Licenta\NewsGroupDataSet\20news-bydate-train\rec.sport.baseball\,105005
comp.os.ms-windows.misc,C:\Users\sabau.DOM_MEDIASAT\Projects\Licenta\NewsGroupDataSet\20news-bydate-train\comp.os.ms-windows.misc\,10008
rec.sport.baseball,C:\Users\sabau.DOM_MEDIASAT\Projects\Licenta\NewsGroupDataSet\20news-bydate-train\rec.sport.baseball\,104546
sci.electronics,C:\Users\sabau.DOM_MEDIASAT\Projects\Licenta\NewsGroupDataSet\20news-bydate-train\sci.electronics\,53960
sci.electronics,C:\Users\sabau.DOM_MEDIASAT\Projects\Licenta\NewsGroupDataSet\20news-bydate-train\sci.electronics\,53818
sci.electronics,C:\Users\sabau.DOM_MEDIASAT\Projects\Licenta\NewsGroupDataSet\20news-bydate-train\sci.electronics\,53965
rec.autos,C:\Users\sabau.DOM_MEDIASAT\Projects\Licenta\NewsGroupDataSet\20news-bydate-train\rec.autos\,103233
rec.sport.baseball,C:\Users\sabau.DOM_MEDIASAT\Projects\Licenta\NewsGroupDataSet\20news-bydate-train\rec.sport.baseball\,104901
sci.electronics,C:\Users\sabau.DOM_MEDIASAT\Projects\Licenta\NewsGroupDataSet\20news-bydate-train\sci.electronics\,53583
rec.sport.baseball,C:\Users\sabau.DOM_MEDIASAT\Projects\Licenta\NewsGroupDataSet\20news-bydate-train\rec.sport.baseball\,104606
sci.electronics,C:\Users\sabau.DOM_MEDIASAT\Projects\Licenta\NewsGroupDataSet\20news-bydate-train\sci.electronics\,53518
comp.os.ms-windows.misc,C:\Users\sabau.DOM_MEDIASAT\Projects\Licenta\NewsGroupDataSet\20news-bydate-train\comp.os.ms-windows.misc\,9597
comp.os.ms-windows.misc,C:\Users\sabau.DOM_MEDIASAT\Projects\Licenta\NewsGroupDataSet\20news-bydate-train\comp.os.ms-windows.misc\,9780
sci.electronics,C:\Users\sabau.DOM_MEDIASAT\Projects\Licenta\NewsGroupDataSet\20news-bydate-train\sci.electronics\,53704
rec.autos,C:\Users\sabau.DOM_MEDIASAT\Projects\Licenta\NewsGroupDataSet\20news-bydate-train\rec.autos\,102958
rec.sport.baseball,C:\Users\sabau.DOM_MEDIASAT\Projects\Licenta\NewsGroupDataSet\20news-bydate-train\rec.sport.baseball\,104555
sci.med,C:\Users\sabau.DOM_MEDIASAT\Projects\Licenta\NewsGroupDataSet\20news-bydate-train\sci.med\,58577
sci.electronics,C:\Users\sabau.DOM_MEDIASAT\Projects\Licenta\NewsGroupDataSet\20news-bydate-train\sci.electronics\,53789
sci.med,C:\Users\sabau.DOM_MEDIASAT\Projects\Licenta\NewsGroupDataSet\20news-bydate-train\sci.med\,58833
rec.sport.baseball,C:\Users\sabau.DOM_MEDIASAT\Projects\Licenta\NewsGroupDataSet\20news-bydate-train\rec.sport.baseball\,104785
sci.med,C:\Users\sabau.DOM_MEDIASAT\Projects\Licenta\NewsGroupDataSet\20news-bydate-train\sci.med\,58869
rec.sport.baseball,C:\Users\sabau.DOM_MEDIASAT\Projects\Licenta\NewsGroupDataSet\20news-bydate-train\rec.sport.baseball\,104602
sci.electronics,C:\Users\sabau.DOM_MEDIASAT\Projects\Licenta\NewsGroupDataSet\20news-bydate-train\sci.electronics\,53909
sci.med,C:\Users\sabau.DOM_MEDIASAT\Projects\Licenta\NewsGroupDataSet\20news-bydate-train\sci.med\,59048
rec.autos,C:\Users\sabau.DOM_MEDIASAT\Projects\Licenta\NewsGroupDataSet\20news-bydate-train\rec.autos\,103087
comp.os.ms-windows.misc,C:\Users\sabau.DOM_MEDIASAT\Projects\Licenta\NewsGroupDataSet\20news-bydate-train\comp.os.ms-windows.misc\,9991
sci.med,C:\Users\sabau.DOM_MEDIASAT\Projects\Licenta\NewsGroupDataSet\20news-bydate-train\sci.med\,58821
sci.med,C:\Users\sabau.DOM_MEDIASAT\Projects\Licenta\NewsGroupDataSet\20news-bydate-train\sci.med\,58990
sci.electronics,C:\Users\sabau.DOM_MEDIASAT\Projects\Licenta\NewsGroupDataSet\20news-bydate-train\sci.electronics\,53870
rec.sport.baseball,C:\Users\sabau.DOM_MEDIASAT\Projects\Licenta\NewsGroupDataSet\20news-bydate-train\rec.sport.baseball\,104415
rec.sport.baseball,C:\Users\sabau.DOM_MEDIASAT\Projects\Licenta\NewsGroupDataSet\20news-bydate-train\rec.sport.baseball\,104790
rec.autos,C:\Users\sabau.DOM_MEDIASAT\Projects\Licenta\NewsGroupDataSet\20news-bydate-train\rec.autos\,101602
sci.electronics,C:\Users\sabau.DOM_MEDIASAT\Projects\Licenta\NewsGroupDataSet\20news-bydate-train\sci.electronics\,53939
rec.autos,C:\Users\sabau.DOM_MEDIASAT\Projects\Licenta\NewsGroupDataSet\20news-bydate-train\rec.autos\,101661
sci.electronics,C:\Users\sabau.DOM_MEDIASAT\Projects\Licenta\NewsGroupDataSet\20news-bydate-train\sci.electronics\,53586
sci.med,C:\Users\sabau.DOM_MEDIASAT\Projects\Licenta\NewsGroupDataSet\20news-bydate-train\sci.med\,58805
rec.autos,C:\Users\sabau.DOM_MEDIASAT\Projects\Licenta\NewsGroupDataSet\20news-bydate-train\rec.autos\,103086
sci.med,C:\Users\sabau.DOM_MEDIASAT\Projects\Licenta\NewsGroupDataSet\20news-bydate-train\sci.med\,58147
rec.sport.baseball,C:\Users\sabau.DOM_MEDIASAT\Projects\Licenta\NewsGroupDataSet\20news-bydate-train\rec.sport.baseball\,104361
rec.autos,C:\Users\sabau.DOM_MEDIASAT\Projects\Licenta\NewsGroupDataSet\20news-bydate-train\rec.autos\,103109
rec.sport.baseball,C:\Users\sabau.DOM_MEDIASAT\Projects\Licenta\NewsGroupDataSet\20news-bydate-train\rec.sport.baseball\,104611
sci.med,C:\Users\sabau.DOM_MEDIASAT\Projects\Licenta\NewsGroupDataSet\20news-bydate-train\sci.med\,59183
rec.sport.baseball,C:\Users\sabau.DOM_MEDIASAT\Projects\Licenta\NewsGroupDataSet\20news-bydate-train\rec.sport.baseball\,104898
sci.med,C:\Users\sabau.DOM_MEDIASAT\Projects\Licenta\NewsGroupDataSet\20news-bydate-train\sci.med\,58137
sci.med,C:\Users\sabau.DOM_MEDIASAT\Projects\Licenta\NewsGroupDataSet\20news-bydate-train\sci.med\,59080
sci.electronics,C:\Users\sabau.DOM_MEDIASAT\Projects\Licenta\NewsGroupDataSet\20news-bydate-train\sci.electronics\,53519
sci.electronics,C:\Users\sabau.DOM_MEDIASAT\Projects\Licenta\NewsGroupDataSet\20news-bydate-train\sci.electronics\,53508
sci.med,C:\Users\sabau.DOM_MEDIASAT\Projects\Licenta\NewsGroupDataSet\20news-bydate-train\sci.med\,58902
sci.med,C:\Users\sabau.DOM_MEDIASAT\Projects\Licenta\NewsGroupDataSet\20news-bydate-train\sci.med\,59076
rec.autos,C:\Users\sabau.DOM_MEDIASAT\Projects\Licenta\NewsGroupDataSet\20news-bydate-train\rec.autos\,101656
rec.autos,C:\Users\sabau.DOM_MEDIASAT\Projects\Licenta\NewsGroupDataSet\20news-bydate-train\rec.autos\,102737
rec.autos,C:\Users\sabau.DOM_MEDIASAT\Projects\Licenta\NewsGroupDataSet\20news-bydate-train\rec.autos\,102841
sci.electronics,C:\Users\sabau.DOM_MEDIASAT\Projects\Licenta\NewsGroupDataSet\20news-bydate-train\sci.electronics\,52784
sci.electronics,C:\Users\sabau.DOM_MEDIASAT\Projects\Licenta\NewsGroupDataSet\20news-bydate-train\sci.electronics\,53560
comp.os.ms-windows.misc,C:\Users\sabau.DOM_MEDIASAT\Projects\Licenta\NewsGroupDataSet\20news-bydate-train\comp.os.ms-windows.misc\,9956
comp.os.ms-windows.misc,C:\Users\sabau.DOM_MEDIASAT\Projects\Licenta\NewsGroupDataSet\20news-bydate-train\comp.os.ms-windows.misc\,9168
comp.os.ms-windows.misc,C:\Users\sabau.DOM_MEDIASAT\Projects\Licenta\NewsGroupDataSet\20news-bydate-train\comp.os.ms-windows.misc\,9760
sci.med,C:\Users\sabau.DOM_MEDIASAT\Projects\Licenta\NewsGroupDataSet\20news-bydate-train\sci.med\,58135
sci.electronics,C:\Users\sabau.DOM_MEDIASAT\Projects\Licenta\NewsGroupDataSet\20news-bydate-train\sci.electronics\,53816
comp.os.ms-windows.misc,C:\Users\sabau.DOM_MEDIASAT\Projects\Licenta\NewsGroupDataSet\20news-bydate-train\comp.os.ms-windows.misc\,9864
rec.autos,C:\Users\sabau.DOM_MEDIASAT\Projects\Licenta\NewsGroupDataSet\20news-bydate-train\rec.autos\,102943
sci.med,C:\Users\sabau.DOM_MEDIASAT\Projects\Licenta\NewsGroupDataSet\20news-bydate-train\sci.med\,59162
rec.autos,C:\Users\sabau.DOM_MEDIASAT\Projects\Licenta\NewsGroupDataSet\20news-bydate-train\rec.autos\,102770
sci.med,C:\Users\sabau.DOM_MEDIASAT\Projects\Licenta\NewsGroupDataSet\20news-bydate-train\sci.med\,59099
sci.electronics,C:\Users\sabau.DOM_MEDIASAT\Projects\Licenta\NewsGroupDataSet\20news-bydate-train\sci.electronics\,53831
sci.electronics,C:\Users\sabau.DOM_MEDIASAT\Projects\Licenta\NewsGroupDataSet\20news-bydate-train\sci.electronics\,53568
sci.electronics,C:\Users\sabau.DOM_MEDIASAT\Projects\Licenta\NewsGroupDataSet\20news-bydate-train\sci.electronics\,52759
comp.os.ms-windows.misc,C:\Users\sabau.DOM_MEDIASAT\Projects\Licenta\NewsGroupDataSet\20news-bydate-train\comp.os.ms-windows.misc\,9469
comp.os.ms-windows.misc,C:\Users\sabau.DOM_MEDIASAT\Projects\Licenta\NewsGroupDataSet\20news-bydate-train\comp.os.ms-windows.misc\,9513
sci.electronics,C:\Users\sabau.DOM_MEDIASAT\Projects\Licenta\NewsGroupDataSet\20news-bydate-train\sci.electronics\,53876
sci.med,C:\Users\sabau.DOM_MEDIASAT\Projects\Licenta\NewsGroupDataSet\20news-bydate-train\sci.med\,58760
sci.med,C:\Users\sabau.DOM_MEDIASAT\Projects\Licenta\NewsGroupDataSet\20news-bydate-train\sci.med\,58892
rec.autos,C:\Users\sabau.DOM_MEDIASAT\Projects\Licenta\NewsGroupDataSet\20news-bydate-train\rec.autos\,102998
sci.med,C:\Users\sabau.DOM_MEDIASAT\Projects\Licenta\NewsGroupDataSet\20news-bydate-train\sci.med\,59190
rec.autos,C:\Users\sabau.DOM_MEDIASAT\Projects\Licenta\NewsGroupDataSet\20news-bydate-train\rec.autos\,103748
comp.os.ms-windows.misc,C:\Users\sabau.DOM_MEDIASAT\Projects\Licenta\NewsGroupDataSet\20news-bydate-train\comp.os.ms-windows.misc\,9784
rec.sport.baseball,C:\Users\sabau.DOM_MEDIASAT\Projects\Licenta\NewsGroupDataSet\20news-bydate-train\rec.sport.baseball\,104693
sci.med,C:\Users\sabau.DOM_MEDIASAT\Projects\Licenta\NewsGroupDataSet\20news-bydate-train\sci.med\,59152
sci.med,C:\Users\sabau.DOM_MEDIASAT\Projects\Licenta\NewsGroupDataSet\20news-bydate-train\sci.med\,59059
sci.med,C:\Users\sabau.DOM_MEDIASAT\Projects\Licenta\NewsGroupDataSet\20news-bydate-train\sci.med\,59189
rec.autos,C:\Users\sabau.DOM_MEDIASAT\Projects\Licenta\NewsGroupDataSet\20news-bydate-train\rec.autos\,101570
sci.med,C:\Users\sabau.DOM_MEDIASAT\Projects\Licenta\NewsGroupDataSet\20news-bydate-train\sci.med\,58786
sci.med,C:\Users\sabau.DOM_MEDIASAT\Projects\Licenta\NewsGroupDataSet\20news-bydate-train\sci.med\,59182
rec.autos,C:\Users\sabau.DOM_MEDIASAT\Projects\Licenta\NewsGroupDataSet\20news-bydate-train\rec.autos\,102992
sci.electronics,C:\Users\sabau.DOM_MEDIASAT\Projects\Licenta\NewsGroupDataSet\20news-bydate-train\sci.electronics\,53728
sci.med,C:\Users\sabau.DOM_MEDIASAT\Projects\Licenta\NewsGroupDataSet\20news-bydate-train\sci.med\,58568
rec.sport.baseball,C:\Users\sabau.DOM_MEDIASAT\Projects\Licenta\NewsGroupDataSet\20news-bydate-train\rec.sport.baseball\,102599
rec.autos,C:\Users\sabau.DOM_MEDIASAT\Projects\Licenta\NewsGroupDataSet\20news-bydate-train\rec.autos\,102766
sci.med,C:\Users\sabau.DOM_MEDIASAT\Projects\Licenta\NewsGroupDataSet\20news-bydate-train\sci.med\,59126
sci.electronics,C:\Users\sabau.DOM_MEDIASAT\Projects\Licenta\NewsGroupDataSet\20news-bydate-train\sci.electronics\,53891
sci.electronics,C:\Users\sabau.DOM_MEDIASAT\Projects\Licenta\NewsGroupDataSet\20news-bydate-train\sci.electronics\,53821
rec.sport.baseball,C:\Users\sabau.DOM_MEDIASAT\Projects\Licenta\NewsGroupDataSet\20news-bydate-train\rec.sport.baseball\,104563
rec.autos,C:\Users\sabau.DOM_MEDIASAT\Projects\Licenta\NewsGroupDataSet\20news-bydate-train\rec.autos\,101637
sci.electronics,C:\Users\sabau.DOM_MEDIASAT\Projects\Licenta\NewsGroupDataSet\20news-bydate-train\sci.electronics\,52793
comp.os.ms-windows.misc,C:\Users\sabau.DOM_MEDIASAT\Projects\Licenta\NewsGroupDataSet\20news-bydate-train\comp.os.ms-windows.misc\,9488
sci.electronics,C:\Users\sabau.DOM_MEDIASAT\Projects\Licenta\NewsGroupDataSet\20news-bydate-train\sci.electronics\,53794
sci.electronics,C:\Users\sabau.DOM_MEDIASAT\Projects\Licenta\NewsGroupDataSet\20news-bydate-train\sci.electronics\,53626
sci.med,C:\Users\sabau.DOM_MEDIASAT\Projects\Licenta\NewsGroupDataSet\20news-bydate-train\sci.med\,58862
rec.sport.baseball,C:\Users\sabau.DOM_MEDIASAT\Projects\Licenta\NewsGroupDataSet\20news-bydate-train\rec.sport.baseball\,104927
rec.sport.baseball,C:\Users\sabau.DOM_MEDIASAT\Projects\Licenta\NewsGroupDataSet\20news-bydate-train\rec.sport.baseball\,104451
comp.os.ms-windows.misc,C:\Users\sabau.DOM_MEDIASAT\Projects\Licenta\NewsGroupDataSet\20news-bydate-train\comp.os.ms-windows.misc\,9863
rec.sport.baseball,C:\Users\sabau.DOM_MEDIASAT\Projects\Licenta\NewsGroupDataSet\20news-bydate-train\rec.sport.baseball\,104417
rec.autos,C:\Users\sabau.DOM_MEDIASAT\Projects\Licenta\NewsGroupDataSet\20news-bydate-train\rec.autos\,103006
comp.os.ms-windows.misc,C:\Users\sabau.DOM_MEDIASAT\Projects\Licenta\NewsGroupDataSet\20news-bydate-train\comp.os.ms-windows.misc\,9837
rec.sport.baseball,C:\Users\sabau.DOM_MEDIASAT\Projects\Licenta\NewsGroupDataSet\20news-bydate-train\rec.sport.baseball\,104696
comp.os.ms-windows.misc,C:\Users\sabau.DOM_MEDIASAT\Projects\Licenta\NewsGroupDataSet\20news-bydate-train\comp.os.ms-windows.misc\,9483
rec.autos,C:\Users\sabau.DOM_MEDIASAT\Projects\Licenta\NewsGroupDataSet\20news-bydate-train\rec.autos\,102834
sci.med,C:\Users\sabau.DOM_MEDIASAT\Projects\Licenta\NewsGroupDataSet\20news-bydate-train\sci.med\,58932
comp.os.ms-windows.misc,C:\Users\sabau.DOM_MEDIASAT\Projects\Licenta\NewsGroupDataSet\20news-bydate-train\comp.os.ms-windows.misc\,9774
sci.electronics,C:\Users\sabau.DOM_MEDIASAT\Projects\Licenta\NewsGroupDataSet\20news-bydate-train\sci.electronics\,53528
rec.sport.baseball,C:\Users\sabau.DOM_MEDIASAT\Projects\Licenta\NewsGroupDataSet\20news-bydate-train\rec.sport.baseball\,104386
sci.electronics,C:\Users\sabau.DOM_MEDIASAT\Projects\Licenta\NewsGroupDataSet\20news-bydate-train\sci.electronics\,53779
sci.med,C:\Users\sabau.DOM_MEDIASAT\Projects\Licenta\NewsGroupDataSet\20news-bydate-train\sci.med\,59087
rec.autos,C:\Users\sabau.DOM_MEDIASAT\Projects\Licenta\NewsGroupDataSet\20news-bydate-train\rec.autos\,103050
sci.med,C:\Users\sabau.DOM_MEDIASAT\Projects\Licenta\NewsGroupDataSet\20news-bydate-train\sci.med\,58758
sci.med,C:\Users\sabau.DOM_MEDIASAT\Projects\Licenta\NewsGroupDataSet\20news-bydate-train\sci.med\,59212
sci.electronics,C:\Users\sabau.DOM_MEDIASAT\Projects\Licenta\NewsGroupDataSet\20news-bydate-train\sci.electronics\,52802
rec.sport.baseball,C:\Users\sabau.DOM_MEDIASAT\Projects\Licenta\NewsGroupDataSet\20news-bydate-train\rec.sport.baseball\,104607
comp.os.ms-windows.misc,C:\Users\sabau.DOM_MEDIASAT\Projects\Licenta\NewsGroupDataSet\20news-bydate-train\comp.os.ms-windows.misc\,9931
rec.sport.baseball,C:\Users\sabau.DOM_MEDIASAT\Projects\Licenta\NewsGroupDataSet\20news-bydate-train\rec.sport.baseball\,102630
comp.os.ms-windows.misc,C:\Users\sabau.DOM_MEDIASAT\Projects\Licenta\NewsGroupDataSet\20news-bydate-train\comp.os.ms-windows.misc\,9967
sci.electronics,C:\Users\sabau.DOM_MEDIASAT\Projects\Licenta\NewsGroupDataSet\20news-bydate-train\sci.electronics\,53726
sci.electronics,C:\Users\sabau.DOM_MEDIASAT\Projects\Licenta\NewsGroupDataSet\20news-bydate-train\sci.electronics\,53691
rec.sport.baseball,C:\Users\sabau.DOM_MEDIASAT\Projects\Licenta\NewsGroupDataSet\20news-bydate-train\rec.sport.baseball\,104598
rec.autos,C:\Users\sabau.DOM_MEDIASAT\Projects\Licenta\NewsGroupDataSet\20news-bydate-train\rec.autos\,102774
comp.os.ms-windows.misc,C:\Users\sabau.DOM_MEDIASAT\Projects\Licenta\NewsGroupDataSet\20news-bydate-train\comp.os.ms-windows.misc\,9782
comp.os.ms-windows.misc,C:\Users\sabau.DOM_MEDIASAT\Projects\Licenta\NewsGroupDataSet\20news-bydate-train\comp.os.ms-windows.misc\,9995
comp.os.ms-windows.misc,C:\Users\sabau.DOM_MEDIASAT\Projects\Licenta\NewsGroupDataSet\20news-bydate-train\comp.os.ms-windows.misc\,9917
sci.electronics,C:\Users\sabau.DOM_MEDIASAT\Projects\Licenta\NewsGroupDataSet\20news-bydate-train\sci.electronics\,53925
rec.sport.baseball,C:\Users\sabau.DOM_MEDIASAT\Projects\Licenta\NewsGroupDataSet\20news-bydate-train\rec.sport.baseball\,104795
sci.electronics,C:\Users\sabau.DOM_MEDIASAT\Projects\Licenta\NewsGroupDataSet\20news-bydate-train\sci.electronics\,53548
sci.med,C:\Users\sabau.DOM_MEDIASAT\Projects\Licenta\NewsGroupDataSet\20news-bydate-train\sci.med\,58570
sci.med,C:\Users\sabau.DOM_MEDIASAT\Projects\Licenta\NewsGroupDataSet\20news-bydate-train\sci.med\,58886
comp.os.ms-windows.misc,C:\Users\sabau.DOM_MEDIASAT\Projects\Licenta\NewsGroupDataSet\20news-bydate-train\comp.os.ms-windows.misc\,9965
rec.autos,C:\Users\sabau.DOM_MEDIASAT\Projects\Licenta\NewsGroupDataSet\20news-bydate-train\rec.autos\,103041
rec.autos,C:\Users\sabau.DOM_MEDIASAT\Projects\Licenta\NewsGroupDataSet\20news-bydate-train\rec.autos\,103184
sci.electronics,C:\Users\sabau.DOM_MEDIASAT\Projects\Licenta\NewsGroupDataSet\20news-bydate-train\sci.electronics\,53654
rec.autos,C:\Users\sabau.DOM_MEDIASAT\Projects\Licenta\NewsGroupDataSet\20news-bydate-train\rec.autos\,103099
sci.med,C:\Users\sabau.DOM_MEDIASAT\Projects\Licenta\NewsGroupDataSet\20news-bydate-train\sci.med\,59107
sci.med,C:\Users\sabau.DOM_MEDIASAT\Projects\Licenta\NewsGroupDataSet\20news-bydate-train\sci.med\,58064
comp.os.ms-windows.misc,C:\Users\sabau.DOM_MEDIASAT\Projects\Licenta\NewsGroupDataSet\20news-bydate-train\comp.os.ms-windows.misc\,9170
rec.autos,C:\Users\sabau.DOM_MEDIASAT\Projects\Licenta\NewsGroupDataSet\20news-bydate-train\rec.autos\,102892
rec.autos,C:\Users\sabau.DOM_MEDIASAT\Projects\Licenta\NewsGroupDataSet\20news-bydate-train\rec.autos\,102803
sci.med,C:\Users\sabau.DOM_MEDIASAT\Projects\Licenta\NewsGroupDataSet\20news-bydate-train\sci.med\,59006
sci.med,C:\Users\sabau.DOM_MEDIASAT\Projects\Licenta\NewsGroupDataSet\20news-bydate-train\sci.med\,58145
comp.os.ms-windows.misc,C:\Users\sabau.DOM_MEDIASAT\Projects\Licenta\NewsGroupDataSet\20news-bydate-train\comp.os.ms-windows.misc\,9757
rec.autos,C:\Users\sabau.DOM_MEDIASAT\Projects\Licenta\NewsGroupDataSet\20news-bydate-train\rec.autos\,102964
comp.os.ms-windows.misc,C:\Users\sabau.DOM_MEDIASAT\Projects\Licenta\NewsGroupDataSet\20news-bydate-train\comp.os.ms-windows.misc\,9466
sci.electronics,C:\Users\sabau.DOM_MEDIASAT\Projects\Licenta\NewsGroupDataSet\20news-bydate-train\sci.electronics\,53722
rec.sport.baseball,C:\Users\sabau.DOM_MEDIASAT\Projects\Licenta\NewsGroupDataSet\20news-bydate-train\rec.sport.baseball\,102585
rec.autos,C:\Users\sabau.DOM_MEDIASAT\Projects\Licenta\NewsGroupDataSet\20news-bydate-train\rec.autos\,103168
rec.autos,C:\Users\sabau.DOM_MEDIASAT\Projects\Licenta\NewsGroupDataSet\20news-bydate-train\rec.autos\,102906
rec.sport.baseball,C:\Users\sabau.DOM_MEDIASAT\Projects\Licenta\NewsGroupDataSet\20news-bydate-train\rec.sport.baseball\,104461
rec.autos,C:\Users\sabau.DOM_MEDIASAT\Projects\Licenta\NewsGroupDataSet\20news-bydate-train\rec.autos\,101566
sci.electronics,C:\Users\sabau.DOM_MEDIASAT\Projects\Licenta\NewsGroupDataSet\20news-bydate-train\sci.electronics\,53584
sci.electronics,C:\Users\sabau.DOM_MEDIASAT\Projects\Licenta\NewsGroupDataSet\20news-bydate-train\sci.electronics\,53935
rec.sport.baseball,C:\Users\sabau.DOM_MEDIASAT\Projects\Licenta\NewsGroupDataSet\20news-bydate-train\rec.sport.baseball\,104370
rec.autos,C:\Users\sabau.DOM_MEDIASAT\Projects\Licenta\NewsGroupDataSet\20news-bydate-train\rec.autos\,102910
rec.autos,C:\Users\sabau.DOM_MEDIASAT\Projects\Licenta\NewsGroupDataSet\20news-bydate-train\rec.autos\,103019
rec.sport.baseball,C:\Users\sabau.DOM_MEDIASAT\Projects\Licenta\NewsGroupDataSet\20news-bydate-train\rec.sport.baseball\,104367
sci.electronics,C:\Users\sabau.DOM_MEDIASAT\Projects\Licenta\NewsGroupDataSet\20news-bydate-train\sci.electronics\,53745
sci.med,C:\Users\sabau.DOM_MEDIASAT\Projects\Licenta\NewsGroupDataSet\20news-bydate-train\sci.med\,58074
sci.electronics,C:\Users\sabau.DOM_MEDIASAT\Projects\Licenta\NewsGroupDataSet\20news-bydate-train\sci.electronics\,53780
rec.sport.baseball,C:\Users\sabau.DOM_MEDIASAT\Projects\Licenta\NewsGroupDataSet\20news-bydate-train\rec.sport.baseball\,102695
sci.med,C:\Users\sabau.DOM_MEDIASAT\Projects\Licenta\NewsGroupDataSet\20news-bydate-train\sci.med\,58063
rec.autos,C:\Users\sabau.DOM_MEDIASAT\Projects\Licenta\NewsGroupDataSet\20news-bydate-train\rec.autos\,102838
comp.os.ms-windows.misc,C:\Users\sabau.DOM_MEDIASAT\Projects\Licenta\NewsGroupDataSet\20news-bydate-train\comp.os.ms-windows.misc\,9167
comp.os.ms-windows.misc,C:\Users\sabau.DOM_MEDIASAT\Projects\Licenta\NewsGroupDataSet\20news-bydate-train\comp.os.ms-windows.misc\,9142
rec.autos,C:\Users\sabau.DOM_MEDIASAT\Projects\Licenta\NewsGroupDataSet\20news-bydate-train\rec.autos\,103039
rec.sport.baseball,C:\Users\sabau.DOM_MEDIASAT\Projects\Licenta\NewsGroupDataSet\20news-bydate-train\rec.sport.baseball\,102714
sci.med,C:\Users\sabau.DOM_MEDIASAT\Projects\Licenta\NewsGroupDataSet\20news-bydate-train\sci.med\,57110
comp.os.ms-windows.misc,C:\Users\sabau.DOM_MEDIASAT\Projects\Licenta\NewsGroupDataSet\20news-bydate-train\comp.os.ms-windows.misc\,9539
