sci.electronics,C:\Users\sabau.DOM_MEDIASAT\Projects\Licenta\NewsGroupDataSet\20news-bydate-train\sci.electronics\,53700
sci.crypt,C:\Users\sabau.DOM_MEDIASAT\Projects\Licenta\NewsGroupDataSet\20news-bydate-train\sci.crypt\,15630
sci.med,C:\Users\sabau.DOM_MEDIASAT\Projects\Licenta\NewsGroupDataSet\20news-bydate-train\sci.med\,59092
sci.electronics,C:\Users\sabau.DOM_MEDIASAT\Projects\Licenta\NewsGroupDataSet\20news-bydate-train\sci.electronics\,53755
sci.med,C:\Users\sabau.DOM_MEDIASAT\Projects\Licenta\NewsGroupDataSet\20news-bydate-train\sci.med\,58122
sci.crypt,C:\Users\sabau.DOM_MEDIASAT\Projects\Licenta\NewsGroupDataSet\20news-bydate-train\sci.crypt\,15561
sci.crypt,C:\Users\sabau.DOM_MEDIASAT\Projects\Licenta\NewsGroupDataSet\20news-bydate-train\sci.crypt\,15766
sci.med,C:\Users\sabau.DOM_MEDIASAT\Projects\Licenta\NewsGroupDataSet\20news-bydate-train\sci.med\,59115
sci.crypt,C:\Users\sabau.DOM_MEDIASAT\Projects\Licenta\NewsGroupDataSet\20news-bydate-train\sci.crypt\,15461
sci.crypt,C:\Users\sabau.DOM_MEDIASAT\Projects\Licenta\NewsGroupDataSet\20news-bydate-train\sci.crypt\,15297
sci.med,C:\Users\sabau.DOM_MEDIASAT\Projects\Licenta\NewsGroupDataSet\20news-bydate-train\sci.med\,59040
sci.crypt,C:\Users\sabau.DOM_MEDIASAT\Projects\Licenta\NewsGroupDataSet\20news-bydate-train\sci.crypt\,15206
sci.med,C:\Users\sabau.DOM_MEDIASAT\Projects\Licenta\NewsGroupDataSet\20news-bydate-train\sci.med\,58863
sci.electronics,C:\Users\sabau.DOM_MEDIASAT\Projects\Licenta\NewsGroupDataSet\20news-bydate-train\sci.electronics\,53587
sci.med,C:\Users\sabau.DOM_MEDIASAT\Projects\Licenta\NewsGroupDataSet\20news-bydate-train\sci.med\,59136
sci.med,C:\Users\sabau.DOM_MEDIASAT\Projects\Licenta\NewsGroupDataSet\20news-bydate-train\sci.med\,58047
sci.crypt,C:\Users\sabau.DOM_MEDIASAT\Projects\Licenta\NewsGroupDataSet\20news-bydate-train\sci.crypt\,15550
sci.crypt,C:\Users\sabau.DOM_MEDIASAT\Projects\Licenta\NewsGroupDataSet\20news-bydate-train\sci.crypt\,15340
sci.med,C:\Users\sabau.DOM_MEDIASAT\Projects\Licenta\NewsGroupDataSet\20news-bydate-train\sci.med\,58973
sci.crypt,C:\Users\sabau.DOM_MEDIASAT\Projects\Licenta\NewsGroupDataSet\20news-bydate-train\sci.crypt\,15439
sci.crypt,C:\Users\sabau.DOM_MEDIASAT\Projects\Licenta\NewsGroupDataSet\20news-bydate-train\sci.crypt\,15514
sci.crypt,C:\Users\sabau.DOM_MEDIASAT\Projects\Licenta\NewsGroupDataSet\20news-bydate-train\sci.crypt\,15601
sci.med,C:\Users\sabau.DOM_MEDIASAT\Projects\Licenta\NewsGroupDataSet\20news-bydate-train\sci.med\,59075
sci.crypt,C:\Users\sabau.DOM_MEDIASAT\Projects\Licenta\NewsGroupDataSet\20news-bydate-train\sci.crypt\,15765
sci.crypt,C:\Users\sabau.DOM_MEDIASAT\Projects\Licenta\NewsGroupDataSet\20news-bydate-train\sci.crypt\,15495
sci.electronics,C:\Users\sabau.DOM_MEDIASAT\Projects\Licenta\NewsGroupDataSet\20news-bydate-train\sci.electronics\,53642
sci.electronics,C:\Users\sabau.DOM_MEDIASAT\Projects\Licenta\NewsGroupDataSet\20news-bydate-train\sci.electronics\,53896
sci.electronics,C:\Users\sabau.DOM_MEDIASAT\Projects\Licenta\NewsGroupDataSet\20news-bydate-train\sci.electronics\,53638
sci.crypt,C:\Users\sabau.DOM_MEDIASAT\Projects\Licenta\NewsGroupDataSet\20news-bydate-train\sci.crypt\,15530
sci.electronics,C:\Users\sabau.DOM_MEDIASAT\Projects\Licenta\NewsGroupDataSet\20news-bydate-train\sci.electronics\,53699
sci.med,C:\Users\sabau.DOM_MEDIASAT\Projects\Licenta\NewsGroupDataSet\20news-bydate-train\sci.med\,58112
sci.crypt,C:\Users\sabau.DOM_MEDIASAT\Projects\Licenta\NewsGroupDataSet\20news-bydate-train\sci.crypt\,14983
sci.crypt,C:\Users\sabau.DOM_MEDIASAT\Projects\Licenta\NewsGroupDataSet\20news-bydate-train\sci.crypt\,14987
sci.crypt,C:\Users\sabau.DOM_MEDIASAT\Projects\Licenta\NewsGroupDataSet\20news-bydate-train\sci.crypt\,15516
sci.crypt,C:\Users\sabau.DOM_MEDIASAT\Projects\Licenta\NewsGroupDataSet\20news-bydate-train\sci.crypt\,15257
sci.crypt,C:\Users\sabau.DOM_MEDIASAT\Projects\Licenta\NewsGroupDataSet\20news-bydate-train\sci.crypt\,15318
sci.med,C:\Users\sabau.DOM_MEDIASAT\Projects\Licenta\NewsGroupDataSet\20news-bydate-train\sci.med\,59228
sci.electronics,C:\Users\sabau.DOM_MEDIASAT\Projects\Licenta\NewsGroupDataSet\20news-bydate-train\sci.electronics\,53629
sci.crypt,C:\Users\sabau.DOM_MEDIASAT\Projects\Licenta\NewsGroupDataSet\20news-bydate-train\sci.crypt\,15459
sci.crypt,C:\Users\sabau.DOM_MEDIASAT\Projects\Licenta\NewsGroupDataSet\20news-bydate-train\sci.crypt\,15565
sci.crypt,C:\Users\sabau.DOM_MEDIASAT\Projects\Licenta\NewsGroupDataSet\20news-bydate-train\sci.crypt\,15708
sci.med,C:\Users\sabau.DOM_MEDIASAT\Projects\Licenta\NewsGroupDataSet\20news-bydate-train\sci.med\,58136
sci.crypt,C:\Users\sabau.DOM_MEDIASAT\Projects\Licenta\NewsGroupDataSet\20news-bydate-train\sci.crypt\,15180
sci.med,C:\Users\sabau.DOM_MEDIASAT\Projects\Licenta\NewsGroupDataSet\20news-bydate-train\sci.med\,58095
sci.med,C:\Users\sabau.DOM_MEDIASAT\Projects\Licenta\NewsGroupDataSet\20news-bydate-train\sci.med\,59011
sci.crypt,C:\Users\sabau.DOM_MEDIASAT\Projects\Licenta\NewsGroupDataSet\20news-bydate-train\sci.crypt\,15703
sci.electronics,C:\Users\sabau.DOM_MEDIASAT\Projects\Licenta\NewsGroupDataSet\20news-bydate-train\sci.electronics\,53636
sci.electronics,C:\Users\sabau.DOM_MEDIASAT\Projects\Licenta\NewsGroupDataSet\20news-bydate-train\sci.electronics\,53677
sci.med,C:\Users\sabau.DOM_MEDIASAT\Projects\Licenta\NewsGroupDataSet\20news-bydate-train\sci.med\,58154
sci.crypt,C:\Users\sabau.DOM_MEDIASAT\Projects\Licenta\NewsGroupDataSet\20news-bydate-train\sci.crypt\,15490
sci.electronics,C:\Users\sabau.DOM_MEDIASAT\Projects\Licenta\NewsGroupDataSet\20news-bydate-train\sci.electronics\,52798
sci.electronics,C:\Users\sabau.DOM_MEDIASAT\Projects\Licenta\NewsGroupDataSet\20news-bydate-train\sci.electronics\,53747
sci.med,C:\Users\sabau.DOM_MEDIASAT\Projects\Licenta\NewsGroupDataSet\20news-bydate-train\sci.med\,59265
sci.crypt,C:\Users\sabau.DOM_MEDIASAT\Projects\Licenta\NewsGroupDataSet\20news-bydate-train\sci.crypt\,15711
sci.crypt,C:\Users\sabau.DOM_MEDIASAT\Projects\Licenta\NewsGroupDataSet\20news-bydate-train\sci.crypt\,15571
sci.electronics,C:\Users\sabau.DOM_MEDIASAT\Projects\Licenta\NewsGroupDataSet\20news-bydate-train\sci.electronics\,53605
sci.crypt,C:\Users\sabau.DOM_MEDIASAT\Projects\Licenta\NewsGroupDataSet\20news-bydate-train\sci.crypt\,15374
sci.crypt,C:\Users\sabau.DOM_MEDIASAT\Projects\Licenta\NewsGroupDataSet\20news-bydate-train\sci.crypt\,15651
sci.crypt,C:\Users\sabau.DOM_MEDIASAT\Projects\Licenta\NewsGroupDataSet\20news-bydate-train\sci.crypt\,15513
sci.med,C:\Users\sabau.DOM_MEDIASAT\Projects\Licenta\NewsGroupDataSet\20news-bydate-train\sci.med\,58063
sci.crypt,C:\Users\sabau.DOM_MEDIASAT\Projects\Licenta\NewsGroupDataSet\20news-bydate-train\sci.crypt\,15442
sci.med,C:\Users\sabau.DOM_MEDIASAT\Projects\Licenta\NewsGroupDataSet\20news-bydate-train\sci.med\,58916
sci.electronics,C:\Users\sabau.DOM_MEDIASAT\Projects\Licenta\NewsGroupDataSet\20news-bydate-train\sci.electronics\,53941
sci.med,C:\Users\sabau.DOM_MEDIASAT\Projects\Licenta\NewsGroupDataSet\20news-bydate-train\sci.med\,59217
sci.crypt,C:\Users\sabau.DOM_MEDIASAT\Projects\Licenta\NewsGroupDataSet\20news-bydate-train\sci.crypt\,15471
sci.med,C:\Users\sabau.DOM_MEDIASAT\Projects\Licenta\NewsGroupDataSet\20news-bydate-train\sci.med\,58568
sci.crypt,C:\Users\sabau.DOM_MEDIASAT\Projects\Licenta\NewsGroupDataSet\20news-bydate-train\sci.crypt\,15469
sci.med,C:\Users\sabau.DOM_MEDIASAT\Projects\Licenta\NewsGroupDataSet\20news-bydate-train\sci.med\,58062
sci.med,C:\Users\sabau.DOM_MEDIASAT\Projects\Licenta\NewsGroupDataSet\20news-bydate-train\sci.med\,59200
sci.crypt,C:\Users\sabau.DOM_MEDIASAT\Projects\Licenta\NewsGroupDataSet\20news-bydate-train\sci.crypt\,15483
sci.crypt,C:\Users\sabau.DOM_MEDIASAT\Projects\Licenta\NewsGroupDataSet\20news-bydate-train\sci.crypt\,15278
sci.electronics,C:\Users\sabau.DOM_MEDIASAT\Projects\Licenta\NewsGroupDataSet\20news-bydate-train\sci.electronics\,53505
sci.electronics,C:\Users\sabau.DOM_MEDIASAT\Projects\Licenta\NewsGroupDataSet\20news-bydate-train\sci.electronics\,52762
sci.med,C:\Users\sabau.DOM_MEDIASAT\Projects\Licenta\NewsGroupDataSet\20news-bydate-train\sci.med\,58985
sci.med,C:\Users\sabau.DOM_MEDIASAT\Projects\Licenta\NewsGroupDataSet\20news-bydate-train\sci.med\,59179
sci.electronics,C:\Users\sabau.DOM_MEDIASAT\Projects\Licenta\NewsGroupDataSet\20news-bydate-train\sci.electronics\,53720
sci.crypt,C:\Users\sabau.DOM_MEDIASAT\Projects\Licenta\NewsGroupDataSet\20news-bydate-train\sci.crypt\,15323
sci.electronics,C:\Users\sabau.DOM_MEDIASAT\Projects\Licenta\NewsGroupDataSet\20news-bydate-train\sci.electronics\,52770
sci.med,C:\Users\sabau.DOM_MEDIASAT\Projects\Licenta\NewsGroupDataSet\20news-bydate-train\sci.med\,58061
sci.med,C:\Users\sabau.DOM_MEDIASAT\Projects\Licenta\NewsGroupDataSet\20news-bydate-train\sci.med\,58781
sci.electronics,C:\Users\sabau.DOM_MEDIASAT\Projects\Licenta\NewsGroupDataSet\20news-bydate-train\sci.electronics\,53952
sci.med,C:\Users\sabau.DOM_MEDIASAT\Projects\Licenta\NewsGroupDataSet\20news-bydate-train\sci.med\,58917
sci.crypt,C:\Users\sabau.DOM_MEDIASAT\Projects\Licenta\NewsGroupDataSet\20news-bydate-train\sci.crypt\,15387
sci.electronics,C:\Users\sabau.DOM_MEDIASAT\Projects\Licenta\NewsGroupDataSet\20news-bydate-train\sci.electronics\,53637
sci.crypt,C:\Users\sabau.DOM_MEDIASAT\Projects\Licenta\NewsGroupDataSet\20news-bydate-train\sci.crypt\,15628
sci.electronics,C:\Users\sabau.DOM_MEDIASAT\Projects\Licenta\NewsGroupDataSet\20news-bydate-train\sci.electronics\,53643
sci.electronics,C:\Users\sabau.DOM_MEDIASAT\Projects\Licenta\NewsGroupDataSet\20news-bydate-train\sci.electronics\,53838
sci.electronics,C:\Users\sabau.DOM_MEDIASAT\Projects\Licenta\NewsGroupDataSet\20news-bydate-train\sci.electronics\,53966
sci.crypt,C:\Users\sabau.DOM_MEDIASAT\Projects\Licenta\NewsGroupDataSet\20news-bydate-train\sci.crypt\,14985
sci.electronics,C:\Users\sabau.DOM_MEDIASAT\Projects\Licenta\NewsGroupDataSet\20news-bydate-train\sci.electronics\,53792
sci.electronics,C:\Users\sabau.DOM_MEDIASAT\Projects\Licenta\NewsGroupDataSet\20news-bydate-train\sci.electronics\,52788
sci.electronics,C:\Users\sabau.DOM_MEDIASAT\Projects\Licenta\NewsGroupDataSet\20news-bydate-train\sci.electronics\,53979
sci.med,C:\Users\sabau.DOM_MEDIASAT\Projects\Licenta\NewsGroupDataSet\20news-bydate-train\sci.med\,59119
sci.electronics,C:\Users\sabau.DOM_MEDIASAT\Projects\Licenta\NewsGroupDataSet\20news-bydate-train\sci.electronics\,53878
sci.electronics,C:\Users\sabau.DOM_MEDIASAT\Projects\Licenta\NewsGroupDataSet\20news-bydate-train\sci.electronics\,52751
sci.crypt,C:\Users\sabau.DOM_MEDIASAT\Projects\Licenta\NewsGroupDataSet\20news-bydate-train\sci.crypt\,15543
sci.med,C:\Users\sabau.DOM_MEDIASAT\Projects\Licenta\NewsGroupDataSet\20news-bydate-train\sci.med\,58844
sci.med,C:\Users\sabau.DOM_MEDIASAT\Projects\Licenta\NewsGroupDataSet\20news-bydate-train\sci.med\,58760
sci.med,C:\Users\sabau.DOM_MEDIASAT\Projects\Licenta\NewsGroupDataSet\20news-bydate-train\sci.med\,58121
sci.electronics,C:\Users\sabau.DOM_MEDIASAT\Projects\Licenta\NewsGroupDataSet\20news-bydate-train\sci.electronics\,53778
sci.med,C:\Users\sabau.DOM_MEDIASAT\Projects\Licenta\NewsGroupDataSet\20news-bydate-train\sci.med\,58798
sci.electronics,C:\Users\sabau.DOM_MEDIASAT\Projects\Licenta\NewsGroupDataSet\20news-bydate-train\sci.electronics\,53669
sci.crypt,C:\Users\sabau.DOM_MEDIASAT\Projects\Licenta\NewsGroupDataSet\20news-bydate-train\sci.crypt\,14986
sci.crypt,C:\Users\sabau.DOM_MEDIASAT\Projects\Licenta\NewsGroupDataSet\20news-bydate-train\sci.crypt\,15391
sci.med,C:\Users\sabau.DOM_MEDIASAT\Projects\Licenta\NewsGroupDataSet\20news-bydate-train\sci.med\,58963
sci.med,C:\Users\sabau.DOM_MEDIASAT\Projects\Licenta\NewsGroupDataSet\20news-bydate-train\sci.med\,58926
sci.med,C:\Users\sabau.DOM_MEDIASAT\Projects\Licenta\NewsGroupDataSet\20news-bydate-train\sci.med\,59028
sci.electronics,C:\Users\sabau.DOM_MEDIASAT\Projects\Licenta\NewsGroupDataSet\20news-bydate-train\sci.electronics\,53790
sci.electronics,C:\Users\sabau.DOM_MEDIASAT\Projects\Licenta\NewsGroupDataSet\20news-bydate-train\sci.electronics\,53969
sci.electronics,C:\Users\sabau.DOM_MEDIASAT\Projects\Licenta\NewsGroupDataSet\20news-bydate-train\sci.electronics\,53865
sci.med,C:\Users\sabau.DOM_MEDIASAT\Projects\Licenta\NewsGroupDataSet\20news-bydate-train\sci.med\,59219
sci.med,C:\Users\sabau.DOM_MEDIASAT\Projects\Licenta\NewsGroupDataSet\20news-bydate-train\sci.med\,59009
sci.med,C:\Users\sabau.DOM_MEDIASAT\Projects\Licenta\NewsGroupDataSet\20news-bydate-train\sci.med\,58988
sci.med,C:\Users\sabau.DOM_MEDIASAT\Projects\Licenta\NewsGroupDataSet\20news-bydate-train\sci.med\,59055
sci.crypt,C:\Users\sabau.DOM_MEDIASAT\Projects\Licenta\NewsGroupDataSet\20news-bydate-train\sci.crypt\,15001
sci.crypt,C:\Users\sabau.DOM_MEDIASAT\Projects\Licenta\NewsGroupDataSet\20news-bydate-train\sci.crypt\,15631
sci.crypt,C:\Users\sabau.DOM_MEDIASAT\Projects\Licenta\NewsGroupDataSet\20news-bydate-train\sci.crypt\,15411
sci.crypt,C:\Users\sabau.DOM_MEDIASAT\Projects\Licenta\NewsGroupDataSet\20news-bydate-train\sci.crypt\,15675
sci.crypt,C:\Users\sabau.DOM_MEDIASAT\Projects\Licenta\NewsGroupDataSet\20news-bydate-train\sci.crypt\,14999
sci.crypt,C:\Users\sabau.DOM_MEDIASAT\Projects\Licenta\NewsGroupDataSet\20news-bydate-train\sci.crypt\,15502
sci.crypt,C:\Users\sabau.DOM_MEDIASAT\Projects\Licenta\NewsGroupDataSet\20news-bydate-train\sci.crypt\,15408
sci.med,C:\Users\sabau.DOM_MEDIASAT\Projects\Licenta\NewsGroupDataSet\20news-bydate-train\sci.med\,58832
sci.med,C:\Users\sabau.DOM_MEDIASAT\Projects\Licenta\NewsGroupDataSet\20news-bydate-train\sci.med\,59077
sci.crypt,C:\Users\sabau.DOM_MEDIASAT\Projects\Licenta\NewsGroupDataSet\20news-bydate-train\sci.crypt\,15663
sci.med,C:\Users\sabau.DOM_MEDIASAT\Projects\Licenta\NewsGroupDataSet\20news-bydate-train\sci.med\,59081
sci.med,C:\Users\sabau.DOM_MEDIASAT\Projects\Licenta\NewsGroupDataSet\20news-bydate-train\sci.med\,58796
sci.electronics,C:\Users\sabau.DOM_MEDIASAT\Projects\Licenta\NewsGroupDataSet\20news-bydate-train\sci.electronics\,53946
sci.electronics,C:\Users\sabau.DOM_MEDIASAT\Projects\Licenta\NewsGroupDataSet\20news-bydate-train\sci.electronics\,53975
sci.med,C:\Users\sabau.DOM_MEDIASAT\Projects\Licenta\NewsGroupDataSet\20news-bydate-train\sci.med\,58152
sci.electronics,C:\Users\sabau.DOM_MEDIASAT\Projects\Licenta\NewsGroupDataSet\20news-bydate-train\sci.electronics\,53543
sci.electronics,C:\Users\sabau.DOM_MEDIASAT\Projects\Licenta\NewsGroupDataSet\20news-bydate-train\sci.electronics\,53892
sci.crypt,C:\Users\sabau.DOM_MEDIASAT\Projects\Licenta\NewsGroupDataSet\20news-bydate-train\sci.crypt\,15382
sci.crypt,C:\Users\sabau.DOM_MEDIASAT\Projects\Licenta\NewsGroupDataSet\20news-bydate-train\sci.crypt\,15401
sci.electronics,C:\Users\sabau.DOM_MEDIASAT\Projects\Licenta\NewsGroupDataSet\20news-bydate-train\sci.electronics\,53862
sci.med,C:\Users\sabau.DOM_MEDIASAT\Projects\Licenta\NewsGroupDataSet\20news-bydate-train\sci.med\,59058
sci.med,C:\Users\sabau.DOM_MEDIASAT\Projects\Licenta\NewsGroupDataSet\20news-bydate-train\sci.med\,58135
sci.electronics,C:\Users\sabau.DOM_MEDIASAT\Projects\Licenta\NewsGroupDataSet\20news-bydate-train\sci.electronics\,52812
sci.crypt,C:\Users\sabau.DOM_MEDIASAT\Projects\Licenta\NewsGroupDataSet\20news-bydate-train\sci.crypt\,15291
sci.med,C:\Users\sabau.DOM_MEDIASAT\Projects\Licenta\NewsGroupDataSet\20news-bydate-train\sci.med\,59211
sci.med,C:\Users\sabau.DOM_MEDIASAT\Projects\Licenta\NewsGroupDataSet\20news-bydate-train\sci.med\,58087
sci.med,C:\Users\sabau.DOM_MEDIASAT\Projects\Licenta\NewsGroupDataSet\20news-bydate-train\sci.med\,59007
sci.med,C:\Users\sabau.DOM_MEDIASAT\Projects\Licenta\NewsGroupDataSet\20news-bydate-train\sci.med\,58874
sci.electronics,C:\Users\sabau.DOM_MEDIASAT\Projects\Licenta\NewsGroupDataSet\20news-bydate-train\sci.electronics\,53613
sci.med,C:\Users\sabau.DOM_MEDIASAT\Projects\Licenta\NewsGroupDataSet\20news-bydate-train\sci.med\,59154
sci.electronics,C:\Users\sabau.DOM_MEDIASAT\Projects\Licenta\NewsGroupDataSet\20news-bydate-train\sci.electronics\,53608
sci.crypt,C:\Users\sabau.DOM_MEDIASAT\Projects\Licenta\NewsGroupDataSet\20news-bydate-train\sci.crypt\,15386
sci.med,C:\Users\sabau.DOM_MEDIASAT\Projects\Licenta\NewsGroupDataSet\20news-bydate-train\sci.med\,59232
sci.electronics,C:\Users\sabau.DOM_MEDIASAT\Projects\Licenta\NewsGroupDataSet\20news-bydate-train\sci.electronics\,52805
sci.med,C:\Users\sabau.DOM_MEDIASAT\Projects\Licenta\NewsGroupDataSet\20news-bydate-train\sci.med\,59041
sci.electronics,C:\Users\sabau.DOM_MEDIASAT\Projects\Licenta\NewsGroupDataSet\20news-bydate-train\sci.electronics\,53895
sci.med,C:\Users\sabau.DOM_MEDIASAT\Projects\Licenta\NewsGroupDataSet\20news-bydate-train\sci.med\,59158
sci.crypt,C:\Users\sabau.DOM_MEDIASAT\Projects\Licenta\NewsGroupDataSet\20news-bydate-train\sci.crypt\,15176
sci.med,C:\Users\sabau.DOM_MEDIASAT\Projects\Licenta\NewsGroupDataSet\20news-bydate-train\sci.med\,59036
sci.electronics,C:\Users\sabau.DOM_MEDIASAT\Projects\Licenta\NewsGroupDataSet\20news-bydate-train\sci.electronics\,53659
sci.crypt,C:\Users\sabau.DOM_MEDIASAT\Projects\Licenta\NewsGroupDataSet\20news-bydate-train\sci.crypt\,15482
sci.med,C:\Users\sabau.DOM_MEDIASAT\Projects\Licenta\NewsGroupDataSet\20news-bydate-train\sci.med\,58952
sci.crypt,C:\Users\sabau.DOM_MEDIASAT\Projects\Licenta\NewsGroupDataSet\20news-bydate-train\sci.crypt\,15311
sci.electronics,C:\Users\sabau.DOM_MEDIASAT\Projects\Licenta\NewsGroupDataSet\20news-bydate-train\sci.electronics\,53596
sci.crypt,C:\Users\sabau.DOM_MEDIASAT\Projects\Licenta\NewsGroupDataSet\20news-bydate-train\sci.crypt\,15394
sci.crypt,C:\Users\sabau.DOM_MEDIASAT\Projects\Licenta\NewsGroupDataSet\20news-bydate-train\sci.crypt\,15330
sci.crypt,C:\Users\sabau.DOM_MEDIASAT\Projects\Licenta\NewsGroupDataSet\20news-bydate-train\sci.crypt\,15486
sci.electronics,C:\Users\sabau.DOM_MEDIASAT\Projects\Licenta\NewsGroupDataSet\20news-bydate-train\sci.electronics\,53835
sci.electronics,C:\Users\sabau.DOM_MEDIASAT\Projects\Licenta\NewsGroupDataSet\20news-bydate-train\sci.electronics\,53741
sci.med,C:\Users\sabau.DOM_MEDIASAT\Projects\Licenta\NewsGroupDataSet\20news-bydate-train\sci.med\,58846
sci.crypt,C:\Users\sabau.DOM_MEDIASAT\Projects\Licenta\NewsGroupDataSet\20news-bydate-train\sci.crypt\,15690
sci.crypt,C:\Users\sabau.DOM_MEDIASAT\Projects\Licenta\NewsGroupDataSet\20news-bydate-train\sci.crypt\,15674
sci.electronics,C:\Users\sabau.DOM_MEDIASAT\Projects\Licenta\NewsGroupDataSet\20news-bydate-train\sci.electronics\,53817
sci.crypt,C:\Users\sabau.DOM_MEDIASAT\Projects\Licenta\NewsGroupDataSet\20news-bydate-train\sci.crypt\,15615
sci.crypt,C:\Users\sabau.DOM_MEDIASAT\Projects\Licenta\NewsGroupDataSet\20news-bydate-train\sci.crypt\,15609
sci.electronics,C:\Users\sabau.DOM_MEDIASAT\Projects\Licenta\NewsGroupDataSet\20news-bydate-train\sci.electronics\,52771
sci.electronics,C:\Users\sabau.DOM_MEDIASAT\Projects\Licenta\NewsGroupDataSet\20news-bydate-train\sci.electronics\,52723
sci.electronics,C:\Users\sabau.DOM_MEDIASAT\Projects\Licenta\NewsGroupDataSet\20news-bydate-train\sci.electronics\,53504
sci.med,C:\Users\sabau.DOM_MEDIASAT\Projects\Licenta\NewsGroupDataSet\20news-bydate-train\sci.med\,59094
sci.electronics,C:\Users\sabau.DOM_MEDIASAT\Projects\Licenta\NewsGroupDataSet\20news-bydate-train\sci.electronics\,53580
sci.med,C:\Users\sabau.DOM_MEDIASAT\Projects\Licenta\NewsGroupDataSet\20news-bydate-train\sci.med\,58783
sci.electronics,C:\Users\sabau.DOM_MEDIASAT\Projects\Licenta\NewsGroupDataSet\20news-bydate-train\sci.electronics\,52464
sci.electronics,C:\Users\sabau.DOM_MEDIASAT\Projects\Licenta\NewsGroupDataSet\20news-bydate-train\sci.electronics\,53814
sci.crypt,C:\Users\sabau.DOM_MEDIASAT\Projects\Licenta\NewsGroupDataSet\20news-bydate-train\sci.crypt\,15268
